analyzerout4.vcd
$date 2023-06-14 18:47:22.940045 $end
$timescale 1 ns $end
$scope module  $end
$var wire 1 ! pin[0] $end
$var wire 1 " pin[1] $end
$var wire 1 # pin[2] $end
$var wire 1 $ pin[3] $end
$var wire 1 % pin[4] $end
$var wire 1 & pin[5] $end
$var wire 1 ' pin[6] $end
$var wire 1 ( pin[7] $end
$var wire 1 ) pin[8] $end
$var wire 1 * pin[9] $end
$var wire 1 + pin[10] $end
$var wire 1 , pin[11] $end
$var wire 1 - pin[12] $end
$upscope $end
$enddefinitions $end
#0
$dumpvars
0!
0"
0#
0$
0%
0&
0'
0(
0)
0*
0+
0,
0-
$end
#20
1!
1"
1#
1$
1%
1&
1'
1(
1)
1*
1+
1,
1-
#16010878708
0!
0"
0#
0$
0%
0&
0'
0(
0)
0*
0+
0,
0-
#16010900583
1!
1"
1#
1%
1'
1(
#16010901625
0!
0"
0#
0%
0'
0(
#16010918291
1!
1"
1#
1%
1'
1(
#16010919333
0!
0"
0#
0%
0'
0(
#16010945375
1!
1"
1#
1%
1&
1(
#16010946416
0!
0"
0#
0%
0&
0(
#16010959958
1!
1"
1#
1%
1'
1(
#16010961000
0!
0"
0#
0%
0'
0(
#16010975583
1!
1'
1(
#16010976625
0!
0'
0(
#16010984958
1!
1"
1#
1$
1&
1(
#16010986000
0!
0"
0#
0$
0&
0(
#16010988083
1!
1"
1#
1&
1(
#16010989125
0!
0"
0#
0&
0(
#16011011000
1!
1"
1#
1&
1(
#16011012041
0!
0"
0#
0&
0(
#16011015166
1!
1'
1(
#16011016208
0!
0'
0(
#16011051625
1!
1#
1'
1(
#16011052666
0!
0#
0'
0(
#16011067250
1!
1"
1#
1%
1&
1(
#16011068291
0!
0"
0#
0%
0&
0(
#16011126625
1!
1"
1#
1%
1&
1'
#16011127666
0!
0"
0#
0%
0&
0'
#16011143291
1#
1$
1&
1)
#16011144333
0#
0$
0&
0)
#16011166208
1!
1"
1#
1&
1)
#16011167250
0!
0"
0#
0&
0)
#16011188083
1!
1"
1#
1&
1(
#16011189125
0!
0"
0#
0&
0(
#16011200583
1!
1"
1#
1&
1)
#16011201625
0!
0"
0#
0&
0)
#16011203708
1!
1"
1#
1%
1'
1(
#16011204750
0!
0"
0#
0%
0'
0(
#16011205791
1!
1"
1#
1'
1(
#16011206833
0!
0"
0#
0'
0(
#16011207875
1!
1"
1#
1%
1&
1(
#16011208916
0!
0"
0#
0%
0&
0(
#16011228708
1!
1#
1%
1&
1(
#16011229750
0!
0#
0%
0&
0(
#16011246416
1!
1"
1#
1$
1(
#16011247458
0!
0"
0#
0$
0(
#16011257875
1!
1$
1&
1(
#16011258916
0!
0$
0&
0(
#16011298500
1!
1&
1'
1(
#16011299541
0!
0&
0'
0(
#16011307875
1!
1"
1#
1%
1&
1)
#16011308916
0!
0"
0#
0%
0&
0)
#16011315166
1!
1"
1#
1%
1(
#16011316208
0!
0"
0#
0%
0(
#16011319333
1!
1"
1#
1&
1(
#16011320375
0!
0"
0#
0&
0(
#16011379750
1!
1"
1#
1%
1&
#16011380791
0!
0"
0#
0%
0&
#16011428708
1!
1"
1#
1%
1&
1(
#16011429750
0!
0"
0#
0%
0&
0(
#16011458916
1!
1"
1#
1'
1(
#16011459958
0!
0"
0#
0'
0(
#16011480791
1!
1"
1#
1%
1&
1(
#16011481833
0!
0"
0#
0%
0&
0(
#16011499541
1"
1#
1%
1'
1(
#16011500583
0"
0#
0%
0'
0(
#16011534958
1!
1$
1&
1(
#16011536000
0!
0$
0&
0(
#16011565166
1!
1"
1#
1%
1'
1(
#16011566208
0!
0"
0#
0%
0'
0(
#16011577666
1!
1"
1#
1%
1&
1)
#16011578708
0!
0"
0#
0%
0&
0)
#16011582875
1!
1"
1#
1%
1'
1(
#16011583916
0!
0"
0#
0%
0'
0(
#16011651625
1!
1"
1#
1%
1'
1(
#16011652666
0!
0"
0#
0%
0'
0(
#16011667250
1!
1"
1#
1%
1&
1*
#16011668291
0!
0"
0#
0%
0&
0*
#16011670375
1!
1"
1#
1%
1'
1(
#16011671416
0!
0"
0#
0%
0'
0(
#16011677666
1"
1#
1%
1'
1(
#16011678708
0"
0#
0%
0'
0(
#16011689125
1!
1"
1#
1%
1'
1(
#16011690166
0!
0"
0#
0%
0'
0(
#16011693291
1!
1'
1(
#16011694333
0!
0'
0(
#16011752666
1!
1"
1#
1%
1'
1(
#16011753708
0!
0"
0#
0%
0'
0(
#16011866208
1!
1"
1#
1%
1&
1(
#16011867250
0!
0"
0#
0%
0&
0(
#16011953708
1!
1"
1#
1%
1(
#16011954750
0!
0"
0#
0%
0(
#16012018291
1!
1$
1%
1'
1(
#16012019333
0!
0$
0%
0'
0(
#16012027666
1%
1&
1(
#16012028708
0%
0&
0(
#16012039125
1!
1"
1#
1$
1%
1(
#16012040166
0!
0"
0#
0$
0%
0(
#16012071416
1!
1#
1%
1&
1(
#16012072458
0!
0#
0%
0&
0(
#16012097458
1!
1"
1#
1'
1(
#16012098500
0!
0"
0#
0'
0(
#16012118291
1!
1"
1#
1%
1'
1(
#16012119333
0!
0"
0#
0%
0'
0(
#16012130791
1!
1&
1(
#16012131833
0!
0&
0(
#16012140166
1!
1"
1#
1%
1'
1(
#16012141208
0!
0"
0#
0%
0'
0(
#16012158916
1!
1"
1#
1$
1'
1(
#16012159958
0!
0"
0#
0$
0'
0(
#16012199541
1!
1$
1%
1(
#16012200583
0!
0$
0%
0(
#16012203708
1!
1$
1'
1(
#16012204750
0!
0$
0'
0(
#16012211000
1"
1#
1$
1&
1(
#16012212041
0"
0#
0$
0&
0(
#16012264125
1!
1"
1#
1&
1'
#16012265166
0!
0"
0#
0&
0'
#16012266208
1"
1#
1&
1(
#16012267250
0"
0#
0&
0(
#16012272458
1!
1#
1%
1'
1(
#16012273500
0!
0#
0%
0'
0(
#16012277666
1!
1"
1#
1&
1)
#16012278708
0!
0"
0#
0&
0)
#16012289125
1!
1"
1#
1'
1(
#16012290166
0!
0"
0#
0'
0(
#16012292250
1!
1"
1#
1'
1(
#16012293291
0!
0"
0#
0'
0(
#16012301625
1!
1"
1#
1%
1&
1(
#16012302666
0!
0"
0#
0%
0&
0(
#16012330791
1!
1#
1%
1'
1(
#16012331833
0!
0#
0%
0'
0(
#16012373500
1!
1"
1#
1&
1(
#16012374541
0!
0"
0#
0&
0(
#16012403708
1!
1#
1%
1&
1(
#16012404750
1"
#16012405791
0!
0"
0#
0%
0&
0(
#16012408916
1!
1%
1&
1(
#16012409958
0!
0%
0&
0(
#16012439125
1"
1#
1%
1&
1(
#16012440166
0"
0#
0%
0&
0(
#16012444333
1!
1%
1&
1(
#16012445375
0!
0%
0&
0(
#16012446416
1!
1"
1#
1'
1(
#16012447458
0!
0"
0#
0'
0(
#16012537041
1%
1&
1)
#16012538083
0%
0&
0)
#16012544333
1!
1%
1&
1'
#16012545375
0!
0%
0&
0'
#16012615166
1!
1"
1#
1%
1&
1(
#16012616208
0!
0"
0#
0%
0&
0(
#16012636000
1!
1"
1#
1%
1'
1(
#16012637041
0!
0"
0#
0%
0'
0(
#16012658916
1"
1#
1'
1)
#16012659958
0"
0#
0'
0)
#16012670375
1!
1"
1#
1%
1'
1(
#16012671416
0!
0"
0#
0%
0'
0(
#16012701625
1!
1"
1#
1%
1&
1'
#16012702666
0!
0"
0#
0%
0&
0'
#16012711000
1!
1"
1#
1%
1&
1(
#16012712041
0!
0"
0#
0%
0&
0(
#16012718291
1!
1$
1%
1'
1(
#16012719333
0!
0$
0%
0'
0(
#16012740166
1!
1#
1'
1(
#16012741208
0!
0#
0'
0(
#16012780791
1!
1#
1&
1(
#16012781833
0!
0#
0&
0(
#16012857875
1"
1#
1%
1'
1(
#16012858916
0"
0#
0%
0'
0(
#16012874541
1!
1&
1(
#16012875583
1"
1#
1%
0&
1'
#16012876625
0!
0"
0#
0%
0'
0(
#16012882875
1!
1"
1#
1&
1(
#16012883916
0!
0"
0#
0&
0(
#16012888083
1!
1%
1&
1(
#16012889125
0!
0%
0&
0(
#16012892250
1!
1"
1#
1%
1'
1(
#16012893291
0!
0"
0#
0%
0'
0(
#16012901625
1!
1%
1&
1(
#16012902666
0!
0%
0&
0(
#16012974541
1!
1#
1'
1(
#16012975583
0!
0#
0'
0(
#16013007875
1!
1#
1'
1(
#16013008916
0!
0#
0'
0(
#16013011000
1"
1#
1%
1'
1(
#16013012041
0"
0#
0%
0'
0(
#16013013083
1!
1#
1$
1'
1(
#16013014125
0!
0#
0$
0'
0(
#16013032875
1!
1#
1&
1)
#16013033916
0!
0#
0&
0)
#16013089125
1!
1#
1%
1&
1(
#16013090166
0!
0#
0%
0&
0(
#16013149541
1!
1$
1%
1&
1(
#16013150583
0!
0$
0%
0&
0(
#16013167250
1!
1"
1#
1%
1(
#16013168291
0!
0"
0#
0%
0(
#16013176625
1#
1&
1(
#16013177666
1!
1"
0&
1'
#16013178708
0!
0"
0#
0'
0(
#16013193291
1!
1"
1%
1'
1(
#16013194333
0!
0"
0%
0'
0(
#16013228708
1!
1#
1$
1&
1(
#16013229750
0!
0#
0$
0&
0(
#16013263083
1"
1#
1&
1(
#16013264125
0"
0#
0&
0(
#16013267250
1!
1$
1%
1'
1(
#16013268291
0!
0$
0%
0'
0(
#16013288083
1!
1"
1#
1'
1(
#16013289125
0!
0"
0#
0'
0(
#16013294333
1!
1"
1#
1%
1&
1(
#16013295375
0!
0"
0#
0%
0&
0(
#16013300583
1!
1"
1#
1%
1'
1(
#16013301625
0!
0"
0#
0%
0'
0(
#16013323500
1#
1%
1&
1(
#16013324541
0#
0%
0&
0(
#16013342250
1!
1"
1#
1%
1'
1(
#16013343291
0!
0"
0#
0%
0'
0(
#16013383916
1!
1"
1#
1$
1&
1(
#16013384958
0!
0"
0#
0$
0&
0(
#16013418291
1!
1"
1#
1%
1'
1(
#16013419333
0!
0"
0#
0%
0'
0(
#16013446416
1%
1&
1(
#16013447458
0%
0&
0(
#16013463083
1!
1"
1#
1'
1(
#16013464125
0!
0"
0#
0'
0(
#16013533916
1!
1#
1%
1&
1(
#16013534958
0!
0#
0%
0&
0(
#16013539125
1!
1"
1#
1%
1&
1(
#16013540166
0!
0"
0#
0%
0&
0(
#16013562041
1!
1"
1#
1%
1'
1(
#16013563083
0!
0"
0#
0%
0'
0(
#16013595375
1"
1#
1&
1(
#16013596416
0"
0#
0&
0(
#16013634958
1!
1#
1$
1'
1(
#16013636000
0!
0#
0$
0'
0(
#16013665166
1"
1#
1&
1(
#16013666208
0"
0#
0&
0(
#16013671416
1!
1#
1%
1&
1(
#16013672458
0!
0#
0%
0&
0(
#16013752666
1!
1&
1)
#16013753708
1"
1#
1%
1(
0)
#16013754750
0!
0"
0#
0%
0&
0(
#16013776625
1!
1"
1#
1&
1(
#16013777666
0!
0"
0#
0&
0(
#16013825583
1!
1"
1#
1%
1'
1(
#16013826625
0!
0"
0#
0%
0'
0(
#16013843291
1!
1"
1#
1'
1(
#16013844333
0!
0"
0#
0'
0(
#16013884958
1!
1"
1#
1%
1&
1(
#16013886000
0!
0"
0#
0%
0&
0(
#16013895375
1!
1%
1&
1'
#16013896416
0!
0%
0&
0'
#16013901625
1!
1#
1&
1(
#16013902666
0!
0#
0&
0(
#16013915166
1!
1"
1#
1&
1(
#16013916208
0!
0"
0#
0&
0(
#16013925583
1!
1$
1%
1&
1(
#16013926625
0!
0$
0%
0&
0(
#16013963083
1!
1"
1#
1'
1(
#16013964125
0!
0"
0#
0'
0(
#16013968291
1!
1#
1'
1(
#16013969333
0!
0#
0'
0(
#16014014125
1"
1#
1%
1'
1(
#16014015166
0"
0#
0%
0'
0(
#16014016208
1!
1"
1#
1%
1&
1(
#16014017250
0!
0"
0#
0%
0&
0(
#16014124541
1!
1#
1$
1&
1(
#16014125583
0!
0#
0$
0&
0(
#16014144333
1!
1'
1(
#16014145375
0!
0'
0(
#16014170375
1!
1#
1%
1&
1(
#16014171416
0!
0#
0%
0&
0(
#16014172458
1!
1#
1%
1&
1(
#16014173500
0!
0#
0%
0&
0(
#16014191208
1!
1"
1#
1'
1(
#16014192250
0!
0"
0#
0'
0(
#16014197458
1!
1"
1#
1&
1'
#16014198500
0!
0"
0#
0&
0'
#16014216208
1!
1$
1&
1(
#16014217250
0!
0$
0&
0(
#16014237041
1!
1"
1#
1%
1&
1)
#16014238083
0%
1(
0)
#16014239125
0!
0"
0#
0&
0(
#16014268291
1!
1#
1'
1(
#16014269333
1$
1&
0'
0(
#16014270375
0!
0#
0$
0&
#16014279750
1!
1"
1#
1$
1'
1(
#16014280791
0!
0"
0#
0$
0'
0(
#16014318291
1!
1"
1#
1%
1'
1(
#16014319333
0!
0"
0#
0%
0'
0(
#16014327666
1!
1&
1(
#16014328708
0!
0&
0(
#16014361000
1'
1(
#16014362041
0'
0(
#16014431833
1!
1"
1#
1'
1(
#16014432875
0!
0"
0#
0'
0(
#16014459958
1!
1"
1#
1%
1&
1)
#16014461000
0!
0"
0#
0%
0&
0)
#16014472458
1!
1#
1%
1&
1(
#16014473500
0!
0#
0%
0&
0(
#16014492250
1!
1$
1&
1'
#16014493291
0!
0$
0&
0'
#16014500583
1!
1"
1#
1&
1(
#16014501625
0!
0"
0#
0&
0(
#16014530791
1"
1#
1&
1(
#16014531833
0"
0#
0&
0(
#16014553708
1!
1"
1#
1$
1(
#16014554750
0!
0"
0#
0$
0(
#16014555791
1!
1"
1#
1%
1&
1(
#16014557875
0!
0"
0#
0%
0&
0(
#16014559958
1!
1$
1%
1&
1(
#16014561000
0!
0$
0%
0&
0(
#16014596416
1!
1"
1#
1%
1&
1(
#16014597458
0!
0"
0#
0%
0&
0(
#16014617250
1%
1'
1(
#16014618291
0%
0'
0(
#16014623500
1!
1"
1#
1&
1(
#16014624541
0!
0"
0#
0&
0(
#16014648500
1!
1"
1#
1$
1'
1(
#16014649541
0!
0"
0#
0$
0'
0(
#16014651625
1!
1"
1#
1'
1(
#16014652666
0!
0"
0#
0'
0(
#16014670375
1!
1"
1#
1'
1(
#16014671416
0!
0"
0#
0'
0(
#16014684958
1!
1$
1'
1(
#16014686000
0!
0$
0'
0(
#16014691208
1!
1"
1#
1&
1(
#16014692250
0!
0"
0#
0&
0(
#16014694333
1!
1"
1#
1'
1(
#16014695375
0!
0"
0#
0'
0(
#16014700583
1"
1#
1%
1&
1(
#16014701625
0"
0#
0%
0&
0(
#16014706833
1!
1%
1&
1)
#16014707875
0!
0%
0&
0)
#16014730791
1!
1"
1#
1%
1&
1(
#16014731833
0!
0"
0#
0%
0&
0(
#16014732875
1!
1"
1#
1%
1(
#16014733916
0!
0"
0#
0%
0(
#16014738083
1!
1#
1$
1%
1'
1(
#16014739125
0!
0#
0$
0%
0'
0(
#16014756833
1!
1"
1#
1$
1&
1(
#16014757875
0!
0"
0#
0$
0&
0(
#16014782875
1!
1#
1%
1&
1(
#16014783916
0!
0#
0%
0&
0(
#16014851625
1!
1"
1#
1%
1&
1(
#16014852666
0!
0"
0#
0%
0&
0(
#16014858916
1!
1"
1#
1$
1%
1(
#16014859958
0"
0#
0%
1'
#16014861000
0!
0$
0'
0(
#16014864125
1!
1"
1#
1%
1&
1(
#16014865166
0!
0"
0#
0%
0&
0(
#16014898500
1!
1%
1(
#16014899541
0!
0%
0(
#16014908916
1"
1#
1$
1&
1)
#16014909958
0"
0#
0$
0&
0)
#16014924541
1!
1%
1&
1(
#16014925583
0!
0%
0&
0(
#16014946416
1!
1"
1#
1&
1(
#16014947458
0!
0"
0#
0&
0(
#16014963083
1!
1$
1%
1&
1(
#16014964125
0!
0$
0%
0&
0(
#16014992250
1!
1"
1#
1%
1&
1(
#16014993291
0!
0"
0#
0%
0&
0(
#16015008916
1!
1"
1#
1%
1(
#16015009958
0!
0"
0#
0%
0(
#16015014125
1!
1$
1'
1(
#16015015166
0!
0$
0'
0(
#16015042250
1$
1%
1&
1(
#16015043291
0$
0%
0&
0(
#16015074541
1!
1#
1'
1(
#16015075583
0!
0#
0'
0(
#16015104750
1!
1%
1&
1)
#16015105791
0!
0%
0&
0)
#16015115166
1!
1&
1(
#16015116208
0!
0&
0(
#16015117250
1!
1"
1#
1(
#16015118291
0!
0"
0#
0(
#16015145375
1!
1"
1#
1%
1&
1)
#16015146416
0!
0"
0#
0%
0&
0)
#16015149541
1!
1"
1#
1%
1&
1(
#16015150583
0!
0"
0#
0%
0&
0(
#16015157875
1!
1&
1(
#16015158916
0!
0&
0(
#16015183916
1!
1"
1#
1(
#16015184958
0!
0"
0#
0(
#16015198500
1!
1%
1&
1'
#16015199541
0!
0%
0&
0'
#16015205791
1!
1"
1#
1$
1'
1(
#16015206833
0!
0"
0#
0$
0'
0(
#16015241208
1!
1$
1%
1&
1(
#16015242250
0!
0$
0%
0&
0(
#16015293291
1!
1"
1#
1$
1%
1&
1(
#16015294333
0!
0"
0#
0$
0%
0&
0(
#16015309958
1!
1"
1#
1%
1'
1(
#16015311000
0!
0"
0#
0%
0'
0(
#16015373500
1%
1&
1(
#16015374541
0%
0&
0(
#16015384958
1!
1"
1#
1%
1&
1(
#16015386000
0!
0"
0#
0%
0&
0(
#16015424541
1!
1$
1%
1(
#16015425583
0!
0$
0%
0(
#16015436000
1!
1&
1(
#16015437041
0!
0&
0(
#16015453708
1!
1"
1#
1&
1(
#16015454750
0!
0"
0#
0&
0(
#16015459958
1!
1"
1#
1&
1'
#16015461000
0"
0&
1(
#16015462041
0!
0#
0'
0(
#16015472458
1!
1"
1#
1$
1'
1(
#16015473500
0!
0"
0#
0$
0'
0(
#16015501625
1!
1$
1%
1&
1(
#16015502666
0!
0$
0%
0&
0(
#16015530791
1"
1#
1&
1'
#16015531833
0"
0#
0&
0'
#16015540166
1!
1#
1%
1&
1(
#16015541208
0!
0#
0%
0&
0(
#16015550583
1"
1#
1%
1&
1(
#16015551625
0"
0#
0%
0&
0(
#16015562041
1!
1"
1#
1$
1&
1(
#16015563083
0!
0"
0#
0$
0&
0(
#16015572458
1!
1%
1&
1(
#16015573500
0!
0%
0&
0(
#16015620375
1!
1"
1#
1%
1'
1)
#16015621416
0!
0"
0#
0%
0'
0)
#16015631833
1!
1"
1#
1%
1&
1(
#16015632875
0!
0"
0#
0%
0&
0(
#16015644333
1!
1#
1%
1&
1'
#16015645375
0!
0#
0%
0&
0'
#16015677666
1!
1"
1#
1%
1&
1(
#16015678708
0!
0"
0#
0%
0&
0(
#16015680791
1!
1"
1#
1%
1&
1)
#16015681833
0!
0"
0#
0%
0&
0)
#16015705791
1!
1"
1#
1%
1'
1(
#16015706833
0!
0"
0#
0%
0'
0(
#16015720375
1!
1"
1#
1%
1'
1(
#16015721416
0!
0"
0#
0%
0'
0(
#16015734958
1!
1'
1(
#16015736000
0!
0'
0(
#16015792250
1!
1"
1#
1%
1'
1(
#16015793291
1$
0%
1&
0'
#16015794333
0!
0"
0#
0$
0&
0(
#16015814125
1!
1"
1#
1'
1(
#16015815166
0!
0"
0#
0'
0(
#16015830791
1!
1#
1%
1&
1(
#16015831833
0!
0#
0%
0&
0(
#16015873500
1!
1"
1#
1%
1&
1(
#16015874541
0!
0"
0#
0%
0&
0(
#16015886000
1!
1"
1#
1'
1(
#16015887041
0!
0"
0#
0'
0(
#16015936000
1!
1#
1&
1(
#16015937041
0!
0#
0&
0(
#16015939125
1!
1"
1#
1%
1'
1(
#16015940166
0!
0"
0#
0%
0'
0(
#16015950583
1!
1#
1%
1&
1(
#16015951625
0!
0#
0%
0&
0(
#16016037041
1!
1"
1#
1'
1(
#16016038083
0!
0"
0#
0'
0(
#16016044333
1!
1"
1#
1$
1&
1(
#16016045375
0!
0"
0#
0$
0&
0(
#16016074541
1!
1"
1#
1$
1%
1&
1(
#16016075583
0!
0"
0#
0$
0%
0&
0(
#16016144333
1!
1"
1#
1$
1&
1(
#16016145375
0!
0"
0#
0$
0&
0(
#16016157875
1!
1#
1&
1)
#16016158916
0!
0#
0&
0)
#16016179750
1!
1#
1%
1&
1(
#16016180791
0!
0#
0%
0&
0(
#16016195375
1!
1"
1#
1%
1'
1(
#16016196416
0!
0"
0#
0%
0'
0(
#16016205791
1"
1#
1$
1&
1(
#16016206833
0"
0#
0$
0&
0(
#16016231833
1!
1#
1%
1'
1(
#16016232875
0!
0#
0%
0'
0(
#16016281833
1!
1#
1(
#16016282875
0!
0#
0(
#16016316208
1!
1"
1#
1%
1&
#16016317250
0!
0"
0#
0%
0&
#16016326625
1"
1#
1'
1(
#16016327666
0"
0#
0'
0(
#16016341208
1!
1%
1'
1(
#16016342250
0!
0%
0'
0(
#16016349541
1!
1"
1#
1%
1&
1(
#16016350583
0!
0"
0#
0%
0&
0(
#16016365166
1!
1"
1#
1(
#16016366208
0!
0"
0#
0(
#16016371416
1!
1%
1&
1(
#16016372458
0!
0%
0&
0(
#16016376625
1!
1%
1'
1(
#16016377666
0!
0%
0'
0(
#16016378708
1!
1"
1#
1%
1'
1(
#16016379750
0!
0"
0#
0%
0'
0(
#16016420375
1!
1"
1#
1%
1&
1(
#16016421416
0!
0"
0#
0%
0&
0(
#16016439125
1!
1"
1#
1'
1(
#16016440166
0!
0"
0#
0'
0(
#16016488083
1!
1#
1%
1&
1(
#16016489125
0!
0#
0%
0&
0(
#16016548500
1!
1%
1'
1(
#16016549541
0!
0%
0'
0(
#16016561000
1!
1"
1#
1%
1&
1'
#16016562041
0!
0"
0#
0%
0&
0'
#16016618291
1!
1#
1$
1%
1&
1(
#16016619333
0!
0#
0$
0%
0&
0(
#16016636000
1!
1"
1#
1%
1&
1(
#16016637041
0!
0"
0#
0%
0&
0(
#16016654750
1!
1#
1&
1(
#16016655791
0!
0#
0&
0(
#16016670375
1!
1"
1#
1&
1(
#16016671416
0!
0"
0#
0&
0(
#16016673500
1!
1%
1&
1(
#16016674541
0!
0%
0&
0(
#16016675583
1!
1"
1#
1$
1&
1(
#16016676625
0!
0"
0#
0$
0&
0(
#16016684958
1!
1$
1&
1(
#16016686000
0!
0$
0&
0(
#16016687041
1!
1"
1#
1$
1%
1&
1(
#16016688083
0!
0"
0#
0$
0%
0&
0(
#16016700583
1!
1"
1#
1&
1(
#16016701625
0!
0"
0#
0&
0(
#16016706833
1!
1"
1#
1%
1'
1(
#16016707875
0!
0"
0#
0%
0'
0(
#16016733916
1!
1#
1%
1&
1'
#16016734958
0!
0#
0%
0&
0'
#16016777666
1!
1#
1$
1%
1&
1)
#16016778708
0!
0#
0$
0%
0&
0)
#16016786000
1!
1#
1&
1(
#16016787041
0!
0#
0&
0(
#16016798500
1!
1"
1#
1%
1&
1(
#16016799541
0!
0"
0#
0%
0&
0(
#16016802666
1!
1"
1#
1%
1&
1(
#16016803708
0!
0"
0#
0%
0&
0(
#16016879750
1!
1"
1&
1(
#16016880791
0!
0"
0&
0(
#16016881833
1!
1"
1#
1%
1&
1(
#16016882875
0!
0"
0#
0%
0&
0(
#16016907875
1$
1%
1'
1(
#16016908916
0$
0%
0'
0(
#16016954750
1!
1&
1(
#16016955791
0!
0&
0(
#16016956833
1!
1"
1#
1'
1(
#16016957875
0!
0"
0#
0'
0(
#16016984958
1!
1%
1&
1(
#16016986000
0!
0%
0&
0(
#16016992250
1!
1#
1&
1(
#16016993291
0!
0#
0&
0(
#16016996416
1!
1#
1'
1(
#16016997458
0!
0#
0'
0(
#16016999541
1!
1#
1%
1'
1(
#16017000583
0!
0#
0%
0'
0(
#16017004750
1!
1"
1#
1%
1'
1(
#16017005791
0!
0"
0#
0%
0'
0(
#16017009958
1"
1#
1%
1'
1(
#16017011000
0"
0#
0%
0'
0(
#16017021416
1!
1#
1%
1&
1(
#16017022458
0!
0#
0%
0&
0(
#16017036000
1!
1"
1#
1&
1(
#16017037041
0!
0"
0#
0&
0(
#16017075583
1!
1%
1'
1(
#16017076625
0!
0%
0'
0(
#16017077666
1!
1"
1#
1'
1(
#16017078708
0!
0"
0#
0'
0(
#16017122458
1!
1"
1#
1&
1(
#16017123500
0!
0"
0#
0&
0(
#16017188083
1!
1#
1$
1%
1&
1)
#16017189125
0!
0#
0$
0%
0&
0)
#16017207875
1!
1#
1%
1&
1)
#16017208916
0!
0#
0%
0&
0)
#16017209958
1!
1"
1#
1&
1(
#16017211000
0!
0"
0#
0&
0(
#16017233916
1!
1#
1$
1%
1&
1(
#16017234958
0!
0#
0$
0%
0&
0(
#16017240166
1!
1"
1#
1&
1(
#16017241208
0!
0"
0#
0&
0(
#16017246416
1!
1$
1%
1&
1'
1(
#16017247458
0!
0$
0%
0&
0'
0(
#16017291208
1!
1#
1%
1'
1(
#16017292250
0!
0#
0%
0'
0(
#16017293291
1#
1%
1(
#16017294333
0#
0%
0(
#16017320375
1!
1#
1%
1&
1)
#16017321416
0!
0#
0%
0&
0)
#16017338083
1!
1"
1#
1%
1&
1(
#16017339125
0!
0"
0#
0%
0&
0(
#16017358916
1!
1"
1#
1%
1(
#16017359958
0!
0"
0#
0%
0(
#16017367250
1"
1#
1$
1&
1(
#16017368291
0"
0#
0$
0&
0(
#16017377666
1!
1"
1#
1&
1(
#16017378708
0!
0"
0#
0&
0(
#16017394333
1#
1$
1'
1(
#16017395375
0#
0$
0'
0(
#16017417250
1!
1"
1#
1$
1&
1'
#16017418291
0!
0"
0#
0$
0&
0'
#16017437041
1!
1"
1#
1%
1'
1(
#16017438083
0!
0"
0#
0%
0'
0(
#16017441208
1!
1"
1#
1%
1&
1(
#16017442250
0!
0"
0#
0%
0&
0(
#16017446416
1!
1"
1#
1&
1(
#16017447458
0!
0"
0#
0&
0(
#16017450583
1!
1"
1#
1&
1(
#16017451625
0!
0"
0#
0&
0(
#16017470375
1!
1"
1#
1%
1(
#16017471416
0!
0"
0#
0%
0(
#16017546416
1!
1"
1#
1&
1(
#16017547458
1%
#16017548500
0!
0"
0#
0%
0&
0(
#16017551625
1!
1"
1#
1&
1(
#16017552666
0!
0"
0#
0&
0(
#16017580791
1!
1%
1'
1(
#16017581833
0!
0%
0'
0(
#16017600583
1!
1"
1#
1$
1'
1(
#16017601625
0!
0"
0#
0$
0'
0(
#16017602666
1!
1"
1#
1%
1'
1(
#16017603708
0!
0"
0#
0%
0'
0(
#16017615166
1!
1"
1#
1&
1'
1(
#16017616208
0!
0"
0#
0&
0'
0(
#16017655791
1!
1"
1#
1%
1&
1(
#16017656833
0!
0"
0#
0%
0&
0(
#16017671416
1!
1"
1#
1%
1&
1(
#16017672458
0!
0"
0#
0%
0&
0(
#16017699541
1"
1#
1%
1'
1(
#16017700583
0"
0#
0%
0'
0(
#16017714125
1!
1"
1#
1$
1'
1)
#16017715166
0!
0"
0#
0$
0'
0)
#16017730791
1!
1#
1'
1(
#16017731833
0!
0#
0'
0(
#16017834958
1!
1#
1%
1&
1(
#16017836000
0!
0#
0%
0&
0(
#16017899541
1!
1"
1#
1%
1'
1(
#16017900583
0!
0"
0#
0%
0'
0(
#16017915166
1!
1$
1&
1(
#16017916208
0!
0$
0&
0(
#16017958916
1!
1#
1%
1&
1(
#16017959958
0!
0#
0%
0&
0(
#16017963083
1!
1"
1#
1&
1(
#16017964125
0!
0"
0#
0&
0(
#16018009958
1!
1#
1%
1'
1(
#16018011000
0!
0#
0%
0'
0(
#16018028708
1"
1#
1(
#16018029750
0"
0#
0(
#16018037041
1!
1"
1#
1%
1'
1(
#16018038083
0!
0"
0#
0%
0'
0(
#16018047458
1!
1"
1#
1'
1(
#16018048500
0!
0"
0#
0'
0(
#16018051625
1!
1"
1#
1%
1'
1(
#16018052666
0!
0"
0#
0%
0'
0(
#16018074541
1!
1"
1#
1$
1'
1(
#16018075583
0!
0"
0#
0$
0'
0(
#16018082875
1!
1#
1%
1'
1(
#16018083916
0!
0#
0%
0'
0(
#16018109958
1!
1"
1#
1$
1&
1)
#16018111000
0!
0"
0#
0$
0&
0)
#16018139125
1!
1#
1%
1&
1'
#16018140166
0!
0#
0%
0&
0'
#16018161000
1!
1"
1#
1&
1(
#16018162041
0!
0"
0#
0&
0(
#16018168291
1"
1#
1&
1(
#16018169333
0"
0#
0&
0(
#16018186000
1!
1"
1#
1%
1&
1(
#16018187041
0!
0"
0#
0%
0&
0(
#16018231833
1!
1"
1#
1%
1'
1(
#16018232875
0!
0"
0#
0%
0'
0(
#16018241208
1!
1"
1#
1'
1(
#16018242250
0!
0"
0#
0'
0(
#16018243291
1!
1"
1#
1&
1)
#16018244333
0!
0"
0#
0&
0)
#16018290166
1"
1#
1%
1&
1(
#16018291208
0"
0#
0%
0&
0(
#16018297458
1!
1"
1#
1%
1&
1(
#16018298500
0!
0"
0#
0%
0&
0(
#16018303708
1!
1"
1#
1'
1(
#16018304750
0!
0"
0#
0'
0(
#16018325583
1"
1#
1$
1&
1(
#16018326625
0"
0#
0$
0&
0(
#16018351625
1!
1%
1&
1(
#16018352666
0!
0%
0&
0(
#16018353708
1"
1$
1%
1&
1)
#16018354750
0"
0$
0%
0&
0)
#16018382875
1!
1"
1#
1%
1&
1)
#16018383916
0!
0"
0#
0%
0&
0)
#16018407875
1!
1"
1#
1&
1(
#16018408916
0!
0"
0#
0&
0(
#16018425583
1!
1'
1(
#16018426625
0!
0'
0(
#16018428708
1"
1#
1&
1(
#16018429750
0"
0#
0&
0(
#16018434958
1!
1"
1#
1'
1(
#16018436000
0!
0"
0#
0'
0(
#16018438083
1!
1"
1#
1%
1'
1(
#16018439125
0!
0"
0#
0%
0'
0(
#16018452666
1!
1#
1%
1(
#16018453708
0!
0#
0%
0(
#16018461000
1!
1"
1#
1%
1&
1(
#16018462041
0!
0"
0#
0%
0&
0(
#16018472458
1!
1"
1#
1(
#16018473500
0!
0"
0#
0(
#16018477666
1!
1"
1#
1'
1(
#16018478708
0!
0"
0#
0'
0(
#16018519333
1!
1#
1%
1&
1(
#16018520375
0!
0#
0%
0&
0(
