analyzerout.vcd
$date 2023-06-14 18:33:01.031219 $end
$timescale 1 ns $end
$scope module  $end
$var wire 1 ! pin[0] $end
$upscope $end
$enddefinitions $end
#0
$dumpvars
0!
$end
#583
1!
#2666
0!
#53350583
1!
#53351625
0!
#55959958
1!
#55961000
0!
#58127666
1!
#58128708
0!
#80157875
1!
#80158916
0!
#85391208
1!
#85392250
0!
#105824541
1!
#105825583
0!
#131708916
1!
#131709958
0!
#140705791
1!
#140706833
0!
#147959958
1!
#147961000
0!
#168304750
1!
#168305791
0!
#187412041
1!
#187413083
0!
#191254750
1!
#191255791
0!
#215199541
1!
#215200583
0!
#226254750
1!
#226255791
0!
#282111000
1!
#282112041
0!
#323440166
1!
#323441208
0!
#329303708
1!
#329304750
0!
#334736000
1!
#334737041
0!
#336824541
1!
#336825583
0!
#337773500
1!
#337774541
0!
#349046416
1!
#349047458
0!
#387557875
1!
#387558916
0!
#440546416
1!
#440547458
0!
#455666208
1!
#455667250
0!
#479036000
1!
#479037041
0!
#480292250
1!
#480293291
0!
#495692250
1!
#495693291
0!
#514437041
1!
#514438083
0!
#518453708
1!
#518454750
0!
#539106833
1!
#539107875
0!
#564089125
1!
#564090166
0!
#596483916
1!
#596484958
0!
#624078708
1!
#624079750
0!
#626346416
1!
#626347458
0!
#631018291
1!
#631019333
0!
#633294333
1!
#633295375
0!
#637987041
1!
#637988083
0!
#649241208
1!
#649242250
0!
#725638083
1!
#725639125
0!
#725861000
1!
#725862041
0!
#768982875
1!
#768983916
0!
#771593291
1!
#771594333
0!
#785500583
1!
#785501625
0!
#817003708
1!
#817004750
0!
#842766208
1!
#842767250
0!
#849344333
1!
#849345375
0!
#857174541
1!
#857175583
0!
#872675583
1!
#872676625
0!
#955125583
1!
#955126625
0!
#962627666
1!
#962628708
0!
#1006293291
1!
#1006294333
0!
#1024761000
1!
#1024762041
0!
#1133064125
1!
#1133065166
0!
#1137255791
1!
#1137256833
0!
#1146904750
1!
#1146905791
0!
#1171784958
1!
#1171786000
0!
#1172209958
1!
#1172211000
0!
#1234884958
1!
#1234886000
0!
#1257575583
1!
#1257576625
0!
#1276812041
1!
#1276813083
0!
#1312680791
1!
#1312681833
0!
#1315630791
1!
#1315631833
0!
#1317964125
1!
#1317965166
0!
#1326956833
1!
#1326957875
0!
#1327428708
1!
#1327429750
0!
#1339986000
1!
#1339987041
0!
#1346215166
1!
#1346216208
0!
#1390239125
1!
#1390240166
0!
#1402282875
1!
#1402283916
0!
#1403515166
1!
#1403516208
0!
#1436938083
1!
#1436939125
0!
#1441696416
1!
#1441697458
0!
#1464952666
1!
#1464953708
0!
#1511442250
1!
#1511443291
0!
#1533800583
1!
#1533801625
0!
#1555547458
1!
#1555548500
0!
#1592180791
1!
#1592181833
0!
#1605207875
1!
#1605208916
0!
#1643141208
1!
#1643142250
0!
#1707040166
1!
#1707041208
0!
#1720933916
1!
#1720934958
0!
#1732164125
1!
#1732165166
0!
#1753359958
1!
#1753361000
0!
#1778451625
1!
#1778452666
0!
#1816766208
1!
#1816767250
0!
#1820303708
1!
#1820304750
0!
#1856053708
1!
#1856054750
0!
#1874902666
1!
#1874903708
0!
#1892395375
1!
#1892396416
0!
#1892590166
1!
#1892591208
0!
#1905695375
1!
#1905696416
0!
#1944089125
1!
#1944090166
0!
#1956647458
1!
#1956648500
0!
#1961165166
1!
#1961166208
0!
#1990524541
1!
#1990525583
0!
#2011937041
1!
#2011938083
0!
#2020561000
1!
#2020562041
0!
#2022911000
1!
#2022912041
0!
#2027101625
1!
#2027102666
0!
#2043036000
1!
#2043037041
0!
#2096398500
1!
#2096399541
0!
#2199640166
1!
#2199641208
0!
#2237112041
1!
#2237113083
0!
#2292400583
1!
#2292401625
0!
#2348718291
1!
#2348719333
0!
#2373149541
1!
#2373150583
0!
#2382576625
1!
#2382577666
0!
#2415593291
1!
#2415594333
0!
#2432807875
1!
#2432808916
0!
#2439704750
1!
#2439705791
0!
#2443741208
1!
#2443742250
0!
#2457784958
1!
#2457786000
0!
#2471547458
1!
#2471548500
0!
#2480303708
1!
#2480304750
0!
#2502503708
1!
#2502504750
0!
#2549130791
1!
#2549131833
0!
#2562149541
1!
#2562150583
0!
#2568142250
1!
#2568143291
0!
#2573612041
1!
#2573613083
0!
#2596478708
1!
#2596479750
0!
#2608586000
1!
#2608587041
0!
#2624643291
1!
#2624644333
0!
#2647781833
1!
#2647782875
0!
#2663670375
1!
#2663671416
0!
#2710952666
1!
#2710953708
0!
#2715155791
1!
#2715156833
0!
#2715523500
1!
#2715524541
0!
#2742143291
1!
#2742144333
0!
#2759679750
1!
#2759680791
0!
#2761481833
1!
#2761482875
0!
#2772125583
1!
#2772126625
0!
#2790842250
1!
#2790843291
0!
#2790904750
1!
#2790905791
0!
#2791753708
1!
#2791754750
0!
#2793039125
1!
#2793040166
0!
#2860298500
1!
#2860299541
0!
#2867678708
1!
#2867679750
0!
#2893859958
1!
#2893861000
0!
#2898063083
1!
#2898064125
0!
#2935983916
1!
#2935984958
0!
#2948194333
1!
#2948195375
0!
#2987843291
1!
#2987844333
0!
#2997208916
1!
#2997209958
0!
#3045468291
1!
#3045469333
0!
#3050972458
1!
#3050973500
0!
#3053232875
1!
#3053233916
0!
#3054928708
1!
#3054929750
0!
#3063214125
1!
#3063215166
0!
#3080658916
1!
#3080659958
0!
#3098129750
1!
#3098130791
0!
#3104171416
1!
#3104172458
0!
#3110990166
1!
#3110991208
0!
#3149957875
1!
#3149958916
0!
#3189329750
1!
#3189330791
0!
#3195291208
1!
#3195292250
0!
#3216425583
1!
#3216426625
0!
#3227693291
1!
#3227694333
0!
#3245439125
1!
#3245440166
0!
#3320909958
1!
#3320911000
0!
#3362974541
1!
#3362975583
0!
#3418305791
1!
#3418306833
0!
#3453100583
1!
#3453101625
0!
#3475218291
1!
#3475219333
0!
#3507586000
1!
#3507587041
0!
#3516257875
1!
#3516258916
0!
#3533819333
1!
#3533820375
0!
#3553521416
1!
#3553522458
0!
#3560962041
1!
#3560963083
0!
#3611415166
1!
#3611416208
0!
#3647527666
1!
#3647528708
0!
#3668053708
1!
#3668054750
0!
#3671963083
1!
#3671964125
0!
#3722669333
1!
#3722670375
0!
#3765120375
1!
#3765121416
0!
#3801339125
1!
#3801340166
0!
#3820297458
1!
#3820298500
0!
#3853526625
1!
#3853527666
0!
#3870512041
1!
#3870513083
0!
#3872144333
1!
#3872145375
0!
#3876775583
1!
#3876776625
0!
#3882370375
1!
#3882371416
0!
#3883411000
1!
#3883412041
0!
#3892299541
1!
#3892300583
0!
#3892758916
1!
#3892759958
0!
#3893178708
1!
#3893179750
0!
#3964624541
1!
#3964625583
0!
#3969107875
1!
#3969108916
0!
#3978070375
1!
#3978071416
0!
#3991693291
1!
#3991694333
0!
#4044481833
1!
#4044482875
0!
#4124275583
1!
#4124276625
0!
#4152456833
1!
#4152457875
0!
#4168306833
1!
#4168307875
0!
#4172833916
1!
#4172834958
0!
#4175249541
1!
#4175250583
0!
#4237493291
1!
#4237494333
0!
#4251723500
1!
#4251724541
0!
#4262152666
1!
#4262153708
0!
#4315104750
1!
#4315105791
0!
#4321288083
1!
#4321289125
0!
#4324315166
1!
#4324316208
0!
#4326964125
1!
#4326965166
0!
#4328286000
1!
#4328287041
0!
#4332337041
1!
#4332338083
0!
#4363324541
1!
#4363325583
0!
#4387305791
1!
#4387306833
0!
#4414695375
1!
#4414696416
0!
#4416255791
1!
#4416256833
0!
#4422982875
1!
#4422983916
0!
#4490823500
1!
#4490824541
0!
#4494656833
1!
#4494657875
0!
#4496471416
1!
#4496472458
0!
#4504013083
1!
#4504014125
0!
#4515146416
1!
#4515147458
0!
#4515526625
1!
#4515527666
0!
#4520153708
1!
#4520154750
0!
#4536521416
1!
#4536522458
0!
#4568273500
1!
#4568274541
0!
#4574824541
1!
#4574825583
0!
#4583440166
1!
#4583441208
0!
#4589537041
1!
#4589538083
0!
#4598578708
1!
#4598579750
0!
#4672056833
1!
#4672057875
0!
#4697918291
1!
#4697919333
0!
#4763484958
1!
#4763486000
0!
#4808132875
1!
#4808133916
0!
#4809603708
1!
#4809604750
0!
#4817909958
1!
#4817911000
0!
#4826811000
1!
#4826812041
0!
#4863712041
1!
#4863713083
0!
#4873043291
1!
#4873044333
0!
#4943570375
1!
#4943571416
0!
#4981069333
1!
#4981070375
0!
#5008029750
1!
#5008030791
0!
#5045250583
1!
#5045251625
0!
#5064629750
1!
#5064630791
0!
#5118348500
1!
#5118349541
0!
#5118874541
1!
#5118875583
0!
#5161596416
1!
#5161597458
0!
#5175586000
1!
#5175587041
0!
#5179483916
1!
#5179484958
0!
#5181290166
1!
#5181291208
0!
#5197019333
1!
#5197020375
0!
#5222423500
1!
#5222424541
0!
#5241450583
1!
#5241451625
0!
#5254317250
1!
#5254318291
0!
#5259184958
1!
#5259186000
0!
#5262470375
1!
#5262471416
0!
#5286096416
1!
#5286097458
0!
#5295980791
1!
#5295981833
0!
#5364186000
1!
#5364187041
0!
#5381618291
1!
#5381619333
0!
#5399891208
1!
#5399892250
0!
#5415589125
1!
#5415590166
0!
#5432883916
1!
#5432884958
0!
#5445556833
1!
#5445557875
0!
#5457487041
1!
#5457488083
0!
#5458468291
1!
#5458469333
0!
#5512700583
1!
#5512701625
0!
#5549211000
1!
#5549212041
0!
#5551505791
1!
#5551506833
0!
#5556679750
1!
#5556680791
0!
#5595623500
1!
#5595624541
0!
#5633831833
1!
#5633832875
0!
#5640001625
1!
#5640002666
0!
#5692479750
1!
#5692480791
0!
#5746148500
1!
#5746149541
0!
#5765888083
1!
#5765889125
0!
#5766709958
1!
#5766711000
0!
#5831048500
1!
#5831049541
0!
#5866948500
1!
#5866949541
0!
#5883002666
1!
#5883003708
0!
#5915283916
1!
#5915284958
0!
#5928673500
1!
#5928674541
0!
#5929204750
1!
#5929205791
0!
#5934523500
1!
#5934524541
0!
#5953537041
1!
#5953538083
0!
#5967586000
1!
#5967587041
0!
#5983767250
1!
#5983768291
0!
#6012426625
1!
#6012427666
0!
#6019713083
1!
#6019714125
0!
#6041653708
1!
#6041654750
0!
#6090449541
1!
#6090450583
0!
#6128723500
1!
#6128724541
0!
#6148554750
1!
#6148555791
0!
#6170705791
1!
#6170706833
0!
#6243573500
1!
#6243574541
0!
#6323342250
1!
#6323343291
0!
#6396477666
1!
#6396478708
0!
#6412532875
1!
#6412533916
0!
#6422674541
1!
#6422675583
0!
#6443683916
1!
#6443684958
0!
#6448693291
1!
#6448694333
0!
#6460373500
1!
#6460374541
0!
#6481037041
1!
#6481038083
0!
#6524355791
1!
#6524356833
0!
#6529293291
1!
#6529294333
0!
#6546545375
1!
#6546546416
0!
#6570114125
1!
#6570115166
0!
#6594658916
1!
#6594659958
0!
#6615247458
1!
#6615248500
0!
#6642345375
1!
#6642346416
0!
#6658969333
1!
#6658970375
0!
#6672212041
1!
#6672213083
0!
#6674538083
1!
#6674539125
0!
#6730488083
1!
#6730489125
0!
#6736723500
1!
#6736724541
0!
#6745130791
1!
#6745131833
0!
#6760036000
1!
#6760037041
0!
#6803053708
1!
#6803054750
0!
#6816838083
1!
#6816839125
0!
#6822144333
1!
#6822145375
0!
#6829377666
1!
#6829378708
0!
#6839259958
1!
#6839261000
0!
#6847968291
1!
#6847969333
0!
#6852778708
1!
#6852779750
0!
#6865998500
1!
#6865999541
0!
#6866253708
1!
#6866254750
0!
#6874327666
1!
#6874328708
0!
#6880575583
1!
#6880576625
0!
#6906886000
1!
#6906887041
0!
#6938033916
1!
#6938034958
0!
#6941247458
1!
#6941248500
0!
#6944640166
1!
#6944641208
0!
#6963663083
1!
#6963664125
0!
#7039130791
1!
#7039131833
0!
#7061059958
1!
#7061061000
0!
#7065118291
1!
#7065119333
0!
#7073145375
1!
#7073146416
0!
#7109592250
1!
#7109593291
0!
#7161648500
1!
#7161649541
0!
#7194153708
1!
#7194154750
0!
#7203109958
1!
#7203111000
0!
#7220655791
1!
#7220656833
0!
#7254690166
1!
#7254691208
0!
#7283377666
1!
#7283378708
0!
#7308084958
1!
#7308086000
0!
#7370418291
1!
#7370419333
0!
#7433525583
1!
#7433526625
0!
#7533932875
1!
#7533933916
0!
#7593655791
1!
#7593656833
0!
#7645176625
1!
#7645177666
0!
#7647544333
1!
#7647545375
0!
#7656751625
1!
#7656752666
0!
#7657670375
1!
#7657671416
0!
#7678433916
1!
#7678434958
0!
#7689565166
1!
#7689566208
0!
#7691706833
1!
#7691707875
0!
#7771052666
1!
#7771053708
0!
#7799264125
1!
#7799265166
0!
#7811720375
1!
#7811721416
0!
#7829294333
1!
#7829295375
0!
#7830276625
1!
#7830277666
0!
#7849137041
1!
#7849138083
0!
#7859341208
1!
#7859342250
0!
#7879948500
1!
#7879949541
0!
#7910080791
1!
#7910081833
0!
#7911874541
1!
#7911875583
0!
#7918075583
1!
#7918076625
0!
#7918713083
1!
#7918714125
0!
#7940938083
1!
#7940939125
0!
#7973670375
1!
#7973671416
0!
#7985855791
1!
#7985856833
0!
#8006494333
1!
#8006495375
0!
#8038738083
1!
#8038739125
0!
#8048126625
1!
#8048127666
0!
#8068848500
1!
#8068849541
0!
#8080671416
1!
#8080672458
0!
#8081698500
1!
#8081699541
0!
#8085836000
1!
#8085837041
0!
#8131482875
1!
#8131483916
0!
#8170522458
1!
#8170523500
0!
#8233792250
1!
#8233793291
0!
#8248720375
1!
#8248721416
0!
#8276883916
1!
#8276884958
0!
#8292215166
1!
#8292216208
0!
#8337801625
1!
#8337802666
0!
#8345624541
1!
#8345625583
0!
#8369624541
1!
#8369625583
0!
#8392421416
1!
#8392422458
0!
#8395724541
1!
#8395725583
0!
#8422759958
1!
#8422761000
0!
#8432849541
1!
#8432850583
0!
#8442907875
1!
#8442908916
0!
#8496143291
1!
#8496144333
0!
#8533106833
1!
#8533107875
0!
#8575090166
1!
#8575091208
0!
#8583363083
1!
#8583364125
0!
#8587945375
1!
#8587946416
0!
#8598740166
1!
#8598741208
0!
#8601406833
1!
#8601407875
0!
#8602754750
1!
#8602755791
0!
#8618622458
1!
#8618623500
0!
#8629332875
1!
#8629333916
0!
#8635601625
1!
#8635602666
0!
#8636898500
1!
#8636899541
0!
#8657537041
1!
#8657538083
0!
#8663616208
1!
#8663617250
0!
#8668261000
1!
#8668262041
0!
#8673640166
1!
#8673641208
0!
#8757098500
1!
#8757099541
0!
#8826954750
1!
#8826955791
0!
#8830574541
1!
#8830575583
0!
#8853801625
1!
#8853802666
0!
#8877871416
1!
#8877872458
0!
#8878854750
1!
#8878855791
0!
#8910789125
1!
#8910790166
0!
#8974274541
1!
#8974275583
0!
#8979281833
1!
#8979282875
0!
#9056148500
1!
#9056149541
0!
#9103588083
1!
#9103589125
0!
#9111776625
1!
#9111777666
0!
#9146191208
1!
#9146192250
0!
#9150214125
1!
#9150215166
0!
#9197274541
1!
#9197275583
0!
#9215539125
1!
#9215540166
0!
#9222775583
1!
#9222776625
0!
#9224327666
1!
#9224328708
0!
#9232212041
1!
#9232213083
0!
#9254655791
1!
#9254656833
0!
#9271595375
1!
#9271596416
0!
#9292966208
1!
#9292967250
0!
#9293236000
1!
#9293237041
0!
#9336686000
1!
#9336687041
0!
#9339702666
1!
#9339703708
0!
#9340559958
1!
#9340561000
0!
#9380187041
1!
#9380188083
0!
#9435616208
1!
#9435617250
0!
#9459433916
1!
#9459434958
0!
#9469044333
1!
#9469045375
0!
#9481561000
1!
#9481562041
0!
#9594312041
1!
#9594313083
0!
#9636722458
1!
#9636723500
0!
#9685581833
1!
#9685582875
0!
#9700394333
1!
#9700395375
0!
#9701148500
1!
#9701149541
0!
#9728917250
1!
#9728918291
0!
#9735693291
1!
#9735694333
0!
#9772114125
1!
#9772115166
0!
#9783811000
1!
#9783812041
0!
#9812505791
1!
#9812506833
0!
#9825392250
1!
#9825393291
0!
#9828361000
1!
#9828362041
0!
#9923529750
1!
#9923530791
0!
#9926967250
1!
#9926968291
0!
#9929416208
1!
#9929417250
0!
#9931416208
1!
#9931417250
0!
#9961172458
1!
#9961173500
0!
#9961601625
1!
#9961602666
0!
#10003837041
1!
#10003838083
0!
#10006550583
1!
#10006551625
0!
#10015301625
1!
#10015302666
0!
#10036221416
1!
#10036222458
0!
#10079697458
1!
#10079698500
0!
#10085839125
1!
#10085840166
0!
#10139173500
1!
#10139174541
0!
#10172221416
1!
#10172222458
0!
#10188082875
1!
#10188083916
0!
#10193207875
1!
#10193208916
0!
#10195256833
1!
#10195257875
0!
#10215122458
1!
#10215123500
0!
#10239005791
1!
#10239006833
0!
#10251548500
1!
#10251549541
0!
#10254396416
1!
#10254397458
0!
#10261311000
1!
#10261312041
0!
#10261584958
1!
#10261586000
0!
#10274451625
1!
#10274452666
0!
#10275991208
1!
#10275992250
0!
#10325279750
1!
#10325280791
0!
#10328965166
1!
#10328966208
0!
#10369014125
1!
#10369015166
0!
#10372473500
1!
#10372474541
0!
#10377650583
1!
#10377651625
0!
#10380020375
1!
#10380021416
0!
#10398523500
1!
#10398524541
0!
#10476398500
1!
#10476399541
0!
#10476700583
1!
#10476701625
0!
#10510656833
1!
#10510657875
0!
#10513294333
1!
#10513295375
0!
#10532881833
1!
#10532882875
0!
#10541637041
1!
#10541638083
0!
#10600766208
1!
#10600767250
0!
#10601705791
1!
#10601706833
0!
#10605551625
1!
#10605552666
0!
#10632925583
1!
#10632926625
0!
#10642340166
1!
#10642341208
0!
#10658580791
1!
#10658581833
0!
#10671307875
1!
#10671308916
0!
#10696913083
1!
#10696914125
0!
#10838207875
1!
#10838208916
0!
#10865003708
1!
#10865004750
0!
#10918763083
1!
#10918764125
0!
#10932208916
1!
#10932209958
0!
#10963444333
1!
#10963445375
0!
#11012195375
1!
#11012196416
0!
#11013955791
1!
#11013956833
0!
#11044112041
1!
#11044113083
0!
#11054690166
1!
#11054691208
0!
#11063747458
1!
#11063748500
0!
#11078380791
1!
#11078381833
0!
#11092192250
1!
#11092193291
0!
#11111412041
1!
#11111413083
0!
#11114776625
1!
#11114777666
0!
#11130173500
1!
#11130174541
0!
#11155542250
1!
#11155543291
0!
#11173923500
1!
#11173924541
0!
#11179082875
1!
#11179083916
0!
#11184952666
1!
#11184953708
0!
#11197158916
1!
#11197159958
0!
#11244757875
1!
#11244758916
0!
#11268384958
1!
#11268386000
0!
#11276694333
1!
#11276695375
0!
#11310061000
1!
#11310062041
0!
#11324823500
1!
#11324824541
0!
#11334445375
1!
#11334446416
0!
#11336466208
1!
#11336467250
0!
#11383278708
1!
#11383279750
0!
#11435223500
1!
#11435224541
0!
#11450987041
1!
#11450988083
0!
#11545333916
1!
#11545334958
0!
#11566656833
1!
#11566657875
0!
#11600022458
1!
#11600023500
0!
#11600457875
1!
#11600458916
0!
#11603112041
1!
#11603113083
0!
#11626494333
1!
#11626495375
0!
#11640994333
1!
#11640995375
0!
#11670868291
1!
#11670869333
0!
#11673743291
1!
#11673744333
0!
#11678727666
1!
#11678728708
0!
#11679125583
1!
#11679126625
0!
#11681097458
1!
#11681098500
0!
#11714169333
1!
#11714170375
0!
#11716523500
1!
#11716524541
0!
#11717933916
1!
#11717934958
0!
#11765645375
1!
#11765646416
0!
#11788662041
1!
#11788663083
0!
#11816572458
1!
#11816573500
0!
#11825128708
1!
#11825129750
0!
#11885208916
1!
#11885209958
0!
#11905332875
1!
#11905333916
0!
#11923245375
1!
#11923246416
0!
#11949033916
1!
#11949034958
0!
#11950138083
1!
#11950139125
0!
#12072346416
1!
#12072347458
0!
#12080277666
1!
#12080278708
0!
#12089125583
1!
#12089126625
0!
#12102269333
1!
#12102270375
0!
#12102732875
1!
#12102733916
0!
#12130647458
1!
#12130648500
0!
#12212234958
1!
#12212236000
0!
#12267383916
1!
#12267384958
0!
#12296814125
1!
#12296815166
0!
#12319833916
1!
#12319834958
0!
#12322416208
1!
#12322417250
0!
#12329771416
1!
#12329772458
0!
#12335061000
1!
#12335062041
0!
#12351174541
1!
#12351175583
0!
#12356239125
1!
#12356240166
0!
#12356413083
1!
#12356414125
0!
#12371313083
1!
#12371314125
0!
#12375213083
1!
#12375214125
0!
#12394683916
1!
#12394684958
0!
#12402818291
1!
#12402819333
0!
#12405974541
1!
#12405975583
0!
#12419927666
1!
#12419928708
0!
#12462549541
1!
#12462550583
0!
#12464517250
1!
#12464518291
0!
#12481865166
1!
#12481866208
0!
#12500519333
1!
#12500520375
0!
#12502163083
1!
#12502164125
0!
#12560253708
1!
#12560254750
0!
#12660806833
1!
#12660807875
0!
#12663268291
1!
#12663269333
0!
#12679609958
1!
#12679611000
0!
#12689151625
1!
#12689152666
0!
#12693128708
1!
#12693129750
0!
#12737792250
1!
#12737793291
0!
#12797413083
1!
#12797414125
0!
#12845946416
1!
#12845947458
0!
#12852504750
1!
#12852505791
0!
#12869389125
1!
#12869390166
0!
#12870234958
1!
#12870236000
0!
#12873977666
1!
#12873978708
0!
#12896825583
1!
#12896826625
0!
#12908805791
1!
#12908806833
0!
#12928911000
1!
#12928912041
0!
#12940605791
1!
#12940606833
0!
#12941269333
1!
#12941270375
0!
#12971293291
1!
#12971294333
0!
#12983653708
1!
#12983654750
0!
#12993912041
1!
#12993913083
0!
#13021996416
1!
#13021997458
0!
#13026332875
1!
#13026333916
0!
#13042848500
1!
#13042849541
0!
#13061849541
1!
#13061850583
0!
#13116423500
1!
#13116424541
0!
#13135427666
1!
#13135428708
0!
#13141269333
1!
#13141270375
0!
#13154279750
1!
#13154280791
0!
#13158097458
1!
#13158098500
0!
#13159025583
1!
#13159026625
0!
#13164065166
1!
#13164066208
0!
#13187862041
1!
#13187863083
0!
#13196657875
1!
#13196658916
0!
#13208158916
1!
#13208159958
0!
#13238940166
1!
#13238941208
0!
#13256971416
1!
#13256972458
0!
#13257295375
1!
#13257296416
0!
#13271995375
1!
#13271996416
0!
#13272770375
1!
#13272771416
0!
#13282371416
1!
#13282372458
0!
#13303357875
1!
#13303358916
0!
#13322938083
1!
#13322939125
0!
#13348290166
1!
#13348291208
0!
#13387157875
1!
#13387158916
0!
#13419400583
1!
#13419401625
0!
#13436256833
1!
#13436257875
0!
#13460018291
1!
#13460019333
0!
#13485498500
1!
#13485499541
0!
#13492106833
1!
#13492107875
0!
#13523671416
1!
#13523672458
0!
#13533813083
1!
#13533814125
0!
#13566439125
1!
#13566440166
0!
#13572367250
1!
#13572368291
0!
#13584193291
1!
#13584194333
0!
#13586531833
1!
#13586532875
0!
#13592527666
1!
#13592528708
0!
#13594775583
1!
#13594776625
0!
#13596373500
1!
#13596374541
0!
#13620442250
1!
#13620443291
0!
#13645641208
1!
#13645642250
0!
#13671128708
1!
#13671129750
0!
#13683867250
1!
#13683868291
0!
#13692986000
1!
#13692987041
0!
#13743025583
1!
#13743026625
0!
#13808507875
1!
#13808508916
0!
#13819016208
1!
#13819017250
0!
#13823246416
1!
#13823247458
0!
#13828816208
1!
#13828817250
0!
#13830502666
1!
#13830503708
0!
#13892377666
1!
#13892378708
0!
#13893479750
1!
#13893480791
0!
#13907855791
1!
#13907856833
0!
#13978227666
1!
#13978228708
0!
#14045629750
1!
#14045630791
0!
#14074412041
1!
#14074413083
0!
#14077425583
1!
#14077426625
0!
#14089342250
1!
#14089343291
0!
#14113155791
1!
#14113156833
0!
#14118795375
1!
#14118796416
0!
#14120629750
1!
#14120630791
0!
#14122969333
1!
#14122970375
0!
#14160984958
1!
#14160986000
0!
#14170215166
1!
#14170216208
0!
#14284114125
1!
#14284115166
0!
#14303766208
1!
#14303767250
0!
#14308015166
1!
#14308016208
0!
#14332036000
1!
#14332037041
0!
#14336655791
1!
#14336656833
0!
#14363920375
1!
#14363921416
0!
#14378480791
1!
#14378481833
0!
#14440341208
1!
#14440342250
0!
#14463857875
1!
#14463858916
0!
#14482264125
1!
#14482265166
0!
#14495182875
1!
#14495183916
0!
#14499086000
1!
#14499087041
0!
#14499148500
1!
#14499149541
0!
#14519200583
1!
#14519201625
0!
#14525998500
1!
#14525999541
0!
#14545936000
1!
#14545937041
0!
#14562600583
1!
#14562601625
0!
#14612303708
1!
#14612304750
0!
#14625963083
1!
#14625964125
0!
#14628342250
1!
#14628343291
0!
#14644833916
1!
#14644834958
0!
#14708202666
1!
#14708203708
0!
#14709580791
1!
#14709581833
0!
#14726003708
1!
#14726004750
0!
#14765461000
1!
#14765462041
0!
#14772331833
1!
#14772332875
0!
#14779442250
1!
#14779443291
0!
#14788288083
1!
#14788289125
0!
#14798471416
1!
#14798472458
0!
#14860432875
1!
#14860433916
0!
#14867504750
1!
#14867505791
0!
#14921043291
1!
#14921044333
0!
#14945511000
1!
#14945512041
0!
#14952807875
1!
#14952808916
0!
#14965770375
1!
#14965771416
0!
#14967682875
1!
#14967683916
0!
#15015470375
1!
#15015471416
0!
#15066597458
1!
#15066598500
0!
#15092638083
1!
#15092639125
0!
#15100133916
1!
#15100134958
0!
#15100616208
1!
#15100617250
0!
#15108773500
1!
#15108774541
0!
#15109313083
1!
#15109314125
0!
#15164079750
1!
#15164080791
0!
#15177024541
1!
#15177025583
0!
#15193731833
1!
#15193732875
0!
#15226268291
1!
#15226269333
0!
#15238195375
1!
#15238196416
0!
#15244801625
1!
#15244802666
0!
#15252681833
1!
#15252682875
0!
#15270704750
1!
#15270705791
0!
#15309392250
1!
#15309393291
0!
#15340323500
1!
#15340324541
0!
#15354867250
1!
#15354868291
0!
#15365518291
1!
#15365519333
0!
#15406264125
1!
#15406265166
0!
#15436500583
1!
#15436501625
0!
#15448756833
1!
#15448757875
0!
#15462515166
1!
#15462516208
0!
#15473804750
1!
#15473805791
0!
#15503043291
1!
#15503044333
0!
#15503720375
1!
#15503721416
0!
#15533790166
1!
#15533791208
0!
#15570596416
1!
#15570597458
0!
#15609664125
1!
#15609665166
0!
#15655913083
1!
#15655914125
0!
#15659345375
1!
#15659346416
0!
#15666412041
1!
#15666413083
0!
#15682382875
1!
#15682383916
0!
#15718396416
1!
#15718397458
0!
#15724461000
1!
#15724462041
0!
#15749781833
1!
#15749782875
0!
#15759455791
1!
#15759456833
0!
#15768164125
1!
#15768165166
0!
#15820250583
1!
#15820251625
0!
#15827218291
1!
#15827219333
0!
#15897779750
1!
#15897780791
0!
#15922364125
1!
#15922365166
0!
#15946964125
1!
#15946965166
0!
#15957216208
1!
#15957217250
0!
#15997148500
1!
#15997149541
0!
#15999807875
1!
#15999808916
0!
#16007354750
1!
#16007355791
0!
#16014515166
1!
#16014516208
0!
#16027041208
1!
#16027042250
0!
#16072728708
1!
#16072729750
0!
#16093475583
1!
#16093476625
0!
#16097024541
1!
#16097025583
0!
#16097432875
1!
#16097433916
0!
#16097772458
1!
#16097773500
0!
#16157334958
1!
#16157336000
0!
#16163349541
1!
#16163350583
0!
#16168065166
1!
#16168066208
0!
#16208201625
1!
#16208202666
0!
#16212077666
1!
#16212078708
0!
#16214279750
1!
#16214280791
0!
#16234546416
1!
#16234547458
0!
#16257128708
1!
#16257129750
0!
#16301684958
1!
#16301686000
0!
#16333169333
1!
#16333170375
0!
#16343921416
1!
#16343922458
0!
#16385331833
1!
#16385332875
0!
#16386063083
1!
#16386064125
0!
#16397050583
1!
#16397051625
0!
#16410283916
1!
#16410284958
0!
#16410878708
1!
#16410879750
0!
#16422052666
1!
#16422053708
0!
#16442577666
1!
#16442578708
0!
#16488057875
1!
#16488058916
0!
#16560647458
1!
#16560648500
0!
#16629653708
1!
#16629654750
0!
#16632147458
1!
#16632148500
0!
#16645493291
1!
#16645494333
0!
#16647363083
1!
#16647364125
0!
#16677352666
1!
#16677353708
0!
#16681668291
1!
#16681669333
0!
#16699267250
1!
#16699268291
0!
#16718383916
1!
#16718384958
0!
#16810598500
1!
#16810599541
0!
#16818068291
1!
#16818069333
0!
#16821240166
1!
#16821241208
0!
#16859465166
1!
#16859466208
0!
#16865094333
1!
#16865095375
0!
#16872100583
1!
#16872101625
0!
#16921619333
1!
#16921620375
0!
#16950356833
1!
#16950357875
0!
#16964695375
1!
#16964696416
0!
#16974863083
1!
#16974864125
0!
#16978050583
1!
#16978051625
0!
#16980849541
1!
#16980850583
0!
#16984841208
1!
#16984842250
0!
#17001925583
1!
#17001926625
0!
#17039766208
1!
#17039767250
0!
#17081667250
1!
#17081668291
0!
#17092267250
1!
#17092268291
0!
#17111214125
1!
#17111215166
0!
#17114611000
1!
#17114612041
0!
#17150277666
1!
#17150278708
0!
#17163445375
1!
#17163446416
0!
#17168058916
1!
#17168059958
0!
#17191239125
1!
#17191240166
0!
#17209734958
1!
#17209736000
0!
#17233640166
1!
#17233641208
0!
#17262122458
1!
#17262123500
0!
#17267252666
1!
#17267253708
0!
#17277438083
1!
#17277439125
0!
#17280368291
1!
#17280369333
0!
#17283799541
1!
#17283800583
0!
#17303004750
1!
#17303005791
0!
#17331267250
1!
#17331268291
0!
#17361903708
1!
#17361904750
0!
#17374244333
1!
#17374245375
0!
#17382011000
1!
#17382012041
0!
#17383147458
1!
#17383148500
0!
#17425504750
1!
#17425505791
0!
#17436463083
1!
#17436464125
0!
#17453838083
1!
#17453839125
0!
#17476758916
1!
#17476759958
0!
#17484561000
1!
#17484562041
0!
#17493254750
1!
#17493255791
0!
#17501926625
1!
#17501927666
0!
#17533723500
1!
#17533724541
0!
#17563625583
1!
#17563626625
0!
#17574476625
1!
#17574477666
0!
#17621612041
1!
#17621613083
0!
#17681599541
1!
#17681600583
0!
#17692675583
1!
#17692676625
0!
#17707826625
1!
#17707827666
0!
#17710943291
1!
#17710944333
0!
#17724236000
1!
#17724237041
0!
#17770071416
1!
#17770072458
0!
#17789347458
1!
#17789348500
0!
#17801343291
1!
#17801344333
0!
#17814254750
1!
#17814255791
0!
#17824852666
1!
#17824853708
0!
#17890467250
1!
#17890468291
0!
#17895852666
1!
#17895853708
0!
#17910000583
1!
#17910001625
0!
#17911520375
1!
