analyzerout3.vcd
$date 2023-06-14 18:42:49.327377 $end
$timescale 1 ns $end
$scope module  $end
$var wire 1 ! pin[0] $end
$var wire 1 " pin[1] $end
$var wire 1 # pin[2] $end
$var wire 1 $ pin[3] $end
$var wire 1 % pin[4] $end
$var wire 1 & pin[5] $end
$var wire 1 ' pin[6] $end
$var wire 1 ( pin[7] $end
$var wire 1 ) pin[8] $end
$var wire 1 * pin[9] $end
$var wire 1 + pin[10] $end
$var wire 1 , pin[11] $end
$var wire 1 - pin[12] $end
$upscope $end
$enddefinitions $end
#0
$dumpvars
0!
0"
0#
0$
0%
0&
0'
0(
0)
0*
0+
0,
0-
$end
#1625
1!
1"
1#
1$
1&
1(
#2666
0!
0"
0#
0$
0&
0(
#30791
1!
1#
1%
1&
1'
#31833
0!
0#
0%
0&
0'
#33916
1!
1"
1#
1%
1&
1(
#34958
0!
0"
0#
0%
0&
0(
#100583
1!
1$
1%
1'
1(
#101625
0!
0$
0%
0'
0(
#113083
1"
1#
1%
1'
1(
#114125
0"
0#
0%
0'
0(
#123500
1!
1$
1&
1)
#124541
0!
0$
0&
0)
#125583
1!
1"
1#
1%
1'
1(
#126625
0!
0"
0#
0%
0'
0(
#136000
1!
1%
1&
1(
#137041
0!
0%
0&
0(
#179750
1!
1"
1#
1&
1'
1(
#180791
0!
0"
0#
0&
0'
0(
#206833
1!
1"
1#
1%
1'
1(
#207875
0!
0"
0#
0%
0'
0(
#211000
1!
1$
1%
1&
1(
#212041
0!
0$
0%
0&
0(
#218291
1!
1"
1#
1%
1&
1(
#219333
0!
0"
0#
0%
0&
0(
#233916
1!
1#
1$
1'
1(
#234958
0!
0#
0$
0'
0(
#263083
1!
1"
1#
1%
1&
1(
#264125
0!
0"
0#
0%
0&
0(
#290166
1!
1$
1%
1&
1(
#291208
0!
0$
0%
0&
0(
#382875
1!
1"
1#
1%
1&
1)
#383916
0!
0"
0#
0%
0&
0)
#388083
1!
1"
1#
1$
1%
1'
#389125
0!
0"
0#
0$
0%
0'
#413083
1!
1"
1#
1&
1'
#414125
0!
0"
0#
0&
0'
#422458
1!
1"
1#
1'
1(
#423500
0!
0"
0#
0'
0(
#465166
1!
1"
1#
1%
1&
1(
#466208
0!
0"
0#
0%
0&
0(
#518291
1!
1"
1#
1%
1&
1)
#519333
0!
0"
0#
0%
0&
0)
#530791
1!
1"
1#
1$
1&
1(
#531833
0!
0"
0#
0$
0&
0(
#539125
1!
1"
1#
1$
1&
1(
#540166
0$
1%
0&
#541208
0!
0"
0#
0%
0(
#545375
1!
1%
1&
1(
#546416
0!
0%
0&
0(
#575583
1!
1#
1%
1'
1(
#576625
0!
0#
0%
0'
0(
#588083
1!
1"
1#
1%
1&
1)
#589125
0!
0"
0#
0%
0&
0)
#607875
1!
1%
1&
1(
#608916
0!
0%
0&
0(
#614125
1!
1"
1#
1&
1'
#615166
0!
0"
0#
0&
0'
#618291
1#
1&
1(
#619333
0#
0&
0(
#623500
1!
1#
1%
1&
1'
#624541
0!
0#
0%
0&
0'
#626625
1!
1"
1$
1'
1(
#627666
0!
0"
0$
0'
0(
#632875
1!
1"
1#
1&
1)
#633916
0!
0"
0#
0&
0)
#653708
1!
1%
1'
1(
#654750
0!
0%
0'
0(
#664125
1!
1"
1#
1$
1%
1&
1(
#665166
0!
0"
0#
0$
0%
0&
0(
#675583
1"
1#
1'
1(
#676625
0"
0#
0'
0(
#731833
1!
1&
1'
1(
#732875
0!
0&
0'
0(
#738083
1!
1"
1#
1'
1(
#739125
0!
0"
0#
0'
0(
#788083
1!
1"
1#
1%
1(
#789125
0!
0"
0#
0%
0(
#836000
1!
1#
1%
1&
1(
#837041
0!
0#
0%
0&
0(
#838083
1!
1#
1%
1&
1(
#839125
0!
0#
0%
0&
0(
#841208
1!
1"
1#
1%
1&
1(
#842250
0!
0"
0#
0%
0&
0(
#861000
1!
1"
1#
1%
1&
1)
#862041
0!
0"
0#
0%
0&
0)
#887041
1!
1"
1#
1%
1'
1(
#888083
0!
0"
0#
0%
0'
0(
#900583
1!
1"
1#
1$
1&
1)
#901625
0!
0"
0#
0$
0&
0)
#908916
1!
1%
1&
1(
#909958
0!
0%
0&
0(
#933916
1!
1"
1#
1%
1'
1(
#934958
0!
0"
0#
0%
0'
0(
#938083
1!
1#
1%
1'
1(
#939125
0!
0#
0%
0'
0(
#947458
1"
1#
1%
1(
#948500
0"
0#
0%
0(
#958916
1!
1"
1#
1%
1&
1(
#959958
0!
0"
0#
0%
0&
0(
#961000
1!
1#
1$
1&
1(
#962041
0!
0#
0$
0&
0(
#965166
1!
1$
1&
1(
#966208
0!
0$
0&
0(
#976625
1!
1"
1#
1%
1&
1(
#977666
0!
0"
0#
0%
0&
0(
#1011000
1!
1"
1#
1%
1&
1(
#1012041
0!
0"
0#
0%
0&
0(
#1033916
1!
1"
1#
1%
1&
1(
#1034958
0"
#1036000
0!
0#
0%
0&
0(
#1038083
1!
1"
1$
1%
1&
1(
#1039125
0!
0"
0$
0%
0&
0(
#1040166
1!
1"
1#
1$
1&
1(
#1041208
0!
0"
0#
0$
0&
0(
#1086000
1!
1"
1#
1$
1%
1'
1(
#1087041
0!
0"
0#
0$
0%
0'
0(
#1090166
1!
1%
1&
1'
#1091208
0!
0%
0&
0'
#1095375
1!
1#
1&
1(
#1096416
0!
0#
0&
0(
#1119333
1!
1%
1'
1(
#1120375
0!
0%
0'
0(
#1130791
1!
1"
1#
1%
1&
1(
#1131833
0!
0"
0#
0%
0&
0(
#1158916
1"
1#
1%
1&
1(
#1159958
0"
0#
0%
0&
0(
#1177666
1!
1"
1#
1%
1&
1(
#1178708
0!
0"
0#
0%
0&
0(
#1207875
1!
1"
1%
1&
1(
#1208916
0!
0"
0%
0&
0(
#1227666
1!
1#
1%
1&
1(
#1228708
0!
0#
0%
0&
0(
#1239125
1!
1#
1&
1(
#1240166
0!
0#
0&
0(
#1262041
1"
1#
1&
1'
#1263083
0"
0#
0&
0'
#1301625
1!
1"
1#
1'
1(
#1302666
0!
0"
0#
0'
0(
#1304750
1!
1"
1#
1$
1&
1(
#1305791
0!
0"
0#
0$
0&
0(
#1342250
1!
1"
1#
1%
1&
1)
#1343291
0!
0"
0#
0%
0&
0)
#1377666
1"
1#
1%
1(
#1378708
0"
0#
0%
0(
#1384958
1!
1"
1#
1&
1(
#1386000
0!
0"
0#
0&
0(
#1406833
1!
1"
1#
1&
1(
#1407875
0!
0"
0#
0&
0(
#1422458
1!
1"
1#
1%
1&
1(
#1423500
0!
0"
0#
0%
0&
0(
#1425583
1!
1$
1%
1'
1(
#1426625
0!
0$
0%
0'
0(
#1427666
1!
1&
1(
#1428708
0!
0&
0(
#1430791
1!
1#
1&
1(
#1431833
0!
0#
0&
0(
#1436000
1!
1"
1#
1'
1(
#1437041
0!
0"
0#
0'
0(
#1449541
1!
1"
1#
1%
1&
1(
#1450583
0!
0"
0#
0%
0&
0(
#1458916
1!
1"
1#
1%
1'
1(
#1459958
0!
0"
0#
0%
0'
0(
#1469333
1!
1"
1#
1%
1&
1(
#1470375
0!
0"
0#
0%
0&
0(
#1493291
1!
1"
1#
1$
1%
1(
#1494333
0!
0"
0#
0$
0%
0(
#1503708
1!
1"
1#
1$
1&
1(
#1504750
0!
0"
0#
0$
0&
0(
#1506833
1!
1#
1%
1&
1(
#1507875
0%
0&
1'
#1508916
0!
0#
0'
0(
#1531833
1!
1"
1#
1%
1&
1)
#1532875
0!
0"
0#
0%
0&
0)
#1537041
1!
1"
1#
1%
1&
1(
#1538083
0!
0"
0#
0%
0&
0(
#1543291
1!
1%
1&
1(
#1544333
0!
0%
0&
0(
#1561000
1!
1"
1#
1%
1&
1'
#1562041
0!
0"
0#
0%
0&
0'
#1565166
1!
1"
1#
1$
1'
1(
#1566208
0!
0"
0#
0$
0'
0(
#1568291
1!
1$
1&
1(
#1569333
0!
0$
0&
0(
#1629750
1!
1#
1%
1'
1(
#1630791
0!
0#
0%
0'
0(
#1637041
1!
1"
1#
1'
1(
#1638083
0!
0"
0#
0'
0(
#1649541
1!
1"
1#
1$
1&
1)
#1650583
0!
0"
0#
0$
0&
0)
#1651625
1!
1"
1#
1%
1&
1(
#1652666
0!
0"
0#
0%
0&
0(
#1662041
1!
1"
1#
1%
1&
1(
#1663083
0!
0"
0#
0%
0&
0(
#1703708
1!
1"
1#
1%
1&
1(
#1704750
0!
0"
0#
0%
0&
0(
#1706833
1!
1"
1#
1&
1(
#1707875
0!
0"
0#
0&
0(
#1715166
1!
1$
1&
1'
#1716208
0!
0$
0&
0'
#1717250
1!
1#
1&
1(
#1718291
0!
0#
0&
0(
#1734958
1!
1#
1%
1'
1(
#1736000
0!
0#
0%
0'
0(
#1745375
1!
1"
1#
1%
1&
1)
#1746416
0!
0"
0#
0%
0&
0)
#1759958
1#
1$
1'
1(
#1761000
0#
0$
0'
0(
#1787041
1!
1#
1%
1&
#1788083
0!
0#
0%
0&
#1798500
1!
1$
1&
1(
#1799541
0!
0$
0&
0(
#1803708
1!
1"
1#
1%
1'
1(
#1804750
0!
0"
0#
0%
0'
0(
#1817250
1!
1#
1%
1&
1(
#1818291
0!
0#
0%
0&
0(
#1822458
1!
1"
1#
1%
1&
1(
#1823500
0!
0"
0#
0%
0&
0(
#1877666
1!
1"
1#
1'
1(
#1878708
0!
0"
0#
0'
0(
#1903708
1!
1#
1$
1&
1(
#1904750
0!
0#
0$
0&
0(
#1928708
1!
1#
1$
1%
1(
#1929750
0!
0#
0$
0%
0(
#1939125
1$
1%
1'
1(
#1940166
0$
0%
0'
0(
#1943291
1!
1"
1#
1$
1%
1&
1(
#1944333
0!
0"
0#
0$
0%
0&
0(
#1952666
1!
1"
1#
1&
1(
#1953708
0!
0"
0#
0&
0(
#1970375
1!
1"
1#
1$
1'
1(
#1971416
0!
0"
0#
0$
0'
0(
#1980791
1!
1#
1%
1&
1(
#1981833
0!
0#
0%
0&
0(
#2007875
1!
1"
1#
1&
1(
#2008916
0!
0"
0#
0&
0(
#2011000
1!
1"
1#
1%
1&
1(
#2012041
0!
0"
0#
0%
0&
0(
#2049541
1!
1#
1%
1'
1(
#2050583
0!
0#
0%
0'
0(
#2081833
1!
1"
1#
1%
1&
1(
#2082875
0!
0"
0#
0%
0&
0(
#2091208
1"
1#
1%
1'
1(
#2092250
0"
0#
0%
0'
0(
#2101625
1"
1#
1$
1&
1'
#2102666
0"
0#
0$
0&
0'
#2103708
1!
1&
1)
#2104750
0!
0&
0)
#2115166
1!
1"
1#
1'
1(
#2116208
0!
0"
0#
0'
0(
#2121416
1!
1$
1%
1'
1(
#2122458
0!
0$
0%
0'
0(
#2124541
1!
1#
1%
1&
1(
#2125583
0!
0#
0%
0&
0(
#2128708
1!
1"
1#
1&
1(
#2129750
0!
0"
0#
0&
0(
#2158916
1!
1"
1#
1%
1'
1(
#2159958
0!
0"
0#
0%
0'
0(
#2166208
1!
1"
1#
1%
1&
1(
#2167250
0!
0"
0#
0%
0&
0(
#2168291
1!
1#
1&
1(
#2169333
0!
0#
0&
0(
#2183916
1!
1$
1&
1(
#2184958
0!
0$
0&
0(
#2219333
1!
1"
1#
1$
1%
1&
1(
#2220375
0!
0"
0#
0$
0%
0&
0(
#2249541
1!
1"
1#
1(
#2250583
0!
0"
0#
0(
#2257875
1!
1"
1#
1%
1'
1(
#2258916
0!
0"
0#
0%
0'
0(
#2299541
1!
1"
1#
1$
1'
1(
#2300583
0!
0"
0#
0$
0'
0(
#2313083
1"
1#
1%
1&
1(
#2314125
0"
0#
0%
0&
0(
#2329750
1!
1"
1#
1%
1&
1'
#2330791
1$
0%
0'
1(
#2331833
0!
0"
0#
0$
0&
0(
#2367250
1!
1"
1#
1%
1&
1'
#2368291
0!
0"
0#
0%
0&
0'
#2423500
1!
1"
1#
1%
1'
1(
#2424541
0!
0"
0#
0%
0'
0(
#2425583
1"
1#
1%
1'
1(
#2426625
0"
0#
0%
0'
0(
#2450583
1!
1"
1#
1%
1'
1(
#2451625
0!
0"
0#
0%
0'
0(
#2476625
1!
1#
1&
1(
#2477666
0!
0#
0&
0(
#2479750
1!
1"
1#
1%
1&
1)
#2480791
0!
0"
0#
0%
0&
0)
#2499541
1!
1#
1%
1'
1(
#2500583
0!
0#
0%
0'
0(
#2544333
1!
1&
1(
#2545375
0!
0&
0(
#2570375
1!
1"
1#
1'
1(
#2571416
0!
0"
0#
0'
0(
#2586000
1!
1$
1%
1(
#2587041
0!
0$
0%
0(
#2598500
1!
1"
1#
1$
1&
1(
#2599541
0!
0"
0#
0$
0&
0(
#2605791
1!
1"
1#
1%
1'
1(
#2606833
0!
0"
0#
0%
0'
0(
#2615166
1!
1"
1#
1$
1%
1(
#2616208
0!
0"
0#
0$
0%
0(
#2623500
1!
1"
1#
1'
1(
#2624541
0!
0"
0#
0'
0(
#2641208
1!
1$
1%
1'
1(
#2642250
0!
0$
0%
0'
0(
#2651625
1!
1"
1#
1&
1(
#2652666
0!
0"
0#
0&
0(
#2675583
1!
1"
1#
1%
1'
1(
#2676625
0!
0"
0#
0%
0'
0(
#2699541
1!
1#
1$
1&
1(
#2700583
0!
0#
0$
0&
0(
#2736000
1!
1"
1#
1%
1&
#2737041
0!
0"
0#
0%
0&
#2741208
1!
1%
1&
1(
#2742250
0!
0%
0&
0(
#2751625
1!
1"
1#
1$
1'
1(
#2752666
0!
0"
0#
0$
0'
0(
#2776625
1!
1#
1%
1'
1(
#2778708
0!
0#
0%
0'
0(
#2797458
1!
1$
1'
1(
#2798500
0!
0$
0'
0(
#2804750
1!
1"
1#
1&
#2805791
0!
0"
0#
0&
#2847458
1!
1&
1)
#2848500
1"
1#
1$
1(
0)
#2849541
0!
0"
0#
0$
0&
0(
#2895375
1!
1#
1&
1(
#2896416
0!
0#
0&
0(
#2933916
1!
1"
1#
1$
1%
1(
#2934958
0!
0"
0#
0$
0%
0(
#2959958
1!
1"
1#
1%
1(
#2961000
0!
0"
0#
0%
0(
#2962041
1#
1%
1'
1(
#2963083
0#
0%
0'
0(
#2999541
1!
1&
1(
1)
#3000583
0!
0&
0(
0)
#3019333
1!
1"
1#
1&
1(
#3020375
0!
0"
0#
0&
0(
#3024541
1!
1#
1$
1'
1(
#3025583
0!
0#
0$
0'
0(
#3037041
1!
1#
1%
1&
1(
#3038083
0!
0#
0%
0&
0(
#3073500
1!
1"
1#
1'
1(
#3074541
0!
0"
0#
0'
0(
#3086000
1!
1"
1#
1$
1'
1(
#3087041
0!
0"
0#
0$
0'
0(
#3092250
1"
1#
1%
1&
1'
#3093291
0"
0#
0%
0&
0'
#3097458
1!
1"
1#
1&
1(
#3098500
0!
0"
0#
0&
0(
#3106833
1!
1"
1#
1&
1'
#3107875
0!
0"
0#
0&
0'
#3114125
1!
1(
#3115166
0!
0(
#3127666
1!
1#
1%
1'
1(
#3128708
0!
0#
0%
0'
0(
#3130791
1!
1&
1(
#3131833
0!
0&
0(
#3148500
1"
1#
1%
1&
1(
#3149541
0"
0#
0%
0&
0(
#3159958
1!
1"
1#
1$
1&
1(
#3161000
0!
0"
0#
0$
0&
0(
#3191208
1!
1#
1'
1(
#3192250
0!
0#
0'
0(
#3193291
1!
1"
1#
1%
1&
1(
#3194333
0!
0"
0#
0%
0&
0(
#3199541
1!
1"
1#
1&
1(
#3200583
0!
0"
0#
0&
0(
#3205791
1!
1"
1#
1$
1%
1(
#3206833
0!
0"
0#
0$
0%
0(
#3216208
1!
1#
1$
1&
1)
#3217250
0!
0#
0$
0&
0)
#3274541
1!
1"
1#
1$
1%
1'
1(
#3275583
0!
0"
0#
0$
0%
0'
0(
#3277666
1!
1%
1'
1(
#3278708
0!
0%
0'
0(
#3296416
1!
1#
1(
#3297458
0!
0#
0(
#3298500
1!
1"
1#
1%
1&
1'
#3299541
0!
0"
0#
0%
0&
0'
#3324541
1!
1#
1'
1(
#3325583
0!
0#
0'
0(
#3342250
1!
1"
1'
1(
#3343291
0!
0"
0'
0(
#3352666
1!
1#
1$
1%
1&
1(
#3353708
0!
0#
0$
0%
0&
0(
#3361000
1!
1"
1#
1%
1&
1(
#3362041
0!
0"
0#
0%
0&
0(
#3363083
1$
1%
1&
1(
#3364125
0$
0%
0&
0(
#3365166
1!
1"
1#
1%
1&
1'
1(
#3366208
0!
0"
0#
0%
0&
0'
0(
#3370375
1!
1"
1#
1%
1&
1)
#3371416
0!
0"
0#
0%
0&
0)
#3459958
1"
1#
1%
1(
#3461000
0"
0#
0%
0(
#3476625
1"
1#
1(
#3477666
0"
0#
0(
#3479750
1!
1"
1#
1&
1(
#3480791
0!
0"
0#
0&
0(
#3497458
1"
1#
1&
1(
#3498500
0"
0#
0&
0(
#3501625
1!
1$
1%
1&
1)
#3502666
0!
0$
0%
0&
0)
#3505791
1"
1#
1(
#3506833
0"
0#
0(
#3509958
1!
1"
1#
1%
1'
1(
#3511000
0!
0"
0#
0%
0'
0(
#3620375
1!
1"
1#
1%
1&
1(
#3621416
0!
0"
0#
0%
0&
0(
#3628708
1!
1#
1(
#3629750
0!
0#
0(
#3656833
1!
1"
1#
1$
1%
1(
#3657875
0!
0"
0#
0$
0%
0(
#3670375
1!
1"
1#
1%
1&
1(
#3671416
0!
0"
0#
0%
0&
0(
#3696416
1!
1"
1$
1%
1'
1(
#3697458
0!
0"
0$
0%
0'
0(
#3706833
1!
1"
1#
1&
1)
#3707875
0!
0"
0#
0&
0)
#3719333
1!
1"
1#
1%
1'
1(
#3720375
0!
0"
0#
0%
0'
0(
#3742250
1!
1"
1#
1(
#3743291
0!
0"
0#
0(
#3754750
1!
1"
1#
1%
1'
1(
#3755791
0!
0"
0#
0%
0'
0(
#3780791
1!
1"
1#
1$
1&
1(
#3781833
0!
0"
0#
0$
0&
0(
#3782875
1!
1"
1#
1%
1&
1(
#3783916
0!
0"
0#
0%
0&
0(
#3794333
1!
1%
1'
1(
#3795375
0!
0%
0'
0(
#3806833
1!
1"
1#
1$
1%
1(
#3807875
0!
0"
0#
0$
0%
0(
#3823500
1!
1&
1(
#3824541
0!
0&
0(
#3864125
1!
1#
1%
1(
#3865166
0!
0#
0%
0(
#3875583
1!
1"
1#
1%
1&
1(
#3876625
0!
0"
0#
0%
0&
0(
#3878708
1!
1'
1(
#3879750
0!
0'
0(
#3892250
1!
1#
1%
1'
1(
#3893291
0!
0#
0%
0'
0(
#3919333
1!
1"
1#
1%
1&
1(
#3920375
0!
0"
0#
0%
0&
0(
#3922458
1!
1"
1#
1$
1'
1(
#3923500
0!
0"
0#
0$
0'
0(
#3925583
1&
1(
#3926625
0&
0(
#3930791
1!
1"
1#
1%
1&
1(
#3931833
0!
0"
0#
0%
0&
0(
#3957875
1!
1"
1#
1%
1&
1(
#3958916
0!
0"
0#
0%
0&
0(
#3959958
1!
1"
1#
1&
1'
#3961000
0!
0"
0#
0&
0'
#4013083
1!
1#
1%
1'
1(
#4014125
0!
0#
0%
0'
0(
#4021416
1!
1'
1(
#4022458
0!
0'
0(
#4063083
1!
1#
1%
1&
1(
#4064125
0!
0#
0%
0&
0(
#4065166
1!
1"
1%
1'
1(
#4066208
0!
0"
0%
0'
0(
#4067250
1!
1"
1#
1'
1(
#4068291
0!
0"
0#
0'
0(
#4076625
1!
1&
1(
#4077666
0!
0&
0(
#4081833
1"
1#
1%
1'
1(
#4082875
0"
0#
0%
0'
0(
#4119333
1!
1"
1#
1%
1'
1(
#4120375
0!
0"
0#
0%
0'
0(
#4126625
1!
1"
1#
1%
1&
1'
#4127666
0!
0"
0#
0%
0&
0'
#4130791
1!
1%
1(
#4131833
0!
0%
0(
#4139125
1!
1"
1#
1%
1&
1(
#4140166
0!
0"
0#
0%
0&
0(
#4161000
1!
1$
1'
1(
#4162041
0!
0$
0'
0(
#4164125
1!
1"
1#
1&
1(
#4165166
0!
0"
0#
0&
0(
#4170375
1!
1#
1&
1(
#4171416
0!
0#
0&
0(
#4176625
1!
1"
1#
1%
1&
1)
#4177666
0!
0"
0#
0%
0&
0)
#4208916
1!
1&
1(
#4209958
0!
0&
0(
#4214125
1!
1"
1#
1%
1&
1(
#4215166
0!
0"
0#
0%
0&
0(
#4219333
1"
1#
1$
1&
1)
#4220375
0"
0#
0$
0&
0)
#4223500
1!
1#
1%
1&
1(
#4224541
0!
0#
0%
0&
0(
#4249541
1!
1"
1#
1&
1(
#4250583
0!
0"
0#
0&
0(
#4252666
1!
1"
1#
1%
1'
1(
#4253708
0!
0"
0#
0%
0'
0(
#4267250
1!
1"
1#
1%
1&
1(
#4268291
0!
0"
0#
0%
0&
0(
#4270375
1!
1%
1&
1)
#4271416
0!
0%
0&
0)
#4292250
1!
1%
1&
1(
#4293291
0!
0%
0&
0(
#4322458
1!
1%
1(
#4323500
0!
0%
0(
#4326625
1!
1#
1'
1(
#4327666
0!
0#
0'
0(
#4347458
1!
1"
1#
1'
1(
#4348500
0!
0"
0#
0'
0(
#4361000
1!
1"
1#
1&
1(
#4362041
0!
0"
0#
0&
0(
#4381833
1!
1"
1#
1%
1&
1)
#4382875
0!
0"
0#
0%
0&
0)
#4404750
1%
1&
1'
#4405791
0%
0&
0'
#4406833
1!
1#
1&
1(
#4407875
0!
0#
0&
0(
#4461000
1!
1"
1#
1%
1&
1(
#4462041
0!
0"
0#
0%
0&
0(
#4484958
1!
1"
1#
1$
1'
1(
#4486000
0!
0"
0#
0$
0'
0(
#4554750
1!
1"
1#
1%
1(
#4555791
0!
0"
0#
0%
0(
#4592250
1!
1"
1#
1&
1'
#4593291
0!
0"
0#
0&
0'
#4595375
1!
1"
1#
1%
1&
1)
#4596416
0!
0"
0#
0%
0&
0)
#4623500
1!
1#
1'
1(
#4624541
0!
0#
0'
0(
#4644333
1!
1"
1#
1'
1(
#4645375
0!
0"
0#
0'
0(
#4649541
1!
1"
1#
1&
1(
#4650583
0!
0"
0#
0&
0(
#4667250
1!
1"
1#
1%
1&
1)
#4668291
0!
0"
0#
0%
0&
0)
#4674541
1%
1&
1(
#4675583
0%
0&
0(
#4689125
1!
1"
1#
1&
1(
#4690166
0!
0"
0#
0&
0(
#4700583
1!
1%
1&
1'
#4701625
0!
0%
0&
0'
#4720375
1!
1"
1#
1%
1&
1(
#4721416
0!
0"
0#
0%
0&
0(
#4742250
1!
1#
1$
1%
1&
1(
#4743291
0!
0#
0$
0%
0&
0(
#4769333
1!
1"
1#
1&
1(
#4770375
0!
0"
0#
0&
0(
#4820375
1!
1"
1#
1%
1&
1)
#4821416
0"
0%
1(
0)
#4822458
0!
0#
0&
0(
#4827666
1!
1#
1%
1'
1(
#4828708
0!
0#
0%
0'
0(
#4864125
1!
1"
1#
1&
1'
#4865166
0!
0"
0#
0&
0'
#4871416
1"
1#
1%
1'
1(
#4872458
0"
0#
0%
0'
0(
#4908916
1!
1"
1#
1&
1(
#4909958
0!
0"
0#
0&
0(
#4921416
1!
1"
1#
1%
1&
1(
#4922458
0!
0"
0#
0%
0&
0(
#4928708
1!
1"
1#
1%
1&
1(
#4929750
0!
0"
0#
0%
0&
0(
#4933916
1!
1#
1%
1'
1)
#4934958
0!
0#
0%
0'
0)
#4968291
1!
1"
1#
1'
1(
#4969333
0!
0"
0#
0'
0(
#4973500
1!
1$
1&
1(
#4974541
0!
0$
0&
0(
#5031833
1!
1"
1#
1&
1)
#5032875
0!
0"
0#
0&
0)
#5044333
1!
1"
1#
1%
1&
1(
#5045375
0!
0"
0#
0%
0&
0(
#5096416
1!
1"
1#
1%
1&
1'
1(
#5097458
0!
0"
0#
0%
0&
0'
0(
#5120375
1!
1"
1#
1%
1'
1(
#5121416
0!
0"
0#
0%
0'
0(
#5168291
1"
1#
1&
1(
#5169333
0"
0#
0&
0(
#5187041
1!
1"
1#
1'
1)
#5188083
0!
0"
0#
0'
0)
#5195375
1!
1"
1#
1%
1(
#5196416
0!
0"
0#
0%
0(
#5218291
1#
1%
1&
1(
#5219333
0#
0%
0&
0(
#5229750
1!
1#
1%
1&
1'
#5230791
0!
0#
0%
0&
0'
#5261000
1!
1%
1&
1(
#5262041
0!
0%
0&
0(
#5264125
1!
1#
1$
1%
1&
1(
#5265166
0!
0#
0$
0%
0&
0(
#5271416
1!
1#
1%
1&
1(
#5272458
0!
0#
0%
0&
0(
#5313083
1!
1#
1%
1&
1(
#5314125
0!
0#
0%
0&
0(
#5320375
1!
1"
1#
1%
1&
1)
#5321416
0!
0"
0#
0%
0&
0)
#5328708
1!
1"
1#
1&
1(
#5329750
0!
0"
0#
0&
0(
#5342250
1!
1%
1(
#5343291
0!
0%
0(
#5346416
1!
1%
1'
1(
#5347458
0!
0%
0'
0(
#5451625
1!
1"
1#
1%
1&
1(
#5452666
0%
1'
#5453708
0!
0"
0#
0&
0'
0(
#5465166
1!
1"
1#
1%
1&
1(
#5466208
0!
0"
0#
0%
0&
0(
#5469333
1!
1"
1#
1%
1&
1(
#5470375
0!
0"
0#
0%
0&
0(
#5482875
1!
1"
1#
1%
1&
#5483916
0!
0"
0#
0%
0&
#5513083
1!
1#
1$
1'
1(
#5514125
0!
0#
0$
0'
0(
#5528708
1"
1#
1%
1&
1(
#5529750
0"
0#
0%
0&
0(
#5533916
1"
1#
1%
1'
1(
#5534958
0"
0#
0%
0'
0(
#5576625
1!
1"
1#
1%
1&
1)
#5577666
0!
0"
0#
0%
0&
0)
#5597458
1!
1#
1$
1&
1(
#5598500
0!
0#
0$
0&
0(
#5604750
1!
1"
1#
1%
1'
1(
#5605791
0!
0"
0#
0%
0'
0(
#5626625
1!
1"
1#
1%
1'
1(
#5627666
0!
0"
0#
0%
0'
0(
#5632875
1!
1%
1'
1(
#5633916
0!
0%
0'
0(
#5644333
1!
1"
1#
1%
1&
1(
#5645375
0!
0"
0#
0%
0&
0(
#5722458
1!
1%
1&
1(
#5723500
0!
0%
0&
0(
#5724541
1!
1"
1#
1&
1(
#5725583
0!
0"
0#
0&
0(
#5728708
1!
1#
1%
1&
1(
#5729750
0!
0#
0%
0&
0(
#5737041
1!
1"
1#
1'
1(
#5738083
0!
0"
0#
0'
0(
#5765166
1!
1"
1#
1%
1'
1(
#5766208
0!
0"
0#
0%
0'
0(
#5775583
1!
1"
1#
1$
1&
1'
1(
#5776625
0!
0"
0#
0$
0&
0'
0(
#5797458
1!
1#
1%
1&
1(
#5798500
0!
0#
0%
0&
0(
#5801625
1!
1"
1#
1&
1(
#5802666
0!
0"
0#
0&
0(
#5806833
1!
1"
1#
1%
1&
1'
#5807875
0!
0"
0#
0%
0&
0'
#5808916
1!
1"
1#
1%
1&
1(
#5809958
0!
0"
0#
0%
0&
0(
#5813083
1!
1"
1#
1&
1(
#5814125
0!
0"
0#
0&
0(
#5887041
1!
1$
1'
1(
#5888083
0!
0$
0'
0(
#5904750
1!
1"
1#
1&
1(
#5905791
0!
0"
0#
0&
0(
#5924541
1!
1"
1#
1%
1'
1(
#5925583
0!
0"
0#
0%
0'
0(
#5958916
1!
1"
1#
1%
1&
1(
#5959958
0!
0"
0#
0%
0&
0(
#5989125
1!
1#
1%
1&
1'
#5990166
0!
0#
0%
0&
0'
#6024541
1!
1"
1#
1%
1'
1(
#6025583
0!
0"
0#
0%
0'
0(
#6027666
1!
1"
1#
1&
1(
#6028708
0!
0"
0#
0&
0(
#6038083
1!
1#
1%
1'
1(
#6039125
0!
0#
0%
0'
0(
#6063083
1!
1#
1$
1&
1(
#6064125
0!
0#
0$
0&
0(
#6186000
1!
1#
1$
1%
1'
1(
#6187041
0!
0#
0$
0%
0'
0(
#6211000
1#
1'
1(
#6212041
0#
0'
0(
#6280791
1!
1"
1#
1%
1&
1(
#6281833
0!
0"
0#
0%
0&
0(
#6307875
1!
1"
1#
1%
1'
1(
#6308916
0!
0"
0#
0%
0'
0(
#6313083
1!
1$
1&
1(
#6314125
0!
0$
0&
0(
#6343291
1!
1"
1#
1%
1&
1(
#6344333
0!
0"
0#
0%
0&
0(
#6351625
1!
1$
1%
1&
1(
#6352666
0!
0$
0%
0&
0(
#6361000
1!
1"
1#
1%
1'
1(
#6362041
0!
0"
0#
0%
0'
0(
#6374541
1!
1"
1#
1$
1'
1(
#6375583
0!
0"
0#
0$
0'
0(
#6398500
1!
1%
1(
#6399541
0!
0%
0(
#6408916
1!
1"
1#
1%
1'
1(
#6409958
0!
0"
0#
0%
0'
0(
#6420375
1!
1"
1#
1$
1'
1(
#6421416
0!
0"
0#
0$
0'
0(
#6447458
1!
1"
1#
1%
1&
1)
#6448500
0!
0"
0#
0%
0&
0)
#6466208
1!
1'
1(
#6467250
0!
0'
0(
#6468291
1!
1"
1#
1'
1(
#6469333
0!
0"
0#
0'
0(
#6483916
1!
1$
1%
1&
1(
#6484958
0!
0$
0%
0&
0(
#6512041
1!
1"
1#
1$
1&
1(
#6513083
0!
0"
0#
0$
0&
0(
#6519333
1!
1%
1&
1(
#6520375
0!
0%
0&
0(
#6550583
1!
1"
1#
1'
1(
#6551625
0!
0"
0#
0'
0(
#6580791
1"
1#
1%
1(
#6581833
0"
0#
0%
0(
#6615166
1!
1"
1#
1&
1'
#6616208
0!
0"
0#
0&
0'
#6627666
1!
1"
1#
1&
#6628708
0!
0"
0#
0&
#6663083
1!
1"
1#
1&
1(
#6664125
0!
0"
0#
0&
0(
#6696416
1!
1#
1%
1'
1(
#6697458
0!
0#
0%
0'
0(
#6706833
1!
1"
1#
1%
1'
1(
#6707875
0%
#6708916
0!
0"
0#
0'
0(
#6721416
1!
1"
1#
1'
1(
#6722458
0!
0"
0#
0'
0(
#6741208
1!
1"
1#
1%
1'
1(
#6742250
0!
0"
0#
0%
0'
0(
#6756833
1!
1#
1'
1(
#6757875
0!
0#
0'
0(
#6767250
1!
1%
1&
1'
#6768291
0!
0%
0&
0'
#6787041
1!
1%
1&
1(
#6788083
0!
0%
0&
0(
