doesthisworkagain.vcd
$date 2023-06-05 17:16:55.016875 $end
$timescale 1 ns $end
$scope module  $end
$var wire 1 ! pin[0] $end
$var wire 1 " pin[1] $end
$var wire 1 # pin[2] $end
$var wire 1 $ pin[3] $end
$var wire 1 % pin[4] $end
$var wire 1 & pin[5] $end
$var wire 1 ' pin[6] $end
$var wire 1 ( pin[7] $end
$var wire 1 ) pin[8] $end
$var wire 1 * pin[9] $end
$var wire 1 + pin[10] $end
$var wire 1 , pin[11] $end
$var wire 1 - pin[12] $end
$var wire 1 . pin[13] $end
$upscope $end
$enddefinitions $end
#0
$dumpvars
0!
0"
0#
0$
0%
0&
0'
0(
0)
0*
0+
0,
0-
0.
$end
#5791
1!
1"
1#
1$
1%
1'
1)
#6833
0!
0"
0#
0$
0%
0'
0)
#7875
1!
1#
1$
1&
1(
1)
#8916
1"
1'
0(
#9958
0!
0"
0#
0$
0&
0'
0)
#12041
1!
1"
1$
1&
1'
1)
#13083
0"
0$
1%
0'
1(
#14125
1"
1$
0%
#15166
0!
0"
0$
0&
0(
0)
#18291
1!
1"
1#
1$
1'
1(
#19333
0!
0"
0#
0$
0'
0(
#20375
1!
1"
1$
1%
1&
1'
1)
#21416
0!
0"
0$
0%
0&
0'
0)
#28708
1!
1"
1#
1$
1'
#29750
1%
1&
0'
1)
#30791
0!
0"
0#
0$
0%
0&
0)
#31833
1!
1"
1#
1$
1'
1)
#32875
0!
0"
0#
0$
0'
0)
#33916
1"
1%
1(
1)
#34958
0"
0%
0(
0)
#36000
1!
1"
1%
1'
1)
#37041
0!
0"
0%
0'
0)
#39125
1"
1&
1'
1(
#40166
1!
1#
1$
0&
0'
0(
1)
#41208
0!
0"
0#
0$
0)
#42250
1!
1#
1$
1'
1)
#43291
0!
0#
0$
0'
0)
#44333
1!
1"
1#
1$
1&
1'
1)
#45375
0!
1%
0&
#46416
1!
0%
0'
1(
#47458
0!
0"
0#
0$
0(
0)
#49541
1"
1'
1)
#50583
0"
0'
0)
#54750
1!
1"
1#
1$
1&
1'
1)
#55791
0!
0"
0#
0$
0&
0'
0)
#58916
1!
1"
1#
1$
1&
1)
#59958
0!
0"
0#
0$
0&
0)
#61000
1"
1#
1$
1&
1'
1)
#62041
1%
0&
0'
1(
#63083
0"
0#
0$
0%
0(
0)
#64125
1"
1#
1$
1&
1(
1)
#65166
0"
0#
0$
0&
0(
0)
#68291
1"
1&
1'
1)
#69333
1!
1#
#70375
1$
0&
#71416
0!
0"
0#
0$
0'
0)
#72458
1"
1#
1$
1&
1'
1)
#73500
0"
0#
0$
0&
0'
0)
#74541
1"
1#
1$
1&
1'
1)
1*
#75583
0"
0#
0$
0&
0'
0)
0*
#77666
1!
1&
1'
1)
#78708
0!
0&
0'
0)
#81833
1"
1#
1&
1)
#82875
0"
0#
0&
0)
#83916
1"
1'
1)
#84958
0"
0'
0)
#87041
1!
1"
1&
1(
1)
#88083
1$
1'
0(
#89125
1#
#90166
0!
0"
0#
0$
0&
0'
0)
#91208
1!
1"
1#
1$
1&
1)
#92250
0!
0"
0#
0$
0&
0)
#93291
1"
1#
1$
1'
1)
#94333
0"
0#
0$
0'
0)
#96416
1!
1"
1#
1$
1'
1)
#97458
0!
0"
0#
0$
0'
0)
#98500
1!
1"
1#
1$
1'
1)
#99541
0!
0"
0#
0$
0'
0)
#100583
1!
1"
1#
1$
1'
1(
#101625
0!
0"
0#
0$
0'
0(
#105791
1"
1$
1'
1)
#106833
0"
0$
0'
0)
#116208
1"
1#
1$
1'
1)
#117250
0"
0#
0$
0'
0)
#120375
1"
1#
1$
1'
1)
#121416
0"
0#
0$
0'
0)
#122458
1!
1"
1#
1$
1'
1)
#123500
0!
0"
0#
0$
0'
0)
#124541
1!
1#
1$
1'
1(
1)
#125583
0!
0#
0$
0'
0(
0)
#131833
1!
1"
1#
1$
1&
1'
1)
#132875
0!
0"
0#
0$
0&
0'
0)
#136000
1"
1#
1$
1'
1)
#137041
0"
0#
0$
0'
0)
#140166
1"
1#
1$
1'
1)
#141208
0'
1(
#142250
1&
#143291
0"
0#
0$
0&
0(
0)
#150583
1"
1$
1&
1(
1)
#151625
0"
0$
0&
0(
0)
#154750
1!
1$
1'
1(
#155791
0!
0$
0'
0(
#156833
1"
1#
1$
1&
1(
1)
#157875
0"
0#
0$
0&
0(
0)
#159958
1!
1$
1&
1'
1)
#161000
1"
1#
0'
1(
1+
#162041
0!
0"
0#
0$
0&
0(
0)
0+
#163083
1!
1"
1#
1&
1(
1)
#164125
0!
1$
0&
1'
0(
#165166
0"
0#
0$
0'
0)
#172458
1!
1"
1#
1$
1&
1(
1)
#173500
0!
0"
0#
0$
0&
0(
0)
#179750
1"
1$
1'
1)
#180791
0"
0$
0'
0)
#184958
1"
1#
1$
1(
1)
#186000
0"
0#
0$
0(
0)
#196416
1"
1#
1$
1(
1)
#197458
0#
1&
1'
0(
#198500
0"
0$
0&
0'
0)
#206833
1"
1#
1$
1&
1(
1)
#207875
0"
0#
0$
0&
0(
0)
#209958
1"
1#
1$
1&
1(
1)
#211000
0&
1'
0(
0)
1*
#212041
0"
0#
0$
0'
0*
#214125
1!
1"
1#
1$
1&
1'
1)
#215166
0!
0"
0#
0$
0&
0'
0)
#216208
1!
1$
1&
1'
1)
#217250
0!
0$
0&
0'
0)
#224541
1"
1#
1$
1&
1'
1(
#225583
0"
0#
0$
0&
0'
0(
#226625
1!
1"
1#
1$
1'
1)
#227666
0!
1%
0'
#228708
0"
0#
0$
0%
0)
#232875
1!
1"
1&
1'
1)
#233916
0!
0"
0&
0'
0)
#237041
1!
1$
1'
1)
#238083
0!
0$
0'
0)
#241208
1"
1#
1$
1&
1)
#242250
0"
0#
0$
0&
0)
#247458
1"
1#
1$
1&
1'
1)
#248500
0"
0#
0$
0&
0'
0)
#254750
1!
1"
1#
1$
1&
1(
1)
#255791
0!
1'
0(
#256833
0"
0#
0$
0&
0'
0)
#258916
1"
1#
1$
1&
1)
1*
#259958
0"
0#
0$
0&
0)
0*
#262041
1"
1#
1$
1&
1'
1(
#263083
0"
0#
0$
0&
0'
0(
#269333
1"
1#
1$
1&
1'
1)
#270375
0"
0#
0$
0&
0'
0)
#271416
1!
1"
1#
1$
1&
1'
1)
#272458
0!
0"
0#
0$
0&
0'
0)
#275583
1!
1"
1$
1'
1*
#276625
0!
0"
0$
0'
0*
#278708
1!
1"
1#
1$
1)
#279750
0!
0"
0#
0$
0)
#287041
1!
1"
1$
1&
1'
1)
#288083
0!
0"
0$
0&
0'
0)
#290166
1"
1#
1'
1)
#291208
0"
0#
0'
0)
#292250
1!
1"
1#
1$
1&
1'
1)
#293291
0!
0"
0#
0$
0&
0'
0)
#298500
1!
1#
1$
1'
1)
1*
#299541
0!
0#
0$
0'
0)
0*
#309958
1"
1%
1(
1)
#311000
0"
0%
0(
0)
#312041
1"
1#
1$
1&
1'
1)
#313083
0"
0#
0$
0&
0'
0)
#317250
1!
1"
1#
1$
1&
1(
1)
#318291
0!
0"
0#
0$
0&
0(
0)
#319333
1"
1#
1$
1&
1)
#320375
0"
0#
0$
0&
0)
#321416
1!
1"
1#
1$
1'
1)
#322458
0!
0"
0#
0$
0'
0)
#324541
1!
1"
1#
1$
1&
1'
1)
#325583
0!
0"
0#
0$
0&
0'
0)
#330791
1!
1"
1#
1$
1'
1)
#331833
0!
0"
0#
0$
0'
0)
#336000
1!
1"
1#
1$
1%
1'
1)
#337041
0!
0"
0#
0$
0%
0'
0)
#343291
1!
1$
1&
1(
1)
#344333
0!
0$
0&
0(
0)
#350583
1!
1"
1$
1&
1'
1)
#351625
0!
0"
0$
0&
0'
0)
#356833
1!
1"
1#
1$
1%
1'
1)
#357875
0!
0"
0#
0$
0%
0'
0)
#367250
1"
1%
1'
1)
#368291
1#
1$
0%
1&
#369333
0"
0#
0$
0&
0'
0)
#370375
1!
1"
1#
1$
1&
1'
1)
#371416
0!
0#
0$
#372458
0"
0&
0'
0)
#376625
1"
1#
1$
1&
1(
1)
#378708
0&
1'
0(
#379750
0"
0#
0$
0'
0)
#386000
1"
1'
1)
#387041
0"
0'
0)
#388083
1!
1"
1#
1$
1'
1(
1)
#389125
0!
0"
0#
0$
0'
0(
0)
#394333
1!
1&
1(
1)
#395375
0!
0&
0(
0)
#396416
1"
1#
1$
1&
1(
1)
#397458
0"
0#
0$
0&
0(
0)
#412041
1"
1#
1$
1&
1(
1)
#413083
1!
1'
0(
#414125
0!
1%
0&
0'
#415166
0"
0#
0$
0%
0)
#416208
1"
1&
1'
1)
#417250
0"
0&
0'
0)
#418291
1!
1"
1$
1&
1'
1)
#419333
1#
0&
0'
1(
#420375
0!
0"
0#
0$
0(
0)
#422458
1"
1$
1&
1'
1)
#423500
0"
0$
0&
0'
0)
#424541
1"
1#
1$
1(
1)
#425583
0"
0#
0$
0(
0)
#426625
1!
1"
1$
1&
1'
1)
#427666
0!
1#
0&
0)
1*
#428708
0"
0#
0$
0'
0*
#429750
1"
1$
1&
1(
1)
#430791
0&
1'
0(
0)
1*
#431833
0"
0$
0'
0*
#432875
1"
1#
1$
1'
1)
#433916
0"
0#
0$
0'
0)
#436000
1!
1"
1#
1$
1(
1)
#437041
0!
0"
0#
0$
0(
0)
#439125
1!
1"
1#
1$
1&
1(
1)
#440166
0!
0"
0#
0$
0&
0(
0)
#443291
1"
1$
1&
1'
1)
#444333
0"
0$
0&
0'
0)
#446416
1!
1"
1#
1$
1'
1)
#447458
0!
0"
0#
0$
0'
0)
#455791
1!
1"
1$
1(
1)
#456833
0!
0"
0$
0(
0)
#458916
1!
1"
1$
1&
1(
1)
#459958
1#
0(
#461000
0!
0#
0$
1%
0&
1'
#462041
0"
0%
0'
0)
#464125
1!
1"
1#
1$
1&
1'
1)
#465166
0!
0"
0#
0$
0&
0'
0)
#471416
1!
1#
1$
1(
1*
#472458
0!
0#
0$
0(
0*
#483916
1!
1"
1$
1(
1)
#484958
0!
1#
1&
#486000
0"
0#
0$
0&
0(
0)
#487041
1!
1"
1#
1$
1&
1'
1)
#488083
0!
0"
0#
0$
0&
0'
0)
#497458
1!
1"
1#
1$
1&
1'
1)
#498500
0!
0"
0#
0$
0&
0'
0)
#499541
1!
1"
1$
1&
1'
1)
#500583
0!
0"
0$
0&
0'
0)
#504750
1!
1"
1#
1$
1&
1(
1)
#505791
0!
0"
0#
0$
0&
0(
0)
#506833
1!
1"
1#
1$
1%
1&
1)
#507875
0!
0"
0#
0$
0%
0&
0)
#511000
1"
1#
1$
1'
1)
#512041
0"
0#
0$
0'
0)
#514125
1!
1"
1#
1&
1(
1)
#515166
0!
0"
0#
0&
0(
0)
#516208
1!
1"
1#
1$
1(
1)
#517250
0!
0"
0#
0$
0(
0)
#518291
1!
1"
1#
1$
1&
1'
1)
#519333
0!
0"
0#
0$
0&
0'
0)
#525583
1"
1#
1$
1&
1'
1)
#526625
1!
1%
0'
#527666
0!
0#
0$
0&
1(
#528708
0"
0%
0(
0)
#531833
1!
1"
1#
1$
1&
1'
1)
#532875
0!
0"
0#
0$
0&
0'
0)
#537041
1!
1"
1#
1$
1&
1)
#538083
0!
0"
0#
0$
0&
0)
#539125
1!
1&
1(
1)
#540166
0!
0&
0(
0)
#542250
1!
1"
1#
1$
1'
1)
#543291
0!
0"
0#
0$
0'
0)
#545375
1"
1%
1'
1)
#546416
0"
0%
0'
0)
#553708
1!
1%
1(
1)
#554750
1"
1$
0%
1&
#555791
0!
0"
0$
0&
0(
0)
#563083
1!
1"
1#
1$
1&
1'
1(
#564125
0!
0"
0#
0$
0&
0'
0(
#567250
1!
1"
1#
1$
1&
1'
1)
#568291
0!
0"
0#
0$
0&
0)
1*
#569333
0'
0*
#571416
1!
1"
1#
1$
1%
1&
1(
1)
#572458
0!
0"
0#
0$
0%
0&
0(
0)
#573500
1"
1#
1$
1'
1*
#574541
0"
0#
0$
0'
0*
#578708
1!
1'
1)
#579750
0!
1"
1#
1$
1&
1(
0)
#580791
0"
0#
0$
0&
0'
0(
#581833
1!
1"
1$
1&
1(
1)
#582875
0!
1#
1'
0(
#583916
0"
0#
0$
0&
0'
0)
#584958
1!
1"
1#
1$
1%
1(
1)
#586000
0!
0"
0#
0$
0%
0(
0)
#590166
1!
1"
1#
1%
1&
1'
1)
#591208
0!
1$
0%
0)
#592250
0"
0#
0$
0&
0'
#593291
1!
1&
1'
1)
#594333
0!
0&
0'
0)
#595375
1!
1"
1#
1&
1'
1)
#596416
0!
0"
0#
0&
0'
0)
#615166
1"
1#
1$
1'
1)
#616208
0"
0#
0$
0'
0)
#622458
1"
1%
1&
1'
1)
#623500
0"
0%
0&
0'
0)
#626625
1!
1"
1#
1$
1&
1'
1)
#627666
0!
0"
0#
0$
0&
0'
0)
#630791
1"
1#
1$
1'
1)
#631833
0"
0#
0$
0'
0)
#636000
1!
1#
1$
1&
1'
1)
#637041
0!
0#
0$
0&
0'
0)
#639125
1!
1"
1#
1$
1&
1'
1)
#640166
0!
0"
0#
0$
0&
0'
0)
#643291
1"
1&
1'
1*
#644333
0"
0&
0'
0*
#645375
1"
1#
1$
1(
1)
#646416
0"
0#
0$
0(
0)
#650583
1!
1"
1$
1&
1'
1(
#651625
0!
0"
0$
0&
0'
0(
#655791
1!
1"
1#
1$
1(
1)
#656833
0!
0#
1'
0(
#657875
0"
0$
0'
0)
#661000
1"
1#
1$
1&
1'
1)
#662041
0"
0#
0$
0&
0'
0)
#663083
1"
1#
1$
1(
1)
#664125
0"
0#
0$
0(
0)
#665166
1!
1"
1#
1%
1)
#666208
0!
1$
0%
1&
1'
0)
1*
#667250
0"
0#
0$
0&
0'
0*
#668291
1"
1%
1'
1)
#669333
0"
0%
0'
0)
#682875
1!
1"
1#
1$
1&
1'
1)
#683916
0!
0"
0#
0$
0&
0'
0)
#688083
1"
1#
1$
1&
1'
1)
#689125
0"
0#
0$
0&
0'
0)
#701625
1!
1"
1#
1$
1&
1(
1)
#702666
0!
0"
0#
0$
0&
0(
0)
#706833
1!
1'
1*
#707875
0!
0'
0*
#713083
1!
1"
1#
1$
1&
1'
1(
#714125
0!
0"
0#
0$
0&
0'
0(
#716208
1&
1(
1)
#717250
0&
0(
0)
#723500
1"
1&
1'
1*
#724541
0"
0&
0'
0*
#725583
1!
1"
1#
1$
1&
1(
1)
#726625
0!
0"
0#
0$
0&
0(
0)
#729750
1"
1#
1$
1'
1)
#730791
0'
1(
#731833
1!
1%
1'
0(
#732875
0!
0"
0#
0$
0%
0'
0)
#733916
1!
1"
1$
1'
1)
#734958
0!
0"
0$
0'
0)
#736000
1#
1$
1&
1'
1)
#737041
0#
0$
0&
0'
0)
#739125
1!
1#
1$
1'
1)
#740166
0!
0#
0$
0'
0)
#742250
1"
1#
1$
1&
1(
1)
#743291
0"
0#
0$
0&
0(
0)
#744333
1!
1"
1#
1$
1%
1'
1)
#745375
0"
0%
1&
#746416
0!
0#
0$
0&
0'
0)
#749541
1!
1#
1$
1%
1'
1)
#750583
1"
0#
0%
1&
#751625
1#
1(
0)
#752666
0!
0"
0#
0$
0&
0'
0(
#753708
1!
1"
1$
1'
1)
#754750
0!
1#
0'
1*
#755791
0"
0#
0$
0)
0*
#757875
1!
1"
1#
1$
1(
1)
#758916
0!
0"
0#
0$
0(
0)
#761000
1!
1"
1#
1$
1'
1)
#762041
0'
1(
#763083
0!
1&
1'
0(
#764125
0"
0#
0$
0&
0'
0)
#765166
1!
1"
1&
1'
1)
#766208
0!
0"
0&
0'
0)
#769333
1"
1#
1$
1&
1'
1)
#770375
0"
0#
0$
0&
0'
0)
#772458
1!
1"
1%
1&
1'
1)
#773500
0!
0"
0%
0&
0'
0)
#774541
1!
1"
1$
1&
1'
1)
#775583
0!
1%
#776625
1!
1#
0%
0'
1(
#777666
0!
0"
0#
0$
0&
0(
0)
#786000
1!
1#
1$
1&
1(
1)
#787041
0!
0#
0$
0&
0(
0)
#788083
1"
1#
1$
1&
1'
1)
#789125
1!
0#
1%
0&
0'
1(
#790166
0!
0"
0$
0%
0(
0)
#791208
1"
1#
1$
1&
1'
1(
1)
1*
#792250
0"
0#
0$
0&
0'
0(
0)
0*
#793291
1"
1#
1$
1&
1(
1)
#794333
0"
0#
0$
0&
0(
0)
#797458
1!
1"
1#
1$
1&
1'
1*
#798500
0!
0"
0#
0$
0&
0'
0*
#802666
1!
1"
1#
1$
1&
1(
1)
#803708
0!
0"
0#
0$
0&
0(
0)
#804750
1"
1#
1$
1%
1'
1)
#805791
0"
0#
0$
0%
0'
0)
#807875
1!
1"
1#
1$
1&
1'
1)
#808916
0!
0"
0#
0$
0&
0'
0)
#815166
1"
1#
1$
1&
1(
1)
#816208
1!
1'
0(
1+
#817250
0!
0"
0#
0$
0&
0'
0)
0+
#820375
1!
1"
1$
1&
1'
1)
#821416
0!
0"
0$
0&
0'
0)
#828708
1"
1$
1&
1'
1)
1*
#829750
0"
0$
0&
0'
0)
0*
#832875
1"
1#
1$
1'
1)
#833916
0"
0#
0$
0'
0)
#838083
1"
1#
1$
1'
1)
#839125
1!
0"
1&
0'
1(
#840166
0!
0#
0$
0&
0(
0)
#841208
1"
1#
1$
1'
1)
#842250
0"
0#
0$
0'
0)
#846416
1"
1#
1$
1&
1'
1)
#847458
0"
0#
0$
0&
0'
0)
#848500
1"
1$
1%
1&
1)
1*
#849541
0"
0$
0%
0&
0)
0*
#852666
1"
1#
1$
1(
1)
#2218000
x!
x"
x#
x$
x%
x&
x'
x(
x)
x*
x+
x,
x-
x.
