DoesThisWorkNow.vcd
$date 2023-06-05 13:14:36.452000 $end
$timescale 1 ns $end
$scope module  $end
$var wire 1 ! pin[0] $end
$var wire 1 " pin[1] $end
$var wire 1 # pin[2] $end
$var wire 1 $ pin[3] $end
$var wire 1 % pin[4] $end
$var wire 1 & pin[5] $end
$var wire 1 ' pin[6] $end
$var wire 1 ( pin[7] $end
$var wire 1 ) pin[8] $end
$var wire 1 * pin[9] $end
$var wire 1 + pin[10] $end
$var wire 1 , pin[11] $end
$var wire 1 - pin[12] $end
$var wire 1 . pin[13] $end
$var wire 1 / pin[14] $end
$var wire 1 0 pin[15] $end
$upscope $end
$enddefinitions $end
#0
$dumpvars
0!
0"
0#
0$
0%
0&
0'
0(
0)
0*
0+
0,
0-
0.
0/
00
$end
#20
1"
1$
1%
1'
1)
1+
1,
1-
1.
1/
10
#145
1!
#666
0!
0"
1#
#1187
1!
#1708
0!
1"
#2229
1!
#2750
0!
0"
0#
0$
0%
1&
#3270
1!
#3791
0!
1"
#4312
1!
#4833
0!
0"
1#
#5354
1!
#5875
0!
1"
#6395
1!
#6916
0!
0"
0#
1$
#7437
1!
#7958
0!
1"
#8479
1!
#9000
0!
0"
1#
#9520
1!
#10041
0!
1"
#10562
1!
#11083
0!
0"
0#
0$
1%
#11604
1!
#12125
0!
1"
#12645
1!
#13166
0!
0"
1#
#13687
1!
#14208
0!
1"
#14729
1!
#15250
0!
0"
0#
1$
#15770
1!
#16291
0!
1"
#16812
1!
#17333
0!
0"
1#
#17854
1!
#18375
0!
1"
#18895
1!
#19416
0#
0$
0%
0&
0'
1(
#19437
0!
0"
#19937
1!
#20458
0!
1"
#20979
1!
#21500
0!
0"
1#
#22020
1!
#22541
0!
1"
#23062
1!
#23583
0!
0"
0#
1$
#24104
1!
#24625
0!
1"
#25145
1!
#25666
0!
0"
1#
#26187
1!
#26708
0!
1"
#27229
1!
#27750
0!
0"
0#
0$
1%
#28270
1!
#28791
0!
1"
#29312
1!
#29833
0!
0"
1#
#30354
1!
#30875
0!
1"
#31395
1!
#31916
0!
0"
0#
1$
#32437
1!
#32958
0!
1"
#33479
1!
#34000
0!
0"
1#
#34520
1!
#35041
0!
1"
#35562
1!
#36083
0!
0"
0#
0$
0%
1&
#36604
1!
#37125
0!
1"
#37645
1!
#38166
0!
0"
1#
#38687
1!
#39208
0!
1"
#39729
1!
#40250
0!
0"
0#
1$
#40770
1!
#41291
0!
1"
#41812
1!
#42333
0!
0"
1#
#42854
1!
#43375
0!
1"
#43895
1!
#44416
0!
0"
0#
0$
1%
#44937
1!
#45458
0!
1"
#45979
1!
#46500
0!
0"
1#
#47020
1!
#47541
0!
1"
#48062
1!
#48583
0!
0"
0#
1$
#49104
1!
#49625
0!
1"
#50145
1!
#50666
0!
0"
1#
#51187
1!
#51708
0!
1"
#52229
1!
#52750
0"
0#
0$
0%
0&
1'
#52770
0!
#53270
1!
#53791
0!
1"
#54312
1!
#54833
0!
0"
1#
#55354
1!
#55875
0!
1"
#56395
1!
#56916
0!
0"
0#
1$
#57437
1!
#57958
0!
1"
#58479
1!
#59000
0!
0"
1#
#59520
1!
#60041
0!
1"
#60562
1!
#61083
0!
0"
0#
0$
1%
#61604
1!
#62125
0!
1"
#62645
1!
#63166
0!
0"
1#
#63687
1!
#64208
0!
1"
#64729
1!
#65250
0!
0"
0#
1$
#65770
1!
#66291
0!
1"
#66812
1!
#67333
0!
0"
1#
#67854
1!
#68375
0!
1"
#68895
1!
#69416
0!
0"
0#
0$
0%
1&
#69937
1!
#70458
0!
1"
#70979
1!
#71500
0!
0"
1#
#72020
1!
#72541
0!
1"
#73062
1!
#73583
0!
0"
0#
1$
#74104
1!
#74625
0!
1"
#75145
1!
#75666
0!
0"
1#
#76187
1!
#76708
0!
1"
#77229
1!
#77750
0!
0"
0#
0$
1%
#78270
1!
#78791
0!
1"
#79312
1!
#79833
0!
0"
1#
#80354
1!
#80875
0!
1"
#81395
1!
#81916
0!
0"
0#
1$
#82437
1!
#82958
0!
1"
#83479
1!
#84000
0!
0"
1#
#84520
1!
#85041
0!
1"
#85562
1!
#86104
0!
0"
0#
0$
0%
0&
0'
0(
#86604
1!
#87125
0!
1"
#87645
1!
#88166
0!
0"
1#
#88687
1!
#89208
0!
1"
#89729
1!
#90250
0!
0"
0#
1$
#90770
1!
#91291
0!
1"
#91812
1!
#92333
0!
0"
1#
#92854
1!
#93375
0!
1"
#93895
1!
#94416
0!
0"
0#
0$
1%
#94937
1!
#95458
0!
1"
#95979
1!
#96500
0!
0"
1#
#97020
1!
#97541
0!
1"
#98062
1!
#98583
0!
0"
0#
1$
#99104
1!
#99625
0!
1"
#100145
1!
#100666
0!
0"
1#
#101187
1!
#101708
0!
1"
#102229
1!
#102750
0!
0"
0#
0$
0%
1&
#103270
1!
#103791
0!
1"
#104312
1!
#104833
0!
0"
1#
#105354
1!
#105875
0!
1"
#106395
1!
#106916
0!
0"
0#
1$
#107437
1!
#107958
0!
1"
#108479
1!
#109000
0!
0"
1#
#109520
1!
#110041
0!
1"
#110562
1!
#111083
0!
0"
0#
0$
1%
#111604
1!
#112125
0!
1"
#112645
1!
#113166
0!
0"
1#
#113687
1!
#114208
0!
1"
#114729
1!
#115250
0!
0"
0#
1$
#115770
1!
#116291
0!
1"
#116812
1!
#117333
0!
0"
1#
#117854
1!
#118375
0!
1"
#118895
1!
#119416
0!
0"
0#
0$
0%
0&
1'
#119937
1!
#120458
0!
1"
#120979
1!
#121500
0!
0"
1#
#122020
1!
#122541
0!
1"
#123062
1!
#123583
0!
0"
0#
1$
#124104
1!
#124625
0!
1"
#125145
1!
#125666
0!
0"
1#
#126187
1!
#126708
0!
1"
#127229
1!
#127750
0!
0"
0#
0$
1%
#128270
1!
#128791
0!
1"
#129312
1!
#129833
0!
0"
1#
#130354
1!
#130875
0!
1"
#131395
1!
#131916
0!
0"
0#
1$
#132437
1!
#132958
0!
1"
#133479
1!
#134000
0!
0"
1#
#134520
1!
#135041
0!
1"
#135562
1!
#136083
0!
0"
0#
0$
0%
1&
#136604
1!
#137125
0!
1"
#137645
1!
#138166
0!
0"
1#
#138687
1!
#139208
0!
1"
#139729
1!
#140250
0!
0"
0#
1$
#140770
1!
#141291
0!
1"
#141812
1!
#142333
0!
0"
1#
#142854
1!
#143375
0!
1"
#143895
1!
#144416
0!
0"
0#
0$
1%
#144937
1!
#145458
0!
1"
#145979
1!
#146500
0!
0"
1#
#147020
1!
#147541
0!
1"
#148062
1!
#148583
0!
0"
0#
1$
#149104
1!
#149625
0!
1"
#150145
1!
#150666
0!
0"
1#
#151187
1!
#151708
0!
1"
#152229
1!
#152750
0!
0"
0#
0$
0%
0&
0'
1(
#153270
1!
#153791
0!
1"
#154312
1!
#154833
0!
0"
1#
#155354
1!
#155875
0!
1"
#156395
1!
#156916
0!
0"
0#
1$
#157437
1!
#157958
0!
1"
#158479
1!
#159000
0!
0"
1#
#159520
1!
#160041
0!
1"
#160562
1!
#161083
0!
0"
0#
0$
1%
#161604
1!
#162125
0!
1"
#162645
1!
#163166
0!
0"
1#
#163687
1!
#164208
0!
1"
#164729
1!
#165250
0!
0"
0#
1$
#165770
1!
#166291
0!
1"
#166812
1!
#167333
0!
0"
1#
#167854
1!
#168375
0!
1"
#168895
1!
#169416
0!
0"
0#
0$
0%
1&
#169937
1!
#170458
0!
1"
#170979
1!
#171500
0!
0"
1#
#172020
1!
#172541
0!
1"
#173062
1!
#173583
0!
0"
0#
1$
#174104
1!
#174625
0!
1"
#175145
1!
#175666
0!
0"
1#
#176187
1!
#176708
0!
1"
#177229
1!
#177750
0!
0"
0#
0$
1%
#178270
1!
#178791
0!
1"
#179312
1!
#179833
0!
0"
1#
#180354
1!
#180875
0!
1"
#181395
1!
#181916
0!
0"
0#
1$
#182437
1!
#182958
0!
1"
#183479
1!
#184000
0!
0"
1#
#184520
1!
#185041
0!
1"
#185562
1!
#186083
0!
0"
0#
0$
0%
0&
1'
#186604
1!
#187125
0!
1"
#187645
1!
#188166
0!
0"
1#
#188687
1!
#189208
0!
1"
#189729
1!
#190250
0!
0"
0#
1$
#190770
1!
#191291
0!
1"
#191812
1!
#192333
0!
0"
1#
#192854
1!
#193375
0!
1"
#193895
1!
#194416
0!
0"
0#
0$
1%
#194937
1!
#195458
0!
1"
#195979
1!
#196500
0!
0"
1#
#197020
1!
#197541
0!
1"
#198062
1!
#198583
0!
0"
0#
1$
#199104
1!
#199625
0!
1"
#200145
1!
#200666
0!
0"
1#
#201187
1!
#201708
0!
1"
#202229
1!
#202750
0!
0"
0#
0$
0%
1&
#203270
1!
#203791
0!
1"
#204312
1!
#204833
0!
0"
1#
#205354
1!
#205875
0!
1"
#206395
1!
#206916
0!
0"
0#
1$
#207437
1!
#207958
0!
1"
#208479
1!
#209000
0!
0"
1#
#209520
1!
#210041
0!
1"
#210562
1!
#211083
0!
0"
0#
0$
1%
#211604
1!
#212125
0!
1"
#212645
1!
#213166
0!
0"
1#
#213687
1!
#214208
0!
1"
#214729
1!
#215250
0!
0"
0#
1$
#215770
1!
#216291
0!
1"
#216812
1!
#217333
0!
0"
1#
#217854
1!
#218375
0!
1"
#218895
1!
#219416
0$
0&
0(
#219437
0!
0"
0#
0%
0'
#219937
1!
#220458
0!
1"
#220979
1!
#221500
0!
0"
1#
#222020
1!
#222541
0!
1"
#223062
1!
#223583
0!
0"
0#
1$
#224104
1!
#224625
0!
1"
#225145
1!
#225666
0!
0"
1#
#226187
1!
#226708
0!
1"
#227229
1!
#227750
0!
0"
0#
0$
1%
#228270
1!
#228791
0!
1"
#229312
1!
#229833
0!
0"
1#
#230354
1!
#230875
0!
1"
#231395
1!
#231916
0!
0"
0#
1$
#232437
1!
#232958
0!
1"
#233479
1!
#234000
0!
0"
1#
#234520
1!
#235041
0!
1"
#235562
1!
#236083
0!
0"
0#
0$
0%
1&
#236604
1!
#237125
0!
1"
#237645
1!
#238166
0!
0"
1#
#238687
1!
#239208
0!
1"
#239729
1!
#240250
0!
0"
0#
1$
#240770
1!
#241291
0!
1"
#241812
1!
#242333
0!
0"
1#
#242854
1!
#243375
0!
1"
#243895
1!
#244416
0!
0"
0#
0$
1%
#244937
1!
#245458
0!
1"
#245979
1!
#246500
0!
0"
1#
#247020
1!
#247541
0!
1"
#248062
1!
#248583
0!
0"
0#
1$
#249104
1!
#249625
0!
1"
#250145
1!
#250666
0!
0"
1#
#251187
1!
#251708
0!
1"
#252229
1!
#252750
0!
0"
0#
0$
0%
0&
1'
1(
#252770
0(
#253270
1!
#253791
0!
1"
#254312
1!
#254833
0!
0"
1#
#255354
1!
#255875
0!
1"
#256395
1!
#256916
0!
0"
0#
1$
#257437
1!
#257958
0!
1"
#258479
1!
#259000
0!
0"
1#
#259520
1!
#260041
0!
1"
#260562
1!
#261083
0!
0"
0#
0$
1%
#261604
1!
#262125
0!
1"
#262645
1!
#263166
0!
0"
1#
#263687
1!
#264208
0!
1"
#264729
1!
#1630062
x!
x"
x#
x$
x%
x&
x'
x(
x)
x*
x+
x,
x-
x.
x/
x0
