scan_sim_ramp.vcd
$comment Generated by Amaranth $end
$date 2023-07-17 15:23:34.580037 $end
$timescale 1 ps $end
$scope module bench $end
$scope module top $end
$var wire 1 ! en $end
$var wire 1 " en$1 $end
$var wire 14 # x_data $end
$var wire 4 $ count $end
$var wire 14 % y_data $end
$var wire 4 & count$1 $end
$var wire 1 ' line_sync $end
$var wire 1 ( ovf $end
$var wire 1 ) frame_sync $end
$var wire 1 * ovf$1 $end
$var wire 4 + limit $end
$var wire 4 , limit$1 $end
$var wire 1 - en$2 $end
$scope module x_ramp $end
$var wire 1 ! en $end
$var wire 4 $ count $end
$var wire 1 ( ovf $end
$var wire 4 + limit $end
$var wire 1 . clk $end
$var wire 1 / rst $end
$upscope $end
$scope module y_ramp $end
$var wire 1 " en $end
$var wire 4 & count $end
$var wire 1 * ovf $end
$var wire 4 , limit $end
$var wire 1 . clk $end
$var wire 1 / rst $end
$upscope $end
$upscope $end
$upscope $end
$enddefinitions $end
#0
$dumpvars
0!
0"
b0 #
b0 $
b0 %
b0 &
0'
0(
0)
0*
b1000 +
b1000 ,
0-
0.
0/
$end
#500000
1.
1!
1-
#1000000
0.
#1500000
1.
b1 $
b100000000000 #
#2000000
0.
#2500000
1.
b10 $
b1000000000000 #
#3000000
0.
#3500000
1.
b11 $
b1100000000000 #
#4000000
0.
#4500000
1.
b100 $
b10000000000000 #
#5000000
0.
#5500000
1.
b101 $
b10100000000000 #
#6000000
0.
#6500000
1.
b110 $
b11000000000000 #
#7000000
0.
#7500000
b111 $
1"
1.
1'
1(
b11100000000000 #
#8000000
0.
#8500000
b0 $
b100000000000 %
b1 &
0"
1.
0'
0(
b0 #
#9000000
0.
#9500000
1.
b1 $
b100000000000 #
#10000000
0.
#10500000
1.
b10 $
b1000000000000 #
#11000000
0.
#11500000
1.
b11 $
b1100000000000 #
#12000000
0.
#12500000
1.
b100 $
b10000000000000 #
#13000000
0.
#13500000
1.
b101 $
b10100000000000 #
#14000000
0.
#14500000
1.
b110 $
b11000000000000 #
#15000000
0.
#15500000
b111 $
1"
1.
1'
1(
b11100000000000 #
#16000000
0.
#16500000
b0 $
b1000000000000 %
b10 &
0"
1.
0'
0(
b0 #
#17000000
0.
#17500000
1.
b1 $
b100000000000 #
#18000000
0.
#18500000
1.
b10 $
b1000000000000 #
#19000000
0.
#19500000
1.
b11 $
b1100000000000 #
#20000000
0.
#20500000
1.
b100 $
b10000000000000 #
#21000000
0.
#21500000
1.
b101 $
b10100000000000 #
#22000000
0.
#22500000
1.
b110 $
b11000000000000 #
#23000000
0.
#23500000
b111 $
1"
1.
1'
1(
b11100000000000 #
#24000000
0.
#24500000
b0 $
b1100000000000 %
b11 &
0"
1.
0'
0(
b0 #
#25000000
0.
#25500000
1.
b1 $
b100000000000 #
#26000000
0.
#26500000
1.
b10 $
b1000000000000 #
#27000000
0.
#27500000
1.
b11 $
b1100000000000 #
#28000000
0.
#28500000
1.
b100 $
b10000000000000 #
#29000000
0.
#29500000
1.
b101 $
b10100000000000 #
#30000000
0.
#30500000
1.
b110 $
b11000000000000 #
#31000000
0.
#31500000
b111 $
1"
1.
1'
1(
b11100000000000 #
#32000000
0.
#32500000
b0 $
b10000000000000 %
b100 &
0"
1.
0'
0(
b0 #
#33000000
0.
#33500000
1.
b1 $
b100000000000 #
#34000000
0.
#34500000
1.
b10 $
b1000000000000 #
#35000000
0.
#35500000
1.
b11 $
b1100000000000 #
#36000000
0.
#36500000
1.
b100 $
b10000000000000 #
#37000000
0.
#37500000
1.
b101 $
b10100000000000 #
#38000000
0.
#38500000
1.
b110 $
b11000000000000 #
#39000000
0.
#39500000
b111 $
1"
1.
1'
1(
b11100000000000 #
#40000000
0.
#40500000
b0 $
b10100000000000 %
b101 &
0"
1.
0'
0(
b0 #
#41000000
0.
#41500000
1.
b1 $
b100000000000 #
#42000000
0.
#42500000
1.
b10 $
b1000000000000 #
#43000000
0.
#43500000
1.
b11 $
b1100000000000 #
#44000000
0.
#44500000
1.
b100 $
b10000000000000 #
#45000000
0.
#45500000
1.
b101 $
b10100000000000 #
#46000000
0.
#46500000
1.
b110 $
b11000000000000 #
#47000000
0.
#47500000
b111 $
1"
1.
1'
1(
b11100000000000 #
#48000000
0.
#48500000
b0 $
b11000000000000 %
b110 &
0"
1.
0'
0(
b0 #
#49000000
0.
#49500000
1.
b1 $
b100000000000 #
#50000000
0.
#50500000
1.
b10 $
b1000000000000 #
#51000000
0.
#51500000
1.
b11 $
b1100000000000 #
#52000000
0.
#52500000
1.
b100 $
b10000000000000 #
#53000000
0.
#53500000
1.
b101 $
b10100000000000 #
#54000000
0.
#54500000
1.
b110 $
b11000000000000 #
#55000000
0.
#55500000
b111 $
1"
1.
1'
1(
b11100000000000 #
#56000000
0.
#56500000
1*
b11100000000000 %
b111 &
1)
0(
b0 $
0"
1.
0'
b0 #
#57000000
0.
#57500000
1.
b1 $
b100000000000 #
#58000000
0.
#58500000
1.
b10 $
b1000000000000 #
#59000000
0.
#59500000
1.
b11 $
b1100000000000 #
#60000000
0.
#60500000
1.
b100 $
b10000000000000 #
#61000000
0.
#61500000
1.
b101 $
b10100000000000 #
#62000000
0.
#62500000
1.
b110 $
b11000000000000 #
#63000000
0.
#63500000
b111 $
1"
1.
1'
1(
b11100000000000 #
#64000000
0.
#64500000
0*
b0 %
b0 &
0)
0(
b0 $
0"
1.
0'
b0 #
#65000000
0.
#65500000
1.
b1 $
b100000000000 #
#66000000
0.
#66500000
1.
b10 $
b1000000000000 #
#67000000
0.
#67500000
1.
b11 $
b1100000000000 #
#68000000
0.
#68500000
1.
b100 $
b10000000000000 #
#69000000
0.
#69500000
1.
b101 $
b10100000000000 #
#70000000
0.
#70500000
1.
b110 $
b11000000000000 #
#71000000
0.
#71500000
b111 $
1"
1.
1'
1(
b11100000000000 #
#72000000
0.
#72500000
b0 $
b100000000000 %
b1 &
0"
1.
0'
0(
b0 #
#73000000
0.
#73500000
1.
b1 $
b100000000000 #
#74000000
0.
#74500000
1.
b10 $
b1000000000000 #
#75000000
0.
#75500000
1.
b11 $
b1100000000000 #
#76000000
0.
#76500000
1.
b100 $
b10000000000000 #
#77000000
0.
#77500000
1.
b101 $
b10100000000000 #
#78000000
0.
#78500000
1.
b110 $
b11000000000000 #
#79000000
0.
#79500000
b111 $
1"
1.
1'
1(
b11100000000000 #
#80000000
0.
#80500000
b0 $
b1000000000000 %
b10 &
0"
1.
0'
0(
b0 #
#81000000
0.
#81500000
1.
b1 $
b100000000000 #
#82000000
0.
#82500000
1.
b10 $
b1000000000000 #
#83000000
0.
#83500000
1.
b11 $
b1100000000000 #
#84000000
0.
#84500000
1.
b100 $
b10000000000000 #
#85000000
0.
#85500000
1.
b101 $
b10100000000000 #
#86000000
0.
#86500000
1.
b110 $
b11000000000000 #
#87000000
0.
#87500000
b111 $
1"
1.
1'
1(
b11100000000000 #
#88000000
0.
#88500000
b0 $
b1100000000000 %
b11 &
0"
1.
0'
0(
b0 #
#89000000
0.
#89500000
1.
b1 $
b100000000000 #
#90000000
0.
#90500000
1.
b10 $
b1000000000000 #
#91000000
0.
#91500000
1.
b11 $
b1100000000000 #
#92000000
0.
#92500000
1.
b100 $
b10000000000000 #
#93000000
0.
#93500000
1.
b101 $
b10100000000000 #
#94000000
0.
#94500000
1.
b110 $
b11000000000000 #
#95000000
0.
#95500000
b111 $
1"
1.
1'
1(
b11100000000000 #
#96000000
0.
#96500000
b0 $
b10000000000000 %
b100 &
0"
1.
0'
0(
b0 #
#97000000
0.
#97500000
1.
b1 $
b100000000000 #
#98000000
0.
#98500000
1.
b10 $
b1000000000000 #
#99000000
0.
#99500000
1.
b11 $
b1100000000000 #
#100000000
0.
#100500000
1.
b100 $
b10000000000000 #
#101000000
0.
#101500000
1.
b101 $
b10100000000000 #
#102000000
0.
#102500000
1.
b110 $
b11000000000000 #
#103000000
0.
#103500000
b111 $
1"
1.
1'
1(
b11100000000000 #
#104000000
0.
#104500000
b0 $
b10100000000000 %
b101 &
0"
1.
0'
0(
b0 #
#105000000
0.
#105500000
1.
b1 $
b100000000000 #
#106000000
0.
#106500000
1.
b10 $
b1000000000000 #
#107000000
0.
#107500000
1.
b11 $
b1100000000000 #
#108000000
0.
#108500000
1.
b100 $
b10000000000000 #
#109000000
0.
#109500000
1.
b101 $
b10100000000000 #
#110000000
0.
#110500000
1.
b110 $
b11000000000000 #
#111000000
0.
#111500000
b111 $
1"
1.
1'
1(
b11100000000000 #
#112000000
0.
#112500000
b0 $
b11000000000000 %
b110 &
0"
1.
0'
0(
b0 #
#113000000
0.
#113500000
1.
b1 $
b100000000000 #
#114000000
0.
#114500000
1.
b10 $
b1000000000000 #
#115000000
0.
#115500000
1.
b11 $
b1100000000000 #
#116000000
0.
#116500000
1.
b100 $
b10000000000000 #
#117000000
0.
#117500000
1.
b101 $
b10100000000000 #
#118000000
0.
#118500000
1.
b110 $
b11000000000000 #
#119000000
0.
#119500000
b111 $
1"
1.
1'
1(
b11100000000000 #
#120000000
0.
#120500000
1*
b11100000000000 %
b111 &
1)
0(
b0 $
0"
1.
0'
b0 #
#121000000
0.
#121500000
1.
b1 $
b100000000000 #
#122000000
0.
#122500000
1.
b10 $
b1000000000000 #
#123000000
0.
#123500000
1.
b11 $
b1100000000000 #
#124000000
0.
#124500000
1.
b100 $
b10000000000000 #
#125000000
0.
#125500000
1.
b101 $
b10100000000000 #
#126000000
0.
#126500000
1.
b110 $
b11000000000000 #
#127000000
0.
#127500000
b111 $
1"
1.
1'
1(
b11100000000000 #
#128000000
0.
#128500000
0*
b0 %
b0 &
0)
0(
b0 $
0"
1.
0'
b0 #
#129000000
0.
#129500000
1.
b1 $
b100000000000 #
#130000000
0.
#130500000
1.
b10 $
b1000000000000 #
#131000000
0.
#131500000
1.
b11 $
b1100000000000 #
#132000000
0.
#132500000
1.
b100 $
b10000000000000 #
#133000000
0.
#133500000
1.
b101 $
b10100000000000 #
#134000000
0.
#134500000
1.
b110 $
b11000000000000 #
#135000000
0.
#135500000
b111 $
1"
1.
1'
1(
b11100000000000 #
#136000000
0.
#136500000
b0 $
b100000000000 %
b1 &
0"
1.
0'
0(
b0 #
#137000000
0.
#137500000
1.
b1 $
b100000000000 #
#138000000
0.
#138500000
1.
b10 $
b1000000000000 #
#139000000
0.
#139500000
1.
b11 $
b1100000000000 #
#140000000
0.
#140500000
1.
b100 $
b10000000000000 #
#141000000
0.
#141500000
1.
b101 $
b10100000000000 #
#142000000
0.
#142500000
1.
b110 $
b11000000000000 #
#143000000
0.
#143500000
b111 $
1"
1.
1'
1(
b11100000000000 #
#144000000
0.
#144500000
b0 $
b1000000000000 %
b10 &
0"
1.
0'
0(
b0 #
#145000000
0.
#145500000
1.
b1 $
b100000000000 #
#146000000
0.
#146500000
1.
b10 $
b1000000000000 #
#147000000
0.
#147500000
1.
b11 $
b1100000000000 #
#148000000
0.
#148500000
1.
b100 $
b10000000000000 #
#149000000
0.
#149500000
1.
b101 $
b10100000000000 #
#150000000
0.
#150500000
1.
b110 $
b11000000000000 #
#151000000
0.
#151500000
b111 $
1"
1.
1'
1(
b11100000000000 #
#152000000
0.
#152500000
b0 $
b1100000000000 %
b11 &
0"
1.
0'
0(
b0 #
#153000000
0.
#153500000
1.
b1 $
b100000000000 #
#154000000
0.
#154500000
1.
b10 $
b1000000000000 #
#155000000
0.
#155500000
1.
b11 $
b1100000000000 #
#156000000
0.
#156500000
1.
b100 $
b10000000000000 #
#157000000
0.
#157500000
1.
b101 $
b10100000000000 #
#158000000
0.
#158500000
1.
b110 $
b11000000000000 #
#159000000
0.
#159500000
b111 $
1"
1.
1'
1(
b11100000000000 #
#160000000
0.
#160500000
b0 $
b10000000000000 %
b100 &
0"
1.
0'
0(
b0 #
#161000000
0.
#161500000
1.
b1 $
b100000000000 #
#162000000
0.
#162500000
1.
b10 $
b1000000000000 #
#163000000
0.
#163500000
1.
b11 $
b1100000000000 #
#164000000
0.
#164500000
1.
b100 $
b10000000000000 #
#165000000
0.
#165500000
1.
b101 $
b10100000000000 #
#166000000
0.
#166500000
1.
b110 $
b11000000000000 #
#167000000
0.
#167500000
b111 $
1"
1.
1'
1(
b11100000000000 #
#168000000
0.
#168500000
b0 $
b10100000000000 %
b101 &
0"
1.
0'
0(
b0 #
#169000000
0.
#169500000
1.
b1 $
b100000000000 #
#170000000
0.
#170500000
1.
b10 $
b1000000000000 #
#171000000
0.
#171500000
1.
b11 $
b1100000000000 #
#172000000
0.
#172500000
1.
b100 $
b10000000000000 #
#173000000
0.
#173500000
1.
b101 $
b10100000000000 #
#174000000
0.
#174500000
1.
b110 $
b11000000000000 #
#175000000
0.
#175500000
b111 $
1"
1.
1'
1(
b11100000000000 #
#176000000
0.
#176500000
b0 $
b11000000000000 %
b110 &
0"
1.
0'
0(
b0 #
#177000000
0.
#177500000
1.
b1 $
b100000000000 #
#178000000
0.
#178500000
1.
b10 $
b1000000000000 #
#179000000
0.
#179500000
1.
b11 $
b1100000000000 #
#180000000
0.
#180500000
1.
b100 $
b10000000000000 #
#181000000
0.
#181500000
1.
b101 $
b10100000000000 #
#182000000
0.
#182500000
1.
b110 $
b11000000000000 #
#183000000
0.
#183500000
b111 $
1"
1.
1'
1(
b11100000000000 #
#184000000
0.
#184500000
1*
b11100000000000 %
b111 &
1)
0(
b0 $
0"
1.
0'
b0 #
#185000000
0.
#185500000
1.
b1 $
b100000000000 #
#186000000
0.
#186500000
1.
b10 $
b1000000000000 #
#187000000
0.
#187500000
1.
b11 $
b1100000000000 #
#188000000
0.
#188500000
1.
b100 $
b10000000000000 #
#189000000
0.
#189500000
1.
b101 $
b10100000000000 #
#190000000
0.
#190500000
1.
b110 $
b11000000000000 #
#191000000
0.
#191500000
b111 $
1"
1.
1'
1(
b11100000000000 #
#192000000
0.
#192500000
0*
b0 %
b0 &
0)
0(
b0 $
0"
1.
0'
b0 #
#193000000
0.
#193500000
1.
b1 $
b100000000000 #
