scan_sim_bus.vcd
$comment Generated by Amaranth $end
$date 2023-07-28 19:43:44.605434 $end
$timescale 1 ps $end
$scope module bench $end
$scope module top $end
$var wire 1 ! clk $end
$var wire 1 " rst $end
$var wire 14 # x_data $end
$var wire 14 $ x_data$1 $end
$var wire 14 % y_data $end
$var wire 14 & y_data$1 $end
$var wire 1 ' line_sync $end
$var wire 1 ( line_sync$1 $end
$var wire 1 ) frame_sync $end
$var wire 1 * frame_sync$1 $end
$var wire 1 + x_enable $end
$var wire 1 , y_enable $end
$var wire 1 - a_enable $end
$var wire 1 . count_one $end
$var wire 4 / count $end
$var wire 1 0 count_six $end
$var wire 1 1 a_clock $end
$var wire 1 2 d_clock $end
$var wire 1 3 dwell_ctr_ovf $end
$var wire 8 4 count$1 $end
$var wire 8 5 out_fifo $end
$var wire 1 6 rst$1 $end
$var wire 1 7 x_rst $end
$var wire 8 8 bus_state $end
$var string 1 9 fsm_state $end
$var wire 1 : rst$2 $end
$var wire 1 ; en $end
$var wire 1 < en$1 $end
$var wire 1 = x_latch $end
$var wire 1 > y_latch $end
$var wire 1 ? a_latch $end
$var wire 1 @ out_fifo_ready $end
$scope module dwell_ctr $end
$var wire 1 ! clk $end
$var wire 1 " rst $end
$var wire 8 4 count $end
$var wire 1 : rst$1 $end
$var wire 1 < en $end
$upscope $end
$scope module min_dwell_ctr $end
$var wire 1 ! clk $end
$var wire 1 " rst $end
$var wire 4 / count $end
$var wire 1 A ovf $end
$upscope $end
$scope module scan_gen $end
$var wire 14 $ x_data $end
$var wire 14 & y_data $end
$var wire 1 ( line_sync $end
$var wire 1 * frame_sync $end
$var wire 1 6 rst $end
$var wire 1 7 x_rst $end
$var wire 1 ; en $end
$var wire 1 B en$1 $end
$var wire 1 C en$2 $end
$var wire 5 D count $end
$var wire 5 E count$1 $end
$var wire 1 F ovf $end
$var wire 1 G ovf$1 $end
$var wire 1 H rst$1 $end
$var wire 1 I rst$2 $end
$var wire 1 J y_rst $end
$scope module x_ramp $end
$var wire 1 ! clk $end
$var wire 1 " rst $end
$var wire 1 B en $end
$var wire 5 D count $end
$var wire 1 F ovf $end
$var wire 1 H rst$1 $end
$upscope $end
$scope module y_ramp $end
$var wire 1 ! clk $end
$var wire 1 " rst $end
$var wire 1 C en $end
$var wire 5 E count $end
$var wire 1 G ovf $end
$var wire 1 I rst$1 $end
$upscope $end
$upscope $end
$upscope $end
$upscope $end
$enddefinitions $end
#0
$dumpvars
0!
0"
b0 #
b0 $
b0 %
b0 &
0'
0(
0)
0*
0+
0,
1-
0.
b0 /
00
01
02
03
b0 4
b0 5
16
07
b0 8
sWait_For_First_USB_Data/0 9
0:
0;
0<
0=
0>
0?
0@
0A
0B
0C
b0 D
b0 E
0F
0G
1H
1I
0J
$end
#500000
b1 /
0I
11
13
b1000 8
1@
1!
06
b11 5
0H
#1000000
0!
#1500000
1!
b10 /
1.
sWAIT/1 9
b0 8
1<
03
#2000000
0!
#2500000
1!
b11 /
0.
b1 4
sX_WRITE/2 9
b1 8
0<
#3000000
0!
#3500000
1=
1!
b100 /
sX_LATCH/3 9
#4000000
0!
#4500000
0=
1!
b101 /
sX_RELEASE/4 9
#5000000
0!
#5500000
1!
b110 /
sY_WRITE/5 9
b10 8
#6000000
0!
#6500000
1>
1!
b111 /
sY_LATCH/6 9
10
#7000000
0!
#7500000
1!
b1000 /
sY_RELEASE/7 9
01
0>
12
#8000000
0!
#8500000
1?
1!
b1001 /
0-
sA_LATCH_&_ENABLE/8 9
b0 8
#9000000
0!
#9500000
0?
1!
b1010 /
sA_READ/9 9
b11 8
#10000000
0!
#10500000
1!
b1011 /
1A
sA_RELEASE/10 9
b111 8
#11000000
0!
#11500000
1!
b0 /
1-
0A
sFIFO_1/11 9
b100 8
#12000000
0!
#12500000
1!
b1 /
sFIFO_2/12 9
b101 8
00
#13000000
0!
#13500000
1!
b10 /
1.
1<
sWAIT/1 9
b0 8
11
02
#14000000
0!
#14500000
1!
b11 /
0.
b10 4
sX_WRITE/2 9
b1 8
0<
#15000000
0!
#15500000
1=
1!
b100 /
sX_LATCH/3 9
#16000000
0!
#16500000
0=
1!
b101 /
sX_RELEASE/4 9
#17000000
0!
#17500000
1!
b110 /
sY_WRITE/5 9
b10 8
#18000000
0!
#18500000
1>
1!
b111 /
sY_LATCH/6 9
10
#19000000
0!
#19500000
1!
b1000 /
sY_RELEASE/7 9
01
0>
12
#20000000
0!
#20500000
1?
1!
b1001 /
0-
sA_LATCH_&_ENABLE/8 9
b0 8
#21000000
0!
#21500000
0?
1!
b1010 /
sA_READ/9 9
b11 8
#22000000
0!
#22500000
1!
b1011 /
1A
sA_RELEASE/10 9
b111 8
#23000000
0!
#23500000
1!
b0 /
1-
0A
sFIFO_1/11 9
b100 8
#24000000
0!
#24500000
1!
b1 /
sFIFO_2/12 9
b101 8
00
#25000000
0!
#25500000
1!
b10 /
1.
1<
sWAIT/1 9
b0 8
11
02
#26000000
0!
#26500000
1!
b11 /
0.
b11 4
sX_WRITE/2 9
b1 8
0<
#27000000
0!
#27500000
1!
b100 /
1=
sX_LATCH/3 9
13
#28000000
0!
#28500000
0=
1!
b101 /
sX_RELEASE/4 9
#29000000
0!
#29500000
1!
b110 /
sY_WRITE/5 9
b10 8
#30000000
0!
#30500000
1>
1!
b111 /
sY_LATCH/6 9
10
#31000000
0!
#31500000
1!
b1000 /
sY_RELEASE/7 9
01
0>
12
#32000000
0!
#32500000
1?
1!
b1001 /
0-
sA_LATCH_&_ENABLE/8 9
b0 8
#33000000
0!
#33500000
0?
1!
b1010 /
sA_READ/9 9
b11 8
#34000000
0!
#34500000
1!
b1011 /
1A
sA_RELEASE/10 9
b111 8
#35000000
0!
#35500000
1!
b0 /
1-
0A
sFIFO_1/11 9
b100 8
#36000000
0!
#36500000
1!
b1 /
sFIFO_2/12 9
b101 8
00
#37000000
0!
#37500000
b10 /
1.
sWAIT/1 9
b1000 8
02
1!
1;
1:
1B
11
#38000000
0!
#38500000
b11 /
b10000000000 #
0.
b0 4
sX_WRITE/2 9
b10000000000 $
b1 D
b1 8
1!
0;
0:
0B
#39000000
0!
#39500000
1!
b100 /
1=
sX_LATCH/3 9
03
#40000000
0!
#40500000
0=
1!
b101 /
sX_RELEASE/4 9
#41000000
0!
#41500000
1!
b110 /
sY_WRITE/5 9
b10 8
#42000000
0!
#42500000
1>
1!
b111 /
sY_LATCH/6 9
10
#43000000
0!
#43500000
1!
b1000 /
sY_RELEASE/7 9
01
0>
12
#44000000
0!
#44500000
1?
1!
b1001 /
0-
sA_LATCH_&_ENABLE/8 9
b0 8
#45000000
0!
#45500000
0?
1!
b1010 /
sA_READ/9 9
b11 8
#46000000
0!
#46500000
1!
b1011 /
1A
sA_RELEASE/10 9
b111 8
#47000000
0!
#47500000
1!
b0 /
1-
0A
sFIFO_1/11 9
b100 8
#48000000
0!
#48500000
1!
b1 /
sFIFO_2/12 9
b101 8
00
#49000000
0!
#49500000
1!
b10 /
1.
1<
sWAIT/1 9
b0 8
11
02
#50000000
0!
#50500000
1!
b11 /
0.
b1 4
sX_WRITE/2 9
b1 8
0<
#51000000
0!
#51500000
1=
1!
b100 /
sX_LATCH/3 9
#52000000
0!
#52500000
0=
1!
b101 /
sX_RELEASE/4 9
#53000000
0!
#53500000
1!
b110 /
sY_WRITE/5 9
b10 8
#54000000
0!
#54500000
1>
1!
b111 /
sY_LATCH/6 9
10
#55000000
0!
#55500000
1!
b1000 /
sY_RELEASE/7 9
01
0>
12
#56000000
0!
#56500000
1?
1!
b1001 /
0-
sA_LATCH_&_ENABLE/8 9
b0 8
#57000000
0!
#57500000
0?
1!
b1010 /
sA_READ/9 9
b11 8
#58000000
0!
#58500000
1!
b1011 /
1A
sA_RELEASE/10 9
b111 8
#59000000
0!
#59500000
1!
b0 /
1-
0A
sFIFO_1/11 9
b100 8
#60000000
0!
#60500000
1!
b1 /
sFIFO_2/12 9
b101 8
00
#61000000
0!
#61500000
1!
b10 /
1.
1<
sWAIT/1 9
b0 8
11
02
#62000000
0!
#62500000
1!
b11 /
0.
b10 4
sX_WRITE/2 9
b1 8
0<
#63000000
0!
#63500000
1=
1!
b100 /
sX_LATCH/3 9
#64000000
0!
#64500000
0=
1!
b101 /
sX_RELEASE/4 9
#65000000
0!
#65500000
1!
b110 /
sY_WRITE/5 9
b10 8
#66000000
0!
#66500000
1>
1!
b111 /
sY_LATCH/6 9
10
#67000000
0!
#67500000
1!
b1000 /
sY_RELEASE/7 9
01
0>
12
#68000000
0!
#68500000
1?
1!
b1001 /
0-
sA_LATCH_&_ENABLE/8 9
b0 8
#69000000
0!
#69500000
0?
1!
b1010 /
sA_READ/9 9
b11 8
#70000000
0!
#70500000
1!
b1011 /
1A
sA_RELEASE/10 9
b111 8
#71000000
0!
#71500000
1!
b0 /
1-
0A
sFIFO_1/11 9
b100 8
#72000000
0!
#72500000
1!
b1 /
sFIFO_2/12 9
b101 8
00
#73000000
0!
#73500000
1!
b10 /
1.
1<
sWAIT/1 9
b0 8
11
02
#74000000
0!
#74500000
1!
b11 /
0.
b11 4
sX_WRITE/2 9
b1 8
0<
#75000000
0!
#75500000
1!
b100 /
1=
sX_LATCH/3 9
13
#76000000
0!
#76500000
0=
1!
b101 /
sX_RELEASE/4 9
#77000000
0!
#77500000
1!
b110 /
sY_WRITE/5 9
b10 8
#78000000
0!
#78500000
1>
1!
b111 /
sY_LATCH/6 9
10
#79000000
0!
#79500000
1!
b1000 /
sY_RELEASE/7 9
01
0>
12
#80000000
0!
#80500000
1?
1!
b1001 /
0-
sA_LATCH_&_ENABLE/8 9
b0 8
#81000000
0!
#81500000
0?
1!
b1010 /
sA_READ/9 9
b11 8
#82000000
0!
#82500000
1!
b1011 /
1A
sA_RELEASE/10 9
b111 8
#83000000
0!
#83500000
1!
b0 /
1-
0A
sFIFO_1/11 9
b100 8
#84000000
0!
#84500000
1!
b1 /
sFIFO_2/12 9
b101 8
00
#85000000
0!
#85500000
b10 /
1.
sWAIT/1 9
b1000 8
02
1!
1;
1:
1B
11
#86000000
0!
#86500000
b11 /
b100000000000 #
0.
b0 4
sX_WRITE/2 9
b100000000000 $
b10 D
b1 8
1!
0;
0:
0B
#87000000
0!
#87500000
1!
b100 /
1=
sX_LATCH/3 9
03
#88000000
0!
#88500000
0=
1!
b101 /
sX_RELEASE/4 9
#89000000
0!
#89500000
1!
b110 /
sY_WRITE/5 9
b10 8
#90000000
0!
#90500000
1>
1!
b111 /
sY_LATCH/6 9
10
#91000000
0!
#91500000
1!
b1000 /
sY_RELEASE/7 9
01
0>
12
#92000000
0!
#92500000
1?
1!
b1001 /
0-
sA_LATCH_&_ENABLE/8 9
b0 8
#93000000
0!
#93500000
0?
1!
b1010 /
sA_READ/9 9
b11 8
#94000000
0!
#94500000
1!
b1011 /
1A
sA_RELEASE/10 9
b111 8
#95000000
0!
#95500000
1!
b0 /
1-
0A
sFIFO_1/11 9
b100 8
#96000000
0!
#96500000
1!
b1 /
sFIFO_2/12 9
b101 8
00
#97000000
0!
#97500000
1!
b10 /
1.
1<
sWAIT/1 9
b0 8
11
02
#98000000
0!
#98500000
1!
b11 /
0.
b1 4
sX_WRITE/2 9
b1 8
0<
#99000000
0!
#99500000
1=
1!
b100 /
sX_LATCH/3 9
#100000000
0!
#100500000
0=
1!
b101 /
sX_RELEASE/4 9
#101000000
0!
#101500000
1!
b110 /
sY_WRITE/5 9
b10 8
#102000000
0!
#102500000
1>
1!
b111 /
sY_LATCH/6 9
10
#103000000
0!
#103500000
1!
b1000 /
sY_RELEASE/7 9
01
0>
12
#104000000
0!
#104500000
1?
1!
b1001 /
0-
sA_LATCH_&_ENABLE/8 9
b0 8
#105000000
0!
#105500000
0?
1!
b1010 /
sA_READ/9 9
b11 8
#106000000
0!
#106500000
1!
b1011 /
1A
sA_RELEASE/10 9
b111 8
#107000000
0!
#107500000
1!
b0 /
1-
0A
sFIFO_1/11 9
b100 8
#108000000
0!
#108500000
1!
b1 /
sFIFO_2/12 9
b101 8
00
#109000000
0!
#109500000
1!
b10 /
1.
1<
sWAIT/1 9
b0 8
11
02
#110000000
0!
#110500000
1!
b11 /
0.
b10 4
sX_WRITE/2 9
b1 8
0<
#111000000
0!
#111500000
1=
1!
b100 /
sX_LATCH/3 9
#112000000
0!
#112500000
0=
1!
b101 /
sX_RELEASE/4 9
#113000000
0!
#113500000
1!
b110 /
sY_WRITE/5 9
b10 8
#114000000
0!
#114500000
1>
1!
b111 /
sY_LATCH/6 9
10
#115000000
0!
#115500000
1!
b1000 /
sY_RELEASE/7 9
01
0>
12
#116000000
0!
#116500000
1?
1!
b1001 /
0-
sA_LATCH_&_ENABLE/8 9
b0 8
#117000000
0!
#117500000
0?
1!
b1010 /
sA_READ/9 9
b11 8
#118000000
0!
#118500000
1!
b1011 /
1A
sA_RELEASE/10 9
b111 8
#119000000
0!
#119500000
1!
b0 /
1-
0A
sFIFO_1/11 9
b100 8
#120000000
0!
#120500000
1!
b1 /
sFIFO_2/12 9
b101 8
00
#121000000
0!
#121500000
1!
b10 /
1.
1<
sWAIT/1 9
b0 8
11
02
#122000000
0!
#122500000
1!
b11 /
0.
b11 4
sX_WRITE/2 9
b1 8
0<
#123000000
0!
#123500000
1!
b100 /
1=
sX_LATCH/3 9
13
#124000000
0!
#124500000
0=
1!
b101 /
sX_RELEASE/4 9
#125000000
0!
#125500000
1!
b110 /
sY_WRITE/5 9
b10 8
#126000000
0!
#126500000
1>
1!
b111 /
sY_LATCH/6 9
10
#127000000
0!
#127500000
1!
b1000 /
sY_RELEASE/7 9
01
0>
12
#128000000
0!
#128500000
1?
1!
b1001 /
0-
sA_LATCH_&_ENABLE/8 9
b0 8
#129000000
0!
#129500000
0?
1!
b1010 /
sA_READ/9 9
b11 8
#130000000
0!
#130500000
1!
b1011 /
1A
sA_RELEASE/10 9
b111 8
#131000000
0!
#131500000
1!
b0 /
1-
0A
sFIFO_1/11 9
b100 8
#132000000
0!
#132500000
1!
b1 /
sFIFO_2/12 9
b101 8
00
#133000000
0!
#133500000
b10 /
1.
sWAIT/1 9
b1000 8
02
1!
1;
1:
1B
11
#134000000
0!
#134500000
b11 /
b110000000000 #
0.
b0 4
sX_WRITE/2 9
b110000000000 $
b11 D
b1 8
1!
0;
0:
0B
#135000000
0!
#135500000
1!
b100 /
1=
sX_LATCH/3 9
03
#136000000
0!
#136500000
0=
1!
b101 /
sX_RELEASE/4 9
#137000000
0!
#137500000
1!
b110 /
sY_WRITE/5 9
b10 8
#138000000
0!
#138500000
1>
1!
b111 /
sY_LATCH/6 9
10
#139000000
0!
#139500000
1!
b1000 /
sY_RELEASE/7 9
01
0>
12
#140000000
0!
#140500000
1?
1!
b1001 /
0-
sA_LATCH_&_ENABLE/8 9
b0 8
#141000000
0!
#141500000
0?
1!
b1010 /
sA_READ/9 9
b11 8
#142000000
0!
#142500000
1!
b1011 /
1A
sA_RELEASE/10 9
b111 8
#143000000
0!
#143500000
1!
b0 /
1-
0A
sFIFO_1/11 9
b100 8
#144000000
0!
#144500000
1!
b1 /
sFIFO_2/12 9
b101 8
00
#145000000
0!
#145500000
1!
b10 /
1.
1<
sWAIT/1 9
b0 8
11
02
#146000000
0!
#146500000
1!
b11 /
0.
b1 4
sX_WRITE/2 9
b1 8
0<
#147000000
0!
#147500000
1=
1!
b100 /
sX_LATCH/3 9
#148000000
0!
#148500000
0=
1!
b101 /
sX_RELEASE/4 9
#149000000
0!
#149500000
1!
b110 /
sY_WRITE/5 9
b10 8
#150000000
0!
#150500000
1>
1!
b111 /
sY_LATCH/6 9
10
#151000000
0!
#151500000
1!
b1000 /
sY_RELEASE/7 9
01
0>
12
#152000000
0!
#152500000
1?
1!
b1001 /
0-
sA_LATCH_&_ENABLE/8 9
b0 8
#153000000
0!
#153500000
0?
1!
b1010 /
sA_READ/9 9
b11 8
#154000000
0!
#154500000
1!
b1011 /
1A
sA_RELEASE/10 9
b111 8
#155000000
0!
#155500000
1!
b0 /
1-
0A
sFIFO_1/11 9
b100 8
#156000000
0!
#156500000
1!
b1 /
sFIFO_2/12 9
b101 8
00
#157000000
0!
#157500000
1!
b10 /
1.
1<
sWAIT/1 9
b0 8
11
02
#158000000
0!
#158500000
1!
b11 /
0.
b10 4
sX_WRITE/2 9
b1 8
0<
#159000000
0!
#159500000
1=
1!
b100 /
sX_LATCH/3 9
#160000000
0!
#160500000
0=
1!
b101 /
sX_RELEASE/4 9
#161000000
0!
#161500000
1!
b110 /
sY_WRITE/5 9
b10 8
#162000000
0!
#162500000
1>
1!
b111 /
sY_LATCH/6 9
10
#163000000
0!
#163500000
1!
b1000 /
sY_RELEASE/7 9
01
0>
12
#164000000
0!
#164500000
1?
1!
b1001 /
0-
sA_LATCH_&_ENABLE/8 9
b0 8
#165000000
0!
#165500000
0?
1!
b1010 /
sA_READ/9 9
b11 8
#166000000
0!
#166500000
1!
b1011 /
1A
sA_RELEASE/10 9
b111 8
#167000000
0!
#167500000
1!
b0 /
1-
0A
sFIFO_1/11 9
b100 8
#168000000
0!
#168500000
1!
b1 /
sFIFO_2/12 9
b101 8
00
#169000000
0!
#169500000
1!
b10 /
1.
1<
sWAIT/1 9
b0 8
11
02
#170000000
0!
#170500000
1!
b11 /
0.
b11 4
sX_WRITE/2 9
b1 8
0<
#171000000
0!
#171500000
1!
b100 /
1=
sX_LATCH/3 9
13
#172000000
0!
#172500000
0=
1!
b101 /
sX_RELEASE/4 9
#173000000
0!
#173500000
1!
b110 /
sY_WRITE/5 9
b10 8
#174000000
0!
#174500000
1>
1!
b111 /
sY_LATCH/6 9
10
#175000000
0!
#175500000
1!
b1000 /
sY_RELEASE/7 9
01
0>
12
#176000000
0!
#176500000
1?
1!
b1001 /
0-
sA_LATCH_&_ENABLE/8 9
b0 8
#177000000
0!
#177500000
0?
1!
b1010 /
sA_READ/9 9
b11 8
#178000000
0!
#178500000
1!
b1011 /
1A
sA_RELEASE/10 9
b111 8
#179000000
0!
#179500000
1!
b0 /
1-
0A
sFIFO_1/11 9
b100 8
#180000000
0!
#180500000
1!
b1 /
sFIFO_2/12 9
b101 8
00
#181000000
0!
#181500000
b10 /
1.
sWAIT/1 9
b1000 8
02
1!
1;
1:
1B
11
#182000000
0!
#182500000
b11 /
b1000000000000 #
0.
b0 4
sX_WRITE/2 9
b1000000000000 $
b100 D
b1 8
1!
0;
0:
0B
#183000000
0!
#183500000
1!
b100 /
1=
sX_LATCH/3 9
03
#184000000
0!
#184500000
0=
1!
b101 /
sX_RELEASE/4 9
#185000000
0!
#185500000
1!
b110 /
sY_WRITE/5 9
b10 8
#186000000
0!
#186500000
1>
1!
b111 /
sY_LATCH/6 9
10
#187000000
0!
#187500000
1!
b1000 /
sY_RELEASE/7 9
01
0>
12
#188000000
0!
#188500000
1?
1!
b1001 /
0-
sA_LATCH_&_ENABLE/8 9
b0 8
#189000000
0!
#189500000
0?
1!
b1010 /
sA_READ/9 9
b11 8
#190000000
0!
#190500000
1!
b1011 /
1A
sA_RELEASE/10 9
b111 8
#191000000
0!
#191500000
1!
b0 /
1-
0A
sFIFO_1/11 9
b100 8
#192000000
0!
#192500000
1!
b1 /
sFIFO_2/12 9
b101 8
00
#193000000
0!
#193500000
1!
b10 /
1.
1<
sWAIT/1 9
b0 8
11
02
#194000000
0!
#194500000
1!
b11 /
0.
b1 4
sX_WRITE/2 9
b1 8
0<
#195000000
0!
#195500000
1=
1!
b100 /
sX_LATCH/3 9
#196000000
0!
#196500000
0=
1!
b101 /
sX_RELEASE/4 9
#197000000
0!
#197500000
1!
b110 /
sY_WRITE/5 9
b10 8
#198000000
0!
#198500000
1>
1!
b111 /
sY_LATCH/6 9
10
#199000000
0!
#199500000
1!
b1000 /
sY_RELEASE/7 9
01
0>
12
#200000000
0!
#200500000
1?
1!
b1001 /
0-
sA_LATCH_&_ENABLE/8 9
b0 8
#201000000
0!
#201500000
0?
1!
b1010 /
sA_READ/9 9
b11 8
#202000000
0!
#202500000
1!
b1011 /
1A
sA_RELEASE/10 9
b111 8
#203000000
0!
#203500000
1!
b0 /
1-
0A
sFIFO_1/11 9
b100 8
#204000000
0!
#204500000
1!
b1 /
sFIFO_2/12 9
b101 8
00
#205000000
0!
#205500000
1!
b10 /
1.
1<
sWAIT/1 9
b0 8
11
02
#206000000
0!
#206500000
1!
b11 /
0.
b10 4
sX_WRITE/2 9
b1 8
0<
#207000000
0!
#207500000
1=
1!
b100 /
sX_LATCH/3 9
#208000000
0!
#208500000
0=
1!
b101 /
sX_RELEASE/4 9
#209000000
0!
#209500000
1!
b110 /
sY_WRITE/5 9
b10 8
#210000000
0!
#210500000
1>
1!
b111 /
sY_LATCH/6 9
10
#211000000
0!
#211500000
1!
b1000 /
sY_RELEASE/7 9
01
0>
12
#212000000
0!
#212500000
1?
1!
b1001 /
0-
sA_LATCH_&_ENABLE/8 9
b0 8
#213000000
0!
#213500000
0?
1!
b1010 /
sA_READ/9 9
b11 8
#214000000
0!
#214500000
1!
b1011 /
1A
sA_RELEASE/10 9
b111 8
#215000000
0!
#215500000
1!
b0 /
1-
0A
sFIFO_1/11 9
b100 8
#216000000
0!
#216500000
1!
b1 /
sFIFO_2/12 9
b101 8
00
#217000000
0!
#217500000
1!
b10 /
1.
1<
sWAIT/1 9
b0 8
11
02
#218000000
0!
#218500000
1!
b11 /
0.
b11 4
sX_WRITE/2 9
b1 8
0<
#219000000
0!
#219500000
1!
b100 /
1=
sX_LATCH/3 9
13
#220000000
0!
#220500000
0=
1!
b101 /
sX_RELEASE/4 9
#221000000
0!
#221500000
1!
b110 /
sY_WRITE/5 9
b10 8
#222000000
0!
#222500000
1>
1!
b111 /
sY_LATCH/6 9
10
#223000000
0!
#223500000
1!
b1000 /
sY_RELEASE/7 9
01
0>
12
#224000000
0!
#224500000
1?
1!
b1001 /
0-
sA_LATCH_&_ENABLE/8 9
b0 8
#225000000
0!
#225500000
0?
1!
b1010 /
sA_READ/9 9
b11 8
#226000000
0!
#226500000
1!
b1011 /
1A
sA_RELEASE/10 9
b111 8
#227000000
0!
#227500000
1!
b0 /
1-
0A
sFIFO_1/11 9
b100 8
#228000000
0!
#228500000
1!
b1 /
sFIFO_2/12 9
b101 8
00
#229000000
0!
#229500000
b10 /
1.
sWAIT/1 9
b1000 8
02
1!
1;
1:
1B
11
#230000000
0!
#230500000
b11 /
b1010000000000 #
0.
b0 4
sX_WRITE/2 9
b1010000000000 $
b101 D
b1 8
1!
0;
0:
0B
#231000000
0!
#231500000
1!
b100 /
1=
sX_LATCH/3 9
03
#232000000
0!
#232500000
0=
1!
b101 /
sX_RELEASE/4 9
#233000000
0!
#233500000
1!
b110 /
sY_WRITE/5 9
b10 8
#234000000
0!
#234500000
1>
1!
b111 /
sY_LATCH/6 9
10
#235000000
0!
#235500000
1!
b1000 /
sY_RELEASE/7 9
01
0>
12
#236000000
0!
#236500000
1?
1!
b1001 /
0-
sA_LATCH_&_ENABLE/8 9
b0 8
#237000000
0!
#237500000
0?
1!
b1010 /
sA_READ/9 9
b11 8
#238000000
0!
#238500000
1!
b1011 /
1A
sA_RELEASE/10 9
b111 8
#239000000
0!
#239500000
1!
b0 /
1-
0A
sFIFO_1/11 9
b100 8
#240000000
0!
#240500000
1!
b1 /
sFIFO_2/12 9
b101 8
00
#241000000
0!
#241500000
1!
b10 /
1.
1<
sWAIT/1 9
b0 8
11
02
#242000000
0!
#242500000
1!
b11 /
0.
b1 4
sX_WRITE/2 9
b1 8
0<
#243000000
0!
#243500000
1=
1!
b100 /
sX_LATCH/3 9
#244000000
0!
#244500000
0=
1!
b101 /
sX_RELEASE/4 9
#245000000
0!
#245500000
1!
b110 /
sY_WRITE/5 9
b10 8
#246000000
0!
#246500000
1>
1!
b111 /
sY_LATCH/6 9
10
#247000000
0!
#247500000
1!
b1000 /
sY_RELEASE/7 9
01
0>
12
#248000000
0!
#248500000
1?
1!
b1001 /
0-
sA_LATCH_&_ENABLE/8 9
b0 8
#249000000
0!
#249500000
0?
1!
b1010 /
sA_READ/9 9
b11 8
#250000000
0!
#250500000
1!
b1011 /
1A
sA_RELEASE/10 9
b111 8
#251000000
0!
#251500000
1!
b0 /
1-
0A
sFIFO_1/11 9
b100 8
#252000000
0!
#252500000
1!
b1 /
sFIFO_2/12 9
b101 8
00
#253000000
0!
#253500000
1!
b10 /
1.
1<
sWAIT/1 9
b0 8
11
02
#254000000
0!
#254500000
1!
b11 /
0.
b10 4
sX_WRITE/2 9
b1 8
0<
#255000000
0!
#255500000
1=
1!
b100 /
sX_LATCH/3 9
#256000000
0!
#256500000
0=
1!
b101 /
sX_RELEASE/4 9
#257000000
0!
#257500000
1!
b110 /
sY_WRITE/5 9
b10 8
#258000000
0!
#258500000
1>
1!
b111 /
sY_LATCH/6 9
10
#259000000
0!
#259500000
1!
b1000 /
sY_RELEASE/7 9
01
0>
12
#260000000
0!
#260500000
1?
1!
b1001 /
0-
sA_LATCH_&_ENABLE/8 9
b0 8
#261000000
0!
#261500000
0?
1!
b1010 /
sA_READ/9 9
b11 8
#262000000
0!
#262500000
1!
b1011 /
1A
sA_RELEASE/10 9
b111 8
#263000000
0!
#263500000
1!
b0 /
1-
0A
sFIFO_1/11 9
b100 8
#264000000
0!
#264500000
1!
b1 /
sFIFO_2/12 9
b101 8
00
#265000000
0!
#265500000
1!
b10 /
1.
1<
sWAIT/1 9
b0 8
11
02
#266000000
0!
#266500000
1!
b11 /
0.
b11 4
sX_WRITE/2 9
b1 8
0<
#267000000
0!
#267500000
1!
b100 /
1=
sX_LATCH/3 9
13
#268000000
0!
#268500000
0=
1!
b101 /
sX_RELEASE/4 9
#269000000
0!
#269500000
1!
b110 /
sY_WRITE/5 9
b10 8
#270000000
0!
#270500000
1>
1!
b111 /
sY_LATCH/6 9
10
#271000000
0!
#271500000
1!
b1000 /
sY_RELEASE/7 9
01
0>
12
#272000000
0!
#272500000
1?
1!
b1001 /
0-
sA_LATCH_&_ENABLE/8 9
b0 8
#273000000
0!
#273500000
0?
1!
b1010 /
sA_READ/9 9
b11 8
#274000000
0!
#274500000
1!
b1011 /
1A
sA_RELEASE/10 9
b111 8
#275000000
0!
#275500000
1!
b0 /
1-
0A
sFIFO_1/11 9
b100 8
#276000000
0!
#276500000
1!
b1 /
sFIFO_2/12 9
b101 8
00
#277000000
0!
#277500000
b10 /
1.
sWAIT/1 9
b1000 8
02
1!
1;
1:
1B
11
#278000000
0!
#278500000
b11 /
b1100000000000 #
0.
b0 4
sX_WRITE/2 9
b1100000000000 $
b110 D
b1 8
1!
0;
0:
0B
#279000000
0!
#279500000
1!
b100 /
1=
sX_LATCH/3 9
03
#280000000
0!
#280500000
0=
1!
b101 /
sX_RELEASE/4 9
#281000000
0!
#281500000
1!
b110 /
sY_WRITE/5 9
b10 8
#282000000
0!
#282500000
1>
1!
b111 /
sY_LATCH/6 9
10
#283000000
0!
#283500000
1!
b1000 /
sY_RELEASE/7 9
01
0>
12
#284000000
0!
#284500000
1?
1!
b1001 /
0-
sA_LATCH_&_ENABLE/8 9
b0 8
#285000000
0!
#285500000
0?
1!
b1010 /
sA_READ/9 9
b11 8
#286000000
0!
#286500000
1!
b1011 /
1A
sA_RELEASE/10 9
b111 8
#287000000
0!
#287500000
1!
b0 /
1-
0A
sFIFO_1/11 9
b100 8
#288000000
0!
#288500000
1!
b1 /
sFIFO_2/12 9
b101 8
00
#289000000
0!
#289500000
1!
b10 /
1.
1<
sWAIT/1 9
b0 8
11
02
#290000000
0!
#290500000
1!
b11 /
0.
b1 4
sX_WRITE/2 9
b1 8
0<
#291000000
0!
#291500000
1=
1!
b100 /
sX_LATCH/3 9
#292000000
0!
#292500000
0=
1!
b101 /
sX_RELEASE/4 9
#293000000
0!
#293500000
1!
b110 /
sY_WRITE/5 9
b10 8
#294000000
0!
#294500000
1>
1!
b111 /
sY_LATCH/6 9
10
#295000000
0!
#295500000
1!
b1000 /
sY_RELEASE/7 9
01
0>
12
#296000000
0!
#296500000
1?
1!
b1001 /
0-
sA_LATCH_&_ENABLE/8 9
b0 8
#297000000
0!
#297500000
0?
1!
b1010 /
sA_READ/9 9
b11 8
#298000000
0!
#298500000
1!
b1011 /
1A
sA_RELEASE/10 9
b111 8
#299000000
0!
#299500000
1!
b0 /
1-
0A
sFIFO_1/11 9
b100 8
#300000000
0!
#300500000
1!
b1 /
sFIFO_2/12 9
b101 8
00
#301000000
0!
#301500000
1!
b10 /
1.
1<
sWAIT/1 9
b0 8
11
02
#302000000
0!
#302500000
1!
b11 /
0.
b10 4
sX_WRITE/2 9
b1 8
0<
#303000000
0!
#303500000
1=
1!
b100 /
sX_LATCH/3 9
#304000000
0!
#304500000
0=
1!
b101 /
sX_RELEASE/4 9
#305000000
0!
#305500000
1!
b110 /
sY_WRITE/5 9
b10 8
#306000000
0!
#306500000
1>
1!
b111 /
sY_LATCH/6 9
10
#307000000
0!
#307500000
1!
b1000 /
sY_RELEASE/7 9
01
0>
12
#308000000
0!
#308500000
1?
1!
b1001 /
0-
sA_LATCH_&_ENABLE/8 9
b0 8
#309000000
0!
#309500000
0?
1!
b1010 /
sA_READ/9 9
b11 8
#310000000
0!
#310500000
1!
b1011 /
1A
sA_RELEASE/10 9
b111 8
#311000000
0!
#311500000
1!
b0 /
1-
0A
sFIFO_1/11 9
b100 8
#312000000
0!
#312500000
1!
b1 /
sFIFO_2/12 9
b101 8
00
#313000000
0!
#313500000
1!
b10 /
1.
1<
sWAIT/1 9
b0 8
11
02
#314000000
0!
#314500000
1!
b11 /
0.
b11 4
sX_WRITE/2 9
b1 8
0<
#315000000
0!
#315500000
1!
b100 /
1=
sX_LATCH/3 9
13
#316000000
0!
#316500000
0=
1!
b101 /
sX_RELEASE/4 9
