scan_sim_average.vcd
$comment Generated by Amaranth $end
$date 2023-07-11 15:09:31.388340 $end
$timescale 1 ps $end
$scope module bench $end
$scope module top $end
$var wire 1 ! clk $end
$var wire 1 " rst $end
$var wire 1 # s $end
$var wire 14 $ in_pixel $end
$upscope $end
$upscope $end
$enddefinitions $end
#0
$dumpvars
0!
0"
0#
b0 $
$end
#500000
1!
1#
b10011011 $
#1000000
0!
#1500000
1!
b10011110 $
#2000000
0!
#2500000
1!
b10011011 $
#3000000
0!
#3500000
1!
b10011110 $
#4000000
0!
#4500000
1!
b10010111 $
#5000000
0!
#5500000
1!
b10011010 $
#6000000
0!
#6500000
1!
b10011100 $
#7000000
0!
#7500000
1!
#8000000
0!
#8500000
1!
b10011000 $
#9000000
0!
#9500000
1!
b10011110 $
#10000000
0!
#10500000
1!
b10010111 $
#11000000
0!
#11500000
1!
b10010110 $
#12000000
0!
#12500000
1!
b10011010 $
#13000000
0!
#13500000
1!
#14000000
0!
#14500000
1!
b10010101 $
#15000000
0!
#15500000
1!
b10011001 $
#16000000
0!
#16500000
1!
b10010100 $
#17000000
0!
#17500000
1!
b10011010 $
#18000000
0!
#18500000
1!
b10010100 $
#19000000
0!
#19500000
1!
#20000000
0!
#20500000
1!
b10011100 $
#21000000
0!
#21500000
1!
b10010110 $
#22000000
0!
#22500000
1!
b10011101 $
#23000000
0!
#23500000
1!
b10010111 $
#24000000
0!
#24500000
1!
b10011101 $
#25000000
0!
#25500000
1!
b10010110 $
#26000000
0!
#26500000
1!
b10011101 $
#27000000
0!
#27500000
1!
b10011011 $
#28000000
0!
#28500000
1!
b10011100 $
#29000000
0!
#29500000
1!
b10010110 $
#30000000
0!
#30500000
1!
b10011011 $
#31000000
0!
#31500000
1!
b10010101 $
#32000000
0!
#32500000
1!
b10010111 $
#33000000
0!
#33500000
1!
b10010100 $
#34000000
0!
#34500000
1!
b10010011 $
#35000000
0!
#35500000
1!
b10011001 $
#36000000
0!
#36500000
1!
b10010100 $
#37000000
0!
#37500000
1!
b10010101 $
#38000000
0!
#38500000
1!
b10011000 $
#39000000
0!
#39500000
1!
b10010110 $
#40000000
0!
#40500000
1!
b10011001 $
#41000000
0!
#41500000
1!
b10011101 $
#42000000
0!
#42500000
1!
#43000000
0!
#43500000
1!
b10011010 $
#44000000
0!
#44500000
1!
#45000000
0!
#45500000
1!
b10011100 $
#46000000
0!
#46500000
1!
#47000000
0!
#47500000
1!
b10011110 $
#48000000
0!
#48500000
1!
#49000000
0!
#49500000
1!
#50000000
0!
#50500000
1!
b10010111 $
#51000000
0!
#51500000
1!
b10011011 $
#52000000
0!
#52500000
1!
#53000000
0!
#53500000
1!
b10010101 $
#54000000
0!
#54500000
1!
b10011011 $
#55000000
0!
#55500000
1!
b10010101 $
#56000000
0!
#56500000
1!
b10010111 $
#57000000
0!
#57500000
1!
b10010101 $
#58000000
0!
#58500000
1!
b10011010 $
#59000000
0!
#59500000
1!
b10011100 $
#60000000
0!
#60500000
1!
b10011010 $
#61000000
0!
#61500000
1!
b10011001 $
#62000000
0!
#62500000
1!
b10011000 $
#63000000
0!
#63500000
1!
b10010111 $
#64000000
0!
#64500000
1!
b10011000 $
#65000000
0!
#65500000
1!
b10010011 $
#66000000
0!
#66500000
1!
b10010111 $
#67000000
0!
#67500000
1!
b10011001 $
#68000000
0!
#68500000
1!
b10010101 $
#69000000
0!
#69500000
1!
b10010110 $
#70000000
0!
#70500000
1!
b10010011 $
#71000000
0!
#71500000
1!
b10011011 $
#72000000
0!
#72500000
1!
b10010011 $
#73000000
0!
#73500000
1!
b10010110 $
#74000000
0!
#74500000
1!
b10010101 $
#75000000
0!
#75500000
1!
#76000000
0!
#76500000
1!
b10010100 $
#77000000
0!
#77500000
1!
b10011010 $
#78000000
0!
#78500000
1!
b10011011 $
#79000000
0!
#79500000
1!
b10010011 $
#80000000
0!
#80500000
1!
b10011100 $
#81000000
0!
#81500000
1!
b10011010 $
#82000000
0!
#82500000
1!
b10011011 $
#83000000
0!
#83500000
1!
b10010110 $
#84000000
0!
#84500000
1!
b10011110 $
#85000000
0!
#85500000
1!
b10011011 $
#86000000
0!
#86500000
1!
b10011010 $
#87000000
0!
#87500000
1!
b10011100 $
#88000000
0!
#88500000
1!
b10011010 $
#89000000
0!
#89500000
1!
b10011000 $
#90000000
0!
#90500000
1!
b10011001 $
#91000000
0!
#91500000
1!
b10011000 $
#92000000
0!
#92500000
1!
b10011001 $
#93000000
0!
#93500000
1!
#94000000
0!
#94500000
1!
b10010101 $
#95000000
0!
#95500000
1!
b10011100 $
#96000000
0!
#96500000
1!
b10011010 $
#97000000
0!
#97500000
1!
#98000000
0!
#98500000
1!
b10010110 $
#99000000
0!
#99500000
1!
b10011010 $
#100000000
0!
#100500000
1!
b10010101 $
#101000000
0!
#101500000
1!
b10011000 $
#102000000
0!
#102500000
1!
b10010011 $
#103000000
0!
#103500000
1!
b10010111 $
#104000000
0!
#104500000
1!
b10010101 $
#105000000
0!
#105500000
1!
b10011001 $
#106000000
0!
#106500000
1!
b10011010 $
#107000000
0!
#107500000
1!
#108000000
0!
#108500000
1!
b10010100 $
#109000000
0!
#109500000
1!
b10010110 $
#110000000
0!
#110500000
1!
b10011001 $
#111000000
0!
#111500000
1!
b10011100 $
#112000000
0!
#112500000
1!
b10010111 $
#113000000
0!
#113500000
1!
b10011110 $
#114000000
0!
#114500000
1!
b10011001 $
#115000000
0!
#115500000
1!
b10011011 $
#116000000
0!
#116500000
1!
b10011010 $
#117000000
0!
#117500000
1!
#118000000
0!
#118500000
1!
b10011000 $
#119000000
0!
#119500000
1!
b10011111 $
#120000000
0!
#120500000
1!
b10010111 $
#121000000
0!
#121500000
1!
b10011101 $
#122000000
0!
#122500000
1!
#123000000
0!
#123500000
1!
#124000000
0!
#124500000
1!
#125000000
0!
#125500000
1!
b10011001 $
#126000000
0!
#126500000
1!
b10010101 $
#127000000
0!
#127500000
1!
#128000000
0!
#128500000
1!
b10010111 $
#129000000
0!
#129500000
1!
b10011011 $
#130000000
0!
#130500000
1!
#131000000
0!
#131500000
1!
b10011010 $
#132000000
0!
#132500000
1!
b10011101 $
#133000000
0!
#133500000
1!
#134000000
0!
#134500000
1!
b10011010 $
#135000000
0!
#135500000
1!
b10010110 $
#136000000
0!
#136500000
1!
b10011000 $
#137000000
0!
#137500000
1!
b10011001 $
#138000000
0!
#138500000
1!
b10011100 $
#139000000
0!
#139500000
1!
b10011001 $
#140000000
0!
#140500000
1!
b10011000 $
#141000000
0!
#141500000
1!
b10010111 $
#142000000
0!
#142500000
1!
b10011011 $
#143000000
0!
#143500000
1!
#144000000
0!
#144500000
1!
b10011111 $
#145000000
0!
#145500000
1!
b10011110 $
#146000000
0!
#146500000
1!
b10011101 $
#147000000
0!
#147500000
1!
b10011100 $
#148000000
0!
#148500000
1!
b10011010 $
#149000000
0!
#149500000
1!
b10011011 $
#150000000
0!
#150500000
1!
b10010100 $
#151000000
0!
#151500000
1!
#152000000
0!
#152500000
1!
b10010111 $
#153000000
0!
#153500000
1!
b10011000 $
#154000000
0!
#154500000
1!
b10010001 $
#155000000
0!
#155500000
1!
b10010010 $
#156000000
0!
#156500000
1!
b10010000 $
#157000000
0!
#157500000
1!
b10010010 $
#158000000
0!
#158500000
1!
#159000000
0!
#159500000
1!
b10010101 $
#160000000
0!
#160500000
1!
#161000000
0!
#161500000
1!
b10010110 $
#162000000
0!
#162500000
1!
b10011010 $
#163000000
0!
#163500000
1!
#164000000
0!
#164500000
1!
b10011011 $
#165000000
0!
#165500000
1!
b10010101 $
#166000000
0!
#166500000
1!
b10011010 $
#167000000
0!
#167500000
1!
b10011011 $
#168000000
0!
#168500000
1!
b10010100 $
#169000000
0!
#169500000
1!
b10011000 $
#170000000
0!
#170500000
1!
b10011111 $
#171000000
0!
#171500000
1!
b10011100 $
#172000000
0!
#172500000
1!
b10011010 $
#173000000
0!
#173500000
1!
#174000000
0!
#174500000
1!
b10011001 $
#175000000
0!
#175500000
1!
b10100000 $
#176000000
0!
#176500000
1!
b10011001 $
#177000000
0!
#177500000
1!
b10011010 $
#178000000
0!
#178500000
1!
b10011110 $
#179000000
0!
#179500000
1!
b10011101 $
#180000000
0!
#180500000
1!
b10010110 $
#181000000
0!
#181500000
1!
b10010111 $
#182000000
0!
#182500000
1!
b10011011 $
#183000000
0!
#183500000
1!
#184000000
0!
#184500000
1!
b10010111 $
#185000000
0!
#185500000
1!
b10010110 $
#186000000
0!
#186500000
1!
b10010101 $
#187000000
0!
#187500000
1!
b10011001 $
#188000000
0!
#188500000
1!
#189000000
0!
#189500000
1!
b10011011 $
#190000000
0!
#190500000
1!
b10011110 $
#191000000
0!
#191500000
1!
b10011010 $
#192000000
0!
#192500000
1!
b10011000 $
#193000000
0!
#193500000
1!
b10011110 $
#194000000
0!
#194500000
1!
b10011100 $
#195000000
0!
#195500000
1!
b10011011 $
#196000000
0!
#196500000
1!
b10011100 $
#197000000
0!
#197500000
1!
b10010111 $
#198000000
0!
#198500000
1!
b10011110 $
#199000000
0!
#199500000
1!
b10011001 $
