scan_sim_bus.vcd
$comment Generated by Amaranth $end
$date 2023-06-18 17:32:51.501964 $end
$timescale 1 ps $end
$scope module bench $end
$scope module top $end
$var wire 1 ! clk $end
$var wire 1 " rst $end
$var wire 14 # x_data $end
$var wire 14 $ x_data$1 $end
$var wire 14 % y_data $end
$var wire 14 & y_data$1 $end
$var wire 1 ' line_sync $end
$var wire 1 ( line_sync$1 $end
$var wire 1 ) frame_sync $end
$var wire 1 * frame_sync$1 $end
$var wire 1 + x_enable $end
$var wire 1 , y_enable $end
$var wire 1 - a_enable $end
$var wire 1 . count_one $end
$var wire 4 / count $end
$var wire 1 0 count_six $end
$var wire 1 1 a_clock $end
$var wire 1 2 d_clock $end
$var wire 1 3 en $end
$var string 1 4 fsm_state $end
$var wire 8 5 bus_state $end
$var wire 1 6 x_latch $end
$var wire 1 7 y_latch $end
$var wire 1 8 a_latch $end
$var wire 1 9 fifo_ready $end
$scope module min_dwell_ctr $end
$var wire 1 ! clk $end
$var wire 1 " rst $end
$var wire 4 / count $end
$var wire 1 : ovf $end
$upscope $end
$scope module scan_gen $end
$var wire 14 $ x_data $end
$var wire 14 & y_data $end
$var wire 1 ( line_sync $end
$var wire 1 * frame_sync $end
$var wire 1 3 en $end
$var wire 1 ; en$1 $end
$var wire 1 < en$2 $end
$var wire 5 = count $end
$var wire 5 > count$1 $end
$var wire 1 ? ovf $end
$var wire 1 @ ovf$1 $end
$scope module x_ramp $end
$var wire 1 ! clk $end
$var wire 1 " rst $end
$var wire 1 ; en $end
$var wire 5 = count $end
$var wire 1 ? ovf $end
$upscope $end
$scope module y_ramp $end
$var wire 1 ! clk $end
$var wire 1 " rst $end
$var wire 1 < en $end
$var wire 5 > count $end
$var wire 1 @ ovf $end
$upscope $end
$upscope $end
$upscope $end
$upscope $end
$enddefinitions $end
#0
$dumpvars
0!
0"
b0 #
b0 $
b0 %
b0 &
0'
0(
0)
0*
0+
0,
1-
0.
b0 /
00
01
02
03
sWAIT/0 4
b0 5
06
07
08
09
0:
0;
0<
b0 =
b0 >
0?
0@
$end
#500000
b1 /
11
19
1!
#1000000
0!
#1500000
b10 /
1!
1.
1;
13
#2000000
0!
#2500000
b10000000000 $
b1 =
sX_WRITE/1 4
b1 5
b10000000000 #
0.
03
b11 /
0;
1!
#3000000
0!
#3500000
b100 /
16
1!
sX_LATCH/2 4
#4000000
0!
#4500000
b101 /
06
1!
sX_RELEASE/3 4
#5000000
0!
#5500000
b110 /
b10 5
1!
sY_WRITE/4 4
#6000000
0!
#6500000
b111 /
1!
sY_LATCH/5 4
10
17
#7000000
0!
#7500000
b1000 /
07
1!
sY_RELEASE/6 4
01
12
#8000000
0!
#8500000
b1001 /
1!
sA_LATCH_&_ENABLE/7 4
0-
b0 5
18
#9000000
0!
#9500000
b1010 /
1!
sA_READ/8 4
b11 5
08
#10000000
0!
#10500000
b1011 /
1!
sA_RELEASE/9 4
b0 5
1:
#11000000
0!
#11500000
b0 /
1!
sFIFO_wait_1/10 4
1-
b110 5
0:
#12000000
0!
#12500000
b1 /
1!
sFIFO_1/11 4
b100 5
00
#13000000
0!
#13500000
b10 /
1!
sFIFO_wait_2/12 4
b110 5
11
1.
02
#14000000
0!
#14500000
b11 /
1!
sFIFO_2/13 4
b101 5
0.
#15000000
0!
#15500000
b100 /
b0 5
1!
sWAIT/0 4
#16000000
0!
#16500000
b101 /
1!
#17000000
0!
#17500000
b110 /
1!
#18000000
0!
#18500000
b111 /
1!
10
#19000000
0!
#19500000
b1000 /
01
1!
12
#20000000
0!
#20500000
b1001 /
1!
#21000000
0!
#21500000
b1010 /
1!
#22000000
0!
#22500000
b1011 /
1!
1:
#23000000
0!
#23500000
b0 /
1!
0:
#24000000
0!
#24500000
b1 /
1!
00
#25000000
0!
#25500000
b10 /
1;
1!
11
1.
02
13
#26000000
0!
#26500000
b100000000000 $
b10 =
sX_WRITE/1 4
b1 5
b100000000000 #
0.
03
b11 /
0;
1!
#27000000
0!
#27500000
b100 /
16
1!
sX_LATCH/2 4
#28000000
0!
#28500000
b101 /
06
1!
sX_RELEASE/3 4
#29000000
0!
#29500000
b110 /
b10 5
1!
sY_WRITE/4 4
#30000000
0!
#30500000
b111 /
1!
sY_LATCH/5 4
10
17
#31000000
0!
#31500000
b1000 /
07
1!
sY_RELEASE/6 4
01
12
#32000000
0!
#32500000
b1001 /
1!
sA_LATCH_&_ENABLE/7 4
0-
b0 5
18
#33000000
0!
#33500000
b1010 /
1!
sA_READ/8 4
b11 5
08
#34000000
0!
#34500000
b1011 /
1!
sA_RELEASE/9 4
b0 5
1:
#35000000
0!
#35500000
b0 /
1!
sFIFO_wait_1/10 4
1-
b110 5
0:
#36000000
0!
#36500000
b1 /
1!
sFIFO_1/11 4
b100 5
00
#37000000
0!
#37500000
b10 /
1!
sFIFO_wait_2/12 4
b110 5
11
1.
02
#38000000
0!
#38500000
b11 /
1!
sFIFO_2/13 4
b101 5
0.
#39000000
0!
#39500000
b100 /
b0 5
1!
sWAIT/0 4
#40000000
0!
#40500000
b101 /
1!
#41000000
0!
#41500000
b110 /
1!
#42000000
0!
#42500000
b111 /
1!
10
#43000000
0!
#43500000
b1000 /
01
1!
12
#44000000
0!
#44500000
b1001 /
1!
#45000000
0!
#45500000
b1010 /
1!
#46000000
0!
#46500000
b1011 /
1!
1:
#47000000
0!
#47500000
b0 /
1!
0:
#48000000
0!
#48500000
b1 /
1!
00
#49000000
0!
#49500000
b10 /
1;
1!
11
1.
02
13
#50000000
0!
#50500000
b110000000000 $
b11 =
sX_WRITE/1 4
b1 5
b110000000000 #
0.
03
b11 /
0;
1!
#51000000
0!
#51500000
b100 /
16
1!
sX_LATCH/2 4
#52000000
0!
#52500000
b101 /
06
1!
sX_RELEASE/3 4
#53000000
0!
#53500000
b110 /
b10 5
1!
sY_WRITE/4 4
#54000000
0!
#54500000
b111 /
1!
sY_LATCH/5 4
10
17
#55000000
0!
#55500000
b1000 /
07
1!
sY_RELEASE/6 4
01
12
#56000000
0!
#56500000
b1001 /
1!
sA_LATCH_&_ENABLE/7 4
0-
b0 5
18
#57000000
0!
#57500000
b1010 /
1!
sA_READ/8 4
b11 5
08
#58000000
0!
#58500000
b1011 /
1!
sA_RELEASE/9 4
b0 5
1:
#59000000
0!
#59500000
b0 /
1!
sFIFO_wait_1/10 4
1-
b110 5
0:
#60000000
0!
#60500000
b1 /
1!
sFIFO_1/11 4
b100 5
00
#61000000
0!
#61500000
b10 /
1!
sFIFO_wait_2/12 4
b110 5
11
1.
02
#62000000
0!
#62500000
b11 /
1!
sFIFO_2/13 4
b101 5
0.
#63000000
0!
#63500000
b100 /
b0 5
1!
sWAIT/0 4
#64000000
0!
#64500000
b101 /
1!
#65000000
0!
#65500000
b110 /
1!
#66000000
0!
#66500000
b111 /
1!
10
#67000000
0!
#67500000
b1000 /
01
1!
12
#68000000
0!
#68500000
b1001 /
1!
#69000000
0!
#69500000
b1010 /
1!
#70000000
0!
#70500000
b1011 /
1!
1:
#71000000
0!
#71500000
b0 /
1!
0:
#72000000
0!
#72500000
b1 /
1!
00
#73000000
0!
#73500000
b10 /
1;
1!
11
1.
02
13
#74000000
0!
#74500000
b1000000000000 $
b100 =
sX_WRITE/1 4
b1 5
b1000000000000 #
0.
03
b11 /
0;
1!
#75000000
0!
#75500000
b100 /
16
1!
sX_LATCH/2 4
#76000000
0!
#76500000
b101 /
06
1!
sX_RELEASE/3 4
#77000000
0!
#77500000
b110 /
b10 5
1!
sY_WRITE/4 4
#78000000
0!
#78500000
b111 /
1!
sY_LATCH/5 4
10
17
#79000000
0!
#79500000
b1000 /
07
1!
sY_RELEASE/6 4
01
12
#80000000
0!
#80500000
b1001 /
1!
sA_LATCH_&_ENABLE/7 4
0-
b0 5
18
#81000000
0!
#81500000
b1010 /
1!
sA_READ/8 4
b11 5
08
#82000000
0!
#82500000
b1011 /
1!
sA_RELEASE/9 4
b0 5
1:
#83000000
0!
#83500000
b0 /
1!
sFIFO_wait_1/10 4
1-
b110 5
0:
#84000000
0!
#84500000
b1 /
1!
sFIFO_1/11 4
b100 5
00
#85000000
0!
#85500000
b10 /
1!
sFIFO_wait_2/12 4
b110 5
11
1.
02
#86000000
0!
#86500000
b11 /
1!
sFIFO_2/13 4
b101 5
0.
#87000000
0!
#87500000
b100 /
b0 5
1!
sWAIT/0 4
#88000000
0!
#88500000
b101 /
1!
#89000000
0!
#89500000
b110 /
1!
#90000000
0!
#90500000
b111 /
1!
10
#91000000
0!
#91500000
b1000 /
01
1!
12
#92000000
0!
#92500000
b1001 /
1!
#93000000
0!
#93500000
b1010 /
1!
#94000000
0!
#94500000
b1011 /
1!
1:
#95000000
0!
#95500000
b0 /
1!
0:
#96000000
0!
#96500000
b1 /
1!
00
#97000000
0!
#97500000
b10 /
1;
1!
11
1.
02
13
#98000000
0!
#98500000
b1010000000000 $
b101 =
sX_WRITE/1 4
b1 5
b1010000000000 #
0.
03
b11 /
0;
1!
#99000000
0!
#99500000
b100 /
16
1!
sX_LATCH/2 4
#100000000
0!
#100500000
b101 /
06
1!
sX_RELEASE/3 4
#101000000
0!
#101500000
b110 /
b10 5
1!
sY_WRITE/4 4
#102000000
0!
#102500000
b111 /
1!
sY_LATCH/5 4
10
17
#103000000
0!
#103500000
b1000 /
07
1!
sY_RELEASE/6 4
01
12
#104000000
0!
#104500000
b1001 /
1!
sA_LATCH_&_ENABLE/7 4
0-
b0 5
18
#105000000
0!
#105500000
b1010 /
1!
sA_READ/8 4
b11 5
08
#106000000
0!
#106500000
b1011 /
1!
sA_RELEASE/9 4
b0 5
1:
#107000000
0!
#107500000
b0 /
1!
sFIFO_wait_1/10 4
1-
b110 5
0:
#108000000
0!
#108500000
b1 /
1!
sFIFO_1/11 4
b100 5
00
#109000000
0!
#109500000
b10 /
1!
sFIFO_wait_2/12 4
b110 5
11
1.
02
#110000000
0!
#110500000
b11 /
1!
sFIFO_2/13 4
b101 5
0.
#111000000
0!
#111500000
b100 /
b0 5
1!
sWAIT/0 4
#112000000
0!
#112500000
b101 /
1!
#113000000
0!
#113500000
b110 /
1!
#114000000
0!
#114500000
b111 /
1!
10
#115000000
0!
#115500000
b1000 /
01
1!
12
#116000000
0!
#116500000
b1001 /
1!
#117000000
0!
#117500000
b1010 /
1!
#118000000
0!
#118500000
b1011 /
1!
1:
#119000000
0!
#119500000
b0 /
1!
0:
#120000000
0!
#120500000
b1 /
1!
00
#121000000
0!
#121500000
b10 /
1;
1!
11
1.
02
13
#122000000
0!
#122500000
b1100000000000 $
b110 =
sX_WRITE/1 4
b1 5
b1100000000000 #
0.
03
b11 /
0;
1!
#123000000
0!
#123500000
b100 /
16
1!
sX_LATCH/2 4
#124000000
0!
#124500000
b101 /
06
1!
sX_RELEASE/3 4
#125000000
0!
#125500000
b110 /
b10 5
1!
sY_WRITE/4 4
#126000000
0!
#126500000
b111 /
1!
sY_LATCH/5 4
10
17
#127000000
0!
#127500000
b1000 /
07
1!
sY_RELEASE/6 4
01
12
#128000000
0!
#128500000
b1001 /
1!
sA_LATCH_&_ENABLE/7 4
0-
b0 5
18
#129000000
0!
#129500000
b1010 /
1!
sA_READ/8 4
b11 5
08
#130000000
0!
#130500000
b1011 /
1!
sA_RELEASE/9 4
b0 5
1:
#131000000
0!
#131500000
b0 /
1!
sFIFO_wait_1/10 4
1-
b110 5
0:
#132000000
0!
#132500000
b1 /
1!
sFIFO_1/11 4
b100 5
00
#133000000
0!
#133500000
b10 /
1!
sFIFO_wait_2/12 4
b110 5
11
1.
02
#134000000
0!
#134500000
b11 /
1!
sFIFO_2/13 4
b101 5
0.
#135000000
0!
#135500000
b100 /
b0 5
1!
sWAIT/0 4
#136000000
0!
#136500000
b101 /
1!
#137000000
0!
#137500000
b110 /
1!
#138000000
0!
#138500000
b111 /
1!
10
#139000000
0!
#139500000
b1000 /
01
1!
12
#140000000
0!
#140500000
b1001 /
1!
#141000000
0!
#141500000
b1010 /
1!
#142000000
0!
#142500000
b1011 /
1!
1:
#143000000
0!
#143500000
b0 /
1!
0:
#144000000
0!
#144500000
b1 /
1!
00
#145000000
0!
#145500000
b10 /
1;
1!
11
1.
02
13
#146000000
0!
#146500000
b1110000000000 $
b111 =
sX_WRITE/1 4
b1 5
b1110000000000 #
0.
03
b11 /
0;
1!
#147000000
0!
#147500000
b100 /
16
1!
sX_LATCH/2 4
#148000000
0!
#148500000
b101 /
06
1!
sX_RELEASE/3 4
#149000000
0!
#149500000
b110 /
b10 5
1!
sY_WRITE/4 4
#150000000
0!
#150500000
b111 /
1!
sY_LATCH/5 4
10
17
#151000000
0!
#151500000
b1000 /
07
1!
sY_RELEASE/6 4
01
12
#152000000
0!
#152500000
b1001 /
1!
sA_LATCH_&_ENABLE/7 4
0-
b0 5
18
#153000000
0!
#153500000
b1010 /
1!
sA_READ/8 4
b11 5
08
#154000000
0!
#154500000
b1011 /
1!
sA_RELEASE/9 4
b0 5
1:
#155000000
0!
#155500000
b0 /
1!
sFIFO_wait_1/10 4
1-
b110 5
0:
#156000000
0!
#156500000
b1 /
1!
sFIFO_1/11 4
b100 5
00
#157000000
0!
#157500000
b10 /
1!
sFIFO_wait_2/12 4
b110 5
11
1.
02
#158000000
0!
#158500000
b11 /
1!
sFIFO_2/13 4
b101 5
0.
#159000000
0!
#159500000
b100 /
b0 5
1!
sWAIT/0 4
#160000000
0!
#160500000
b101 /
1!
#161000000
0!
#161500000
b110 /
1!
#162000000
0!
#162500000
b111 /
1!
10
#163000000
0!
#163500000
b1000 /
01
1!
12
#164000000
0!
#164500000
b1001 /
1!
#165000000
0!
#165500000
b1010 /
1!
#166000000
0!
#166500000
b1011 /
1!
1:
#167000000
0!
#167500000
b0 /
1!
0:
#168000000
0!
#168500000
b1 /
1!
00
#169000000
0!
#169500000
b10 /
1;
1!
11
1.
02
13
#170000000
0!
#170500000
b10000000000000 $
b1000 =
sX_WRITE/1 4
b1 5
b10000000000000 #
0.
03
b11 /
0;
1!
#171000000
0!
#171500000
b100 /
16
1!
sX_LATCH/2 4
#172000000
0!
#172500000
b101 /
06
1!
sX_RELEASE/3 4
#173000000
0!
#173500000
b110 /
b10 5
1!
sY_WRITE/4 4
#174000000
0!
#174500000
b111 /
1!
sY_LATCH/5 4
10
17
#175000000
0!
#175500000
b1000 /
07
1!
sY_RELEASE/6 4
01
12
#176000000
0!
#176500000
b1001 /
1!
sA_LATCH_&_ENABLE/7 4
0-
b0 5
18
#177000000
0!
#177500000
b1010 /
1!
sA_READ/8 4
b11 5
08
#178000000
0!
#178500000
b1011 /
1!
sA_RELEASE/9 4
b0 5
1:
#179000000
0!
#179500000
b0 /
1!
sFIFO_wait_1/10 4
1-
b110 5
0:
#180000000
0!
#180500000
b1 /
1!
sFIFO_1/11 4
b100 5
00
#181000000
0!
#181500000
b10 /
1!
sFIFO_wait_2/12 4
b110 5
11
1.
02
#182000000
0!
#182500000
b11 /
1!
sFIFO_2/13 4
b101 5
0.
#183000000
0!
#183500000
b100 /
b0 5
1!
sWAIT/0 4
#184000000
0!
#184500000
b101 /
1!
#185000000
0!
#185500000
b110 /
1!
#186000000
0!
#186500000
b111 /
1!
10
#187000000
0!
#187500000
b1000 /
01
1!
12
#188000000
0!
#188500000
b1001 /
1!
#189000000
0!
#189500000
b1010 /
1!
#190000000
0!
#190500000
b1011 /
1!
1:
#191000000
0!
#191500000
b0 /
1!
0:
#192000000
0!
#192500000
b1 /
1!
00
#193000000
0!
#193500000
b10 /
1;
1!
11
1.
02
13
#194000000
0!
#194500000
b10010000000000 $
b1001 =
sX_WRITE/1 4
b1 5
b10010000000000 #
0.
03
b11 /
0;
1!
#195000000
0!
#195500000
b100 /
16
1!
sX_LATCH/2 4
#196000000
0!
#196500000
b101 /
06
1!
sX_RELEASE/3 4
#197000000
0!
#197500000
b110 /
b10 5
1!
sY_WRITE/4 4
#198000000
0!
#198500000
b111 /
1!
sY_LATCH/5 4
10
17
#199000000
0!
#199500000
b1000 /
07
1!
sY_RELEASE/6 4
01
12
#200000000
0!
#200500000
b1001 /
1!
sA_LATCH_&_ENABLE/7 4
0-
b0 5
18
#201000000
0!
#201500000
b1010 /
1!
sA_READ/8 4
b11 5
08
#202000000
0!
#202500000
b1011 /
1!
sA_RELEASE/9 4
b0 5
1:
#203000000
0!
#203500000
b0 /
1!
sFIFO_wait_1/10 4
1-
b110 5
0:
#204000000
0!
#204500000
b1 /
1!
sFIFO_1/11 4
b100 5
00
#205000000
0!
#205500000
b10 /
1!
sFIFO_wait_2/12 4
b110 5
11
1.
02
#206000000
0!
#206500000
b11 /
1!
sFIFO_2/13 4
b101 5
0.
#207000000
0!
#207500000
b100 /
b0 5
1!
sWAIT/0 4
#208000000
0!
#208500000
b101 /
1!
#209000000
0!
#209500000
b110 /
1!
#210000000
0!
#210500000
b111 /
1!
10
#211000000
0!
#211500000
b1000 /
01
1!
12
#212000000
0!
#212500000
b1001 /
1!
#213000000
0!
#213500000
b1010 /
1!
#214000000
0!
#214500000
b1011 /
1!
1:
#215000000
0!
#215500000
b0 /
1!
0:
#216000000
0!
#216500000
b1 /
1!
00
#217000000
0!
#217500000
b10 /
1;
1!
11
1.
02
13
#218000000
0!
#218500000
b10100000000000 $
b1010 =
sX_WRITE/1 4
b1 5
b10100000000000 #
0.
03
b11 /
0;
1!
#219000000
0!
#219500000
b100 /
16
1!
sX_LATCH/2 4
#220000000
0!
#220500000
b101 /
06
1!
sX_RELEASE/3 4
#221000000
0!
#221500000
b110 /
b10 5
1!
sY_WRITE/4 4
#222000000
0!
#222500000
b111 /
1!
sY_LATCH/5 4
10
17
#223000000
0!
#223500000
b1000 /
07
1!
sY_RELEASE/6 4
01
12
#224000000
0!
#224500000
b1001 /
1!
sA_LATCH_&_ENABLE/7 4
0-
b0 5
18
#225000000
0!
#225500000
b1010 /
1!
sA_READ/8 4
b11 5
08
#226000000
0!
#226500000
b1011 /
1!
sA_RELEASE/9 4
b0 5
1:
#227000000
0!
#227500000
b0 /
1!
sFIFO_wait_1/10 4
1-
b110 5
0:
#228000000
0!
#228500000
b1 /
1!
sFIFO_1/11 4
b100 5
00
#229000000
0!
#229500000
b10 /
1!
sFIFO_wait_2/12 4
b110 5
11
1.
02
#230000000
0!
#230500000
b11 /
1!
sFIFO_2/13 4
b101 5
0.
#231000000
0!
#231500000
b100 /
b0 5
1!
sWAIT/0 4
#232000000
0!
#232500000
b101 /
1!
#233000000
0!
#233500000
b110 /
1!
#234000000
0!
#234500000
b111 /
1!
10
#235000000
0!
#235500000
b1000 /
01
1!
12
#236000000
0!
#236500000
b1001 /
1!
#237000000
0!
#237500000
b1010 /
1!
#238000000
0!
#238500000
b1011 /
1!
1:
#239000000
0!
#239500000
b0 /
1!
0:
#240000000
0!
#240500000
b1 /
1!
00
#241000000
0!
#241500000
b10 /
1;
1!
11
1.
02
13
#242000000
0!
#242500000
b10110000000000 $
b1011 =
sX_WRITE/1 4
b1 5
b10110000000000 #
0.
03
b11 /
0;
1!
#243000000
0!
#243500000
b100 /
16
1!
sX_LATCH/2 4
#244000000
0!
#244500000
b101 /
06
1!
sX_RELEASE/3 4
#245000000
0!
#245500000
b110 /
b10 5
1!
sY_WRITE/4 4
#246000000
0!
#246500000
b111 /
1!
sY_LATCH/5 4
10
17
#247000000
0!
#247500000
b1000 /
07
1!
sY_RELEASE/6 4
01
12
#248000000
0!
#248500000
b1001 /
1!
sA_LATCH_&_ENABLE/7 4
0-
b0 5
18
#249000000
0!
#249500000
b1010 /
1!
sA_READ/8 4
b11 5
08
#250000000
0!
#250500000
b1011 /
1!
sA_RELEASE/9 4
b0 5
1:
#251000000
0!
#251500000
b0 /
1!
sFIFO_wait_1/10 4
1-
b110 5
0:
#252000000
0!
#252500000
b1 /
1!
sFIFO_1/11 4
b100 5
00
#253000000
0!
#253500000
b10 /
1!
sFIFO_wait_2/12 4
b110 5
11
1.
02
#254000000
0!
#254500000
b11 /
1!
sFIFO_2/13 4
b101 5
0.
#255000000
0!
#255500000
b100 /
b0 5
1!
sWAIT/0 4
#256000000
0!
#256500000
b101 /
1!
#257000000
0!
#257500000
b110 /
1!
#258000000
0!
#258500000
b111 /
1!
10
#259000000
0!
#259500000
b1000 /
01
1!
12
#260000000
0!
#260500000
b1001 /
1!
#261000000
0!
#261500000
b1010 /
1!
#262000000
0!
#262500000
b1011 /
1!
1:
#263000000
0!
#263500000
b0 /
1!
0:
#264000000
0!
#264500000
b1 /
1!
00
#265000000
0!
#265500000
b10 /
1;
1!
11
1.
02
13
#266000000
0!
#266500000
b11000000000000 $
b1100 =
sX_WRITE/1 4
b1 5
b11000000000000 #
0.
03
b11 /
0;
1!
#267000000
0!
#267500000
b100 /
16
1!
sX_LATCH/2 4
#268000000
0!
#268500000
b101 /
06
1!
sX_RELEASE/3 4
#269000000
0!
#269500000
b110 /
b10 5
1!
sY_WRITE/4 4
#270000000
0!
#270500000
b111 /
1!
sY_LATCH/5 4
10
17
#271000000
0!
#271500000
b1000 /
07
1!
sY_RELEASE/6 4
01
12
#272000000
0!
#272500000
b1001 /
1!
sA_LATCH_&_ENABLE/7 4
0-
b0 5
18
#273000000
0!
#273500000
b1010 /
1!
sA_READ/8 4
b11 5
08
#274000000
0!
#274500000
b1011 /
1!
sA_RELEASE/9 4
b0 5
1:
#275000000
0!
#275500000
b0 /
1!
sFIFO_wait_1/10 4
1-
b110 5
0:
#276000000
0!
#276500000
b1 /
1!
sFIFO_1/11 4
b100 5
00
#277000000
0!
#277500000
b10 /
1!
sFIFO_wait_2/12 4
b110 5
11
1.
02
#278000000
0!
#278500000
b11 /
1!
sFIFO_2/13 4
b101 5
0.
#279000000
0!
#279500000
b100 /
b0 5
1!
sWAIT/0 4
#280000000
0!
#280500000
b101 /
1!
#281000000
0!
#281500000
b110 /
1!
#282000000
0!
#282500000
b111 /
1!
10
#283000000
0!
#283500000
b1000 /
01
1!
12
#284000000
0!
#284500000
b1001 /
1!
#285000000
0!
#285500000
b1010 /
1!
#286000000
0!
#286500000
b1011 /
1!
1:
#287000000
0!
#287500000
b0 /
1!
0:
#288000000
0!
#288500000
b1 /
1!
00
#289000000
0!
#289500000
b10 /
1;
1!
11
1.
02
13
#290000000
0!
#290500000
b11010000000000 $
b1101 =
sX_WRITE/1 4
b1 5
b11010000000000 #
0.
03
b11 /
0;
1!
#291000000
0!
#291500000
b100 /
16
1!
sX_LATCH/2 4
#292000000
0!
#292500000
b101 /
06
1!
sX_RELEASE/3 4
#293000000
0!
#293500000
b110 /
b10 5
1!
sY_WRITE/4 4
#294000000
0!
#294500000
b111 /
1!
sY_LATCH/5 4
10
17
#295000000
0!
#295500000
b1000 /
07
1!
sY_RELEASE/6 4
01
12
#296000000
0!
#296500000
b1001 /
1!
sA_LATCH_&_ENABLE/7 4
0-
b0 5
18
#297000000
0!
#297500000
b1010 /
1!
sA_READ/8 4
b11 5
08
#298000000
0!
#298500000
b1011 /
1!
sA_RELEASE/9 4
b0 5
1:
#299000000
0!
#299500000
b0 /
1!
sFIFO_wait_1/10 4
1-
b110 5
0:
#300000000
0!
#300500000
b1 /
1!
sFIFO_1/11 4
b100 5
00
#301000000
0!
#301500000
b10 /
1!
sFIFO_wait_2/12 4
b110 5
11
1.
02
#302000000
0!
#302500000
b11 /
1!
sFIFO_2/13 4
b101 5
0.
#303000000
0!
#303500000
b100 /
b0 5
1!
sWAIT/0 4
#304000000
0!
#304500000
b101 /
1!
#305000000
0!
#305500000
b110 /
1!
#306000000
0!
#306500000
b111 /
1!
10
#307000000
0!
#307500000
b1000 /
01
1!
12
#308000000
0!
#308500000
b1001 /
1!
#309000000
0!
#309500000
b1010 /
1!
#310000000
0!
#310500000
b1011 /
1!
1:
#311000000
0!
#311500000
b0 /
1!
0:
#312000000
0!
#312500000
b1 /
1!
00
#313000000
0!
#313500000
b10 /
1;
1!
11
1.
02
13
#314000000
0!
#314500000
b11100000000000 $
b1110 =
sX_WRITE/1 4
b1 5
b11100000000000 #
0.
03
b11 /
0;
1!
#315000000
0!
#315500000
b100 /
16
1!
sX_LATCH/2 4
#316000000
0!
#316500000
b101 /
06
1!
sX_RELEASE/3 4
#317000000
0!
#317500000
b110 /
b10 5
1!
sY_WRITE/4 4
#318000000
0!
#318500000
b111 /
1!
sY_LATCH/5 4
10
17
#319000000
0!
#319500000
b1000 /
07
1!
sY_RELEASE/6 4
01
12
#320000000
0!
#320500000
b1001 /
1!
sA_LATCH_&_ENABLE/7 4
0-
b0 5
18
#321000000
0!
#321500000
b1010 /
1!
sA_READ/8 4
b11 5
08
#322000000
0!
#322500000
b1011 /
1!
sA_RELEASE/9 4
b0 5
1:
#323000000
0!
#323500000
b0 /
1!
sFIFO_wait_1/10 4
1-
b110 5
0:
#324000000
0!
#324500000
b1 /
1!
sFIFO_1/11 4
b100 5
00
#325000000
0!
#325500000
b10 /
1!
sFIFO_wait_2/12 4
b110 5
11
1.
02
#326000000
0!
#326500000
b11 /
1!
sFIFO_2/13 4
b101 5
0.
#327000000
0!
#327500000
b100 /
b0 5
1!
sWAIT/0 4
#328000000
0!
#328500000
b101 /
1!
#329000000
0!
#329500000
b110 /
1!
#330000000
0!
#330500000
b111 /
1!
10
#331000000
0!
#331500000
b1000 /
01
1!
12
#332000000
0!
#332500000
b1001 /
1!
#333000000
0!
#333500000
b1010 /
1!
#334000000
0!
#334500000
b1011 /
1!
1:
#335000000
0!
#335500000
b0 /
1!
0:
#336000000
0!
#336500000
b1 /
1!
00
#337000000
0!
#337500000
b10 /
1;
1!
11
1.
02
13
#338000000
0!
#338500000
b11110000000000 $
b1111 =
sX_WRITE/1 4
b1 5
b11110000000000 #
0.
03
b11 /
0;
1!
#339000000
0!
#339500000
b100 /
16
1!
sX_LATCH/2 4
#340000000
0!
#340500000
b101 /
06
1!
sX_RELEASE/3 4
#341000000
0!
#341500000
b110 /
b10 5
1!
sY_WRITE/4 4
#342000000
0!
#342500000
b111 /
1!
sY_LATCH/5 4
10
17
#343000000
0!
#343500000
b1000 /
07
1!
sY_RELEASE/6 4
01
12
#344000000
0!
#344500000
b1001 /
1!
sA_LATCH_&_ENABLE/7 4
0-
b0 5
18
#345000000
0!
#345500000
b1010 /
1!
sA_READ/8 4
b11 5
08
#346000000
0!
#346500000
b1011 /
1!
sA_RELEASE/9 4
b0 5
1:
#347000000
0!
#347500000
b0 /
1!
sFIFO_wait_1/10 4
1-
b110 5
0:
#348000000
0!
#348500000
b1 /
1!
sFIFO_1/11 4
b100 5
00
#349000000
0!
#349500000
b10 /
1!
sFIFO_wait_2/12 4
b110 5
11
1.
02
#350000000
0!
#350500000
b11 /
1!
sFIFO_2/13 4
b101 5
0.
#351000000
0!
#351500000
b100 /
b0 5
1!
sWAIT/0 4
#352000000
0!
#352500000
b101 /
1!
#353000000
0!
#353500000
b110 /
1!
#354000000
0!
#354500000
b111 /
1!
10
#355000000
0!
#355500000
b1000 /
01
1!
12
#356000000
0!
#356500000
b1001 /
1!
#357000000
0!
#357500000
b1010 /
1!
#358000000
0!
#358500000
b1011 /
1!
1:
#359000000
0!
#359500000
b0 /
1!
0:
#360000000
0!
#360500000
b1 /
1!
00
#361000000
0!
#361500000
b10 /
1;
1!
11
1.
02
13
#362000000
0!
#362500000
b0 $
b10000 =
1(
sX_WRITE/1 4
b1 5
b0 #
0.
03
b11 /
0;
1!
1?
1'
#363000000
0!
#363500000
b100 /
16
1!
sX_LATCH/2 4
#364000000
0!
#364500000
b101 /
06
1!
sX_RELEASE/3 4
#365000000
0!
#365500000
b110 /
b10 5
1!
sY_WRITE/4 4
#366000000
0!
#366500000
b111 /
1!
sY_LATCH/5 4
10
17
#367000000
0!
#367500000
b1000 /
07
1!
sY_RELEASE/6 4
01
12
#368000000
0!
#368500000
b1001 /
1!
sA_LATCH_&_ENABLE/7 4
0-
b0 5
18
#369000000
0!
#369500000
b1010 /
1!
sA_READ/8 4
b11 5
08
#370000000
0!
#370500000
b1011 /
1!
sA_RELEASE/9 4
b0 5
1:
#371000000
0!
#371500000
b0 /
1!
sFIFO_wait_1/10 4
1-
b110 5
0:
#372000000
0!
#372500000
b1 /
1!
sFIFO_1/11 4
b100 5
00
#373000000
0!
#373500000
b10 /
1!
sFIFO_wait_2/12 4
b110 5
11
1.
02
#374000000
0!
#374500000
b11 /
1!
sFIFO_2/13 4
b101 5
0.
#375000000
0!
#375500000
b100 /
b0 5
1!
sWAIT/0 4
#376000000
0!
#376500000
b101 /
1!
#377000000
0!
#377500000
b110 /
1!
#378000000
0!
#378500000
b111 /
1!
10
#379000000
0!
#379500000
b1000 /
01
1!
12
#380000000
0!
#380500000
b1001 /
1!
#381000000
0!
#381500000
b1010 /
1!
#382000000
0!
#382500000
b1011 /
1!
1:
#383000000
0!
#383500000
b0 /
1!
0:
#384000000
0!
#384500000
b1 /
1!
00
#385000000
0!
#385500000
b10 /
1<
1;
1!
11
1.
02
13
#386000000
0!
#386500000
b0 =
0(
b10000000000 %
sX_WRITE/1 4
b1 >
b1 5
b10000000000 &
0.
03
b11 /
0;
1!
0?
0<
0'
#387000000
0!
#387500000
b100 /
16
1!
sX_LATCH/2 4
#388000000
0!
#388500000
b101 /
06
1!
sX_RELEASE/3 4
#389000000
0!
#389500000
b110 /
b10 5
1!
sY_WRITE/4 4
#390000000
0!
#390500000
b111 /
1!
sY_LATCH/5 4
10
17
#391000000
0!
#391500000
b1000 /
07
1!
sY_RELEASE/6 4
01
12
#392000000
0!
#392500000
b1001 /
1!
sA_LATCH_&_ENABLE/7 4
0-
b0 5
18
#393000000
0!
#393500000
b1010 /
1!
sA_READ/8 4
b11 5
08
#394000000
0!
#394500000
b1011 /
1!
sA_RELEASE/9 4
b0 5
1:
#395000000
0!
