scan_sim_bus.vcd
$comment Generated by Amaranth $end
$date 2023-06-15 13:45:28.742099 $end
$timescale 1 ps $end
$scope module bench $end
$scope module top $end
$var wire 1 ! clk $end
$var wire 1 " rst $end
$var wire 14 # x_data $end
$var wire 14 $ x_data$1 $end
$var wire 14 % y_data $end
$var wire 14 & y_data$1 $end
$var wire 1 ' x_enable $end
$var wire 1 ( y_enable $end
$var wire 1 ) a_enable $end
$var wire 1 * count_one $end
$var wire 4 + count $end
$var wire 1 , count_six $end
$var wire 1 - a_clock $end
$var wire 1 . d_clock $end
$var wire 1 / en $end
$var string 1 0 fsm_state $end
$var wire 8 1 bus_state $end
$var wire 1 2 x_latch $end
$var wire 1 3 y_latch $end
$var wire 1 4 a_latch $end
$scope module min_dwell_ctr $end
$var wire 1 ! clk $end
$var wire 1 " rst $end
$var wire 4 + count $end
$var wire 1 5 ovf $end
$upscope $end
$scope module scan_gen $end
$var wire 14 $ x_data $end
$var wire 14 & y_data $end
$var wire 1 / en $end
$var wire 1 6 en$1 $end
$var wire 1 7 en$2 $end
$var wire 5 8 count $end
$var wire 5 9 count$1 $end
$var wire 1 : line_sync $end
$var wire 1 ; ovf $end
$var wire 1 < frame_sync $end
$var wire 1 = ovf$1 $end
$scope module x_ramp $end
$var wire 1 ! clk $end
$var wire 1 " rst $end
$var wire 1 6 en $end
$var wire 5 8 count $end
$var wire 1 ; ovf $end
$upscope $end
$scope module y_ramp $end
$var wire 1 ! clk $end
$var wire 1 " rst $end
$var wire 1 7 en $end
$var wire 5 9 count $end
$var wire 1 = ovf $end
$upscope $end
$upscope $end
$upscope $end
$upscope $end
$enddefinitions $end
#0
$dumpvars
0!
0"
b0 #
b0 $
b0 %
b0 &
0'
0(
1)
0*
b0 +
0,
0-
0.
0/
sWAIT/0 0
b0 1
02
03
04
05
06
07
b0 8
b0 9
0:
0;
0<
0=
$end
#500000
b1 +
1-
1!
#1000000
0!
#1500000
b10 +
1*
1!
16
1/
#2000000
0!
#2500000
b11 +
sX_WRITE/1 0
1!
b10000000000 #
b1 8
0*
b1 1
b10000000000 $
06
0/
#3000000
0!
#3500000
b100 +
sX_LATCH/2 0
12
1!
#4000000
0!
#4500000
b101 +
sX_RELEASE/3 0
02
1!
#5000000
0!
#5500000
b110 +
sY_WRITE/4 0
b10 1
1!
#6000000
0!
#6500000
b111 +
13
sY_LATCH/5 0
1,
1!
#7000000
0!
#7500000
b1000 +
1.
03
0-
sY_RELEASE/6 0
1!
#8000000
0!
#8500000
b1001 +
b0 1
sA_LATCH_&_ENABLE/7 0
14
0)
1!
#9000000
0!
#9500000
b1010 +
b11 1
sA_READ/8 0
04
1!
#10000000
0!
#10500000
b1011 +
b100 1
sFIFO_1/9 0
15
1)
1!
#11000000
0!
#11500000
b0 +
b0 1
sFIFO_2/10 0
05
1!
#12000000
0!
#12500000
b1 +
sWAIT/0 0
0,
1!
#13000000
0!
#13500000
b10 +
1*
0.
1/
1-
16
1!
#14000000
0!
#14500000
b11 +
sX_WRITE/1 0
1!
b100000000000 #
b10 8
0*
b1 1
b100000000000 $
06
0/
#15000000
0!
#15500000
b100 +
sX_LATCH/2 0
12
1!
#16000000
0!
#16500000
b101 +
sX_RELEASE/3 0
02
1!
#17000000
0!
#17500000
b110 +
sY_WRITE/4 0
b10 1
1!
#18000000
0!
#18500000
b111 +
13
sY_LATCH/5 0
1,
1!
#19000000
0!
#19500000
b1000 +
1.
03
0-
sY_RELEASE/6 0
1!
#20000000
0!
#20500000
b1001 +
b0 1
sA_LATCH_&_ENABLE/7 0
14
0)
1!
#21000000
0!
#21500000
b1010 +
b11 1
sA_READ/8 0
04
1!
#22000000
0!
#22500000
b1011 +
b100 1
sFIFO_1/9 0
15
1)
1!
#23000000
0!
#23500000
b0 +
b0 1
sFIFO_2/10 0
05
1!
#24000000
0!
#24500000
b1 +
sWAIT/0 0
0,
1!
#25000000
0!
#25500000
b10 +
1*
0.
1/
1-
16
1!
#26000000
0!
#26500000
b11 +
sX_WRITE/1 0
1!
b110000000000 #
b11 8
0*
b1 1
b110000000000 $
06
0/
#27000000
0!
#27500000
b100 +
sX_LATCH/2 0
12
1!
#28000000
0!
#28500000
b101 +
sX_RELEASE/3 0
02
1!
#29000000
0!
#29500000
b110 +
sY_WRITE/4 0
b10 1
1!
#30000000
0!
#30500000
b111 +
13
sY_LATCH/5 0
1,
1!
#31000000
0!
#31500000
b1000 +
1.
03
0-
sY_RELEASE/6 0
1!
#32000000
0!
#32500000
b1001 +
b0 1
sA_LATCH_&_ENABLE/7 0
14
0)
1!
#33000000
0!
#33500000
b1010 +
b11 1
sA_READ/8 0
04
1!
#34000000
0!
#34500000
b1011 +
b100 1
sFIFO_1/9 0
15
1)
1!
#35000000
0!
#35500000
b0 +
b0 1
sFIFO_2/10 0
05
1!
#36000000
0!
#36500000
b1 +
sWAIT/0 0
0,
1!
#37000000
0!
#37500000
b10 +
1*
0.
1/
1-
16
1!
#38000000
0!
#38500000
b11 +
sX_WRITE/1 0
1!
b1000000000000 #
b100 8
0*
b1 1
b1000000000000 $
06
0/
#39000000
0!
#39500000
b100 +
sX_LATCH/2 0
12
1!
#40000000
0!
#40500000
b101 +
sX_RELEASE/3 0
02
1!
#41000000
0!
#41500000
b110 +
sY_WRITE/4 0
b10 1
1!
#42000000
0!
#42500000
b111 +
13
sY_LATCH/5 0
1,
1!
#43000000
0!
#43500000
b1000 +
1.
03
0-
sY_RELEASE/6 0
1!
#44000000
0!
#44500000
b1001 +
b0 1
sA_LATCH_&_ENABLE/7 0
14
0)
1!
#45000000
0!
#45500000
b1010 +
b11 1
sA_READ/8 0
04
1!
#46000000
0!
#46500000
b1011 +
b100 1
sFIFO_1/9 0
15
1)
1!
#47000000
0!
#47500000
b0 +
b0 1
sFIFO_2/10 0
05
1!
#48000000
0!
#48500000
b1 +
sWAIT/0 0
0,
1!
#49000000
0!
#49500000
b10 +
1*
0.
1/
1-
16
1!
#50000000
0!
#50500000
b11 +
sX_WRITE/1 0
1!
b1010000000000 #
b101 8
0*
b1 1
b1010000000000 $
06
0/
#51000000
0!
#51500000
b100 +
sX_LATCH/2 0
12
1!
#52000000
0!
#52500000
b101 +
sX_RELEASE/3 0
02
1!
#53000000
0!
#53500000
b110 +
sY_WRITE/4 0
b10 1
1!
#54000000
0!
#54500000
b111 +
13
sY_LATCH/5 0
1,
1!
#55000000
0!
#55500000
b1000 +
1.
03
0-
sY_RELEASE/6 0
1!
#56000000
0!
#56500000
b1001 +
b0 1
sA_LATCH_&_ENABLE/7 0
14
0)
1!
#57000000
0!
#57500000
b1010 +
b11 1
sA_READ/8 0
04
1!
#58000000
0!
#58500000
b1011 +
b100 1
sFIFO_1/9 0
15
1)
1!
#59000000
0!
#59500000
b0 +
b0 1
sFIFO_2/10 0
05
1!
#60000000
0!
#60500000
b1 +
sWAIT/0 0
0,
1!
#61000000
0!
#61500000
b10 +
1*
0.
1/
1-
16
1!
#62000000
0!
#62500000
b11 +
sX_WRITE/1 0
1!
b1100000000000 #
b110 8
0*
b1 1
b1100000000000 $
06
0/
#63000000
0!
#63500000
b100 +
sX_LATCH/2 0
12
1!
#64000000
0!
#64500000
b101 +
sX_RELEASE/3 0
02
1!
#65000000
0!
#65500000
b110 +
sY_WRITE/4 0
b10 1
1!
#66000000
0!
#66500000
b111 +
13
sY_LATCH/5 0
1,
1!
#67000000
0!
#67500000
b1000 +
1.
03
0-
sY_RELEASE/6 0
1!
#68000000
0!
#68500000
b1001 +
b0 1
sA_LATCH_&_ENABLE/7 0
14
0)
1!
#69000000
0!
#69500000
b1010 +
b11 1
sA_READ/8 0
04
1!
#70000000
0!
#70500000
b1011 +
b100 1
sFIFO_1/9 0
15
1)
1!
#71000000
0!
#71500000
b0 +
b0 1
sFIFO_2/10 0
05
1!
#72000000
0!
#72500000
b1 +
sWAIT/0 0
0,
1!
#73000000
0!
#73500000
b10 +
1*
0.
1/
1-
16
1!
#74000000
0!
#74500000
b11 +
sX_WRITE/1 0
1!
b1110000000000 #
b111 8
0*
b1 1
b1110000000000 $
06
0/
#75000000
0!
#75500000
b100 +
sX_LATCH/2 0
12
1!
#76000000
0!
#76500000
b101 +
sX_RELEASE/3 0
02
1!
#77000000
0!
#77500000
b110 +
sY_WRITE/4 0
b10 1
1!
#78000000
0!
#78500000
b111 +
13
sY_LATCH/5 0
1,
1!
#79000000
0!
#79500000
b1000 +
1.
03
0-
sY_RELEASE/6 0
1!
#80000000
0!
#80500000
b1001 +
b0 1
sA_LATCH_&_ENABLE/7 0
14
0)
1!
#81000000
0!
#81500000
b1010 +
b11 1
sA_READ/8 0
04
1!
#82000000
0!
#82500000
b1011 +
b100 1
sFIFO_1/9 0
15
1)
1!
#83000000
0!
#83500000
b0 +
b0 1
sFIFO_2/10 0
05
1!
#84000000
0!
#84500000
b1 +
sWAIT/0 0
0,
1!
#85000000
0!
#85500000
b10 +
1*
0.
1/
1-
16
1!
#86000000
0!
#86500000
b11 +
sX_WRITE/1 0
1!
b10000000000000 #
b1000 8
0*
b1 1
b10000000000000 $
06
0/
#87000000
0!
#87500000
b100 +
sX_LATCH/2 0
12
1!
#88000000
0!
#88500000
b101 +
sX_RELEASE/3 0
02
1!
#89000000
0!
#89500000
b110 +
sY_WRITE/4 0
b10 1
1!
#90000000
0!
#90500000
b111 +
13
sY_LATCH/5 0
1,
1!
#91000000
0!
#91500000
b1000 +
1.
03
0-
sY_RELEASE/6 0
1!
#92000000
0!
#92500000
b1001 +
b0 1
sA_LATCH_&_ENABLE/7 0
14
0)
1!
#93000000
0!
#93500000
b1010 +
b11 1
sA_READ/8 0
04
1!
#94000000
0!
#94500000
b1011 +
b100 1
sFIFO_1/9 0
15
1)
1!
#95000000
0!
#95500000
b0 +
b0 1
sFIFO_2/10 0
05
1!
#96000000
0!
#96500000
b1 +
sWAIT/0 0
0,
1!
#97000000
0!
#97500000
b10 +
1*
0.
1/
1-
16
1!
#98000000
0!
#98500000
b11 +
sX_WRITE/1 0
1!
b10010000000000 #
b1001 8
0*
b1 1
b10010000000000 $
06
0/
#99000000
0!
#99500000
b100 +
sX_LATCH/2 0
12
1!
#100000000
0!
#100500000
b101 +
sX_RELEASE/3 0
02
1!
#101000000
0!
#101500000
b110 +
sY_WRITE/4 0
b10 1
1!
#102000000
0!
#102500000
b111 +
13
sY_LATCH/5 0
1,
1!
#103000000
0!
#103500000
b1000 +
1.
03
0-
sY_RELEASE/6 0
1!
#104000000
0!
#104500000
b1001 +
b0 1
sA_LATCH_&_ENABLE/7 0
14
0)
1!
#105000000
0!
#105500000
b1010 +
b11 1
sA_READ/8 0
04
1!
#106000000
0!
#106500000
b1011 +
b100 1
sFIFO_1/9 0
15
1)
1!
#107000000
0!
#107500000
b0 +
b0 1
sFIFO_2/10 0
05
1!
#108000000
0!
#108500000
b1 +
sWAIT/0 0
0,
1!
#109000000
0!
#109500000
b10 +
1*
0.
1/
1-
16
1!
#110000000
0!
#110500000
b11 +
sX_WRITE/1 0
1!
b10100000000000 #
b1010 8
0*
b1 1
b10100000000000 $
06
0/
#111000000
0!
#111500000
b100 +
sX_LATCH/2 0
12
1!
#112000000
0!
#112500000
b101 +
sX_RELEASE/3 0
02
1!
#113000000
0!
#113500000
b110 +
sY_WRITE/4 0
b10 1
1!
#114000000
0!
#114500000
b111 +
13
sY_LATCH/5 0
1,
1!
#115000000
0!
#115500000
b1000 +
1.
03
0-
sY_RELEASE/6 0
1!
#116000000
0!
#116500000
b1001 +
b0 1
sA_LATCH_&_ENABLE/7 0
14
0)
1!
#117000000
0!
#117500000
b1010 +
b11 1
sA_READ/8 0
04
1!
#118000000
0!
#118500000
b1011 +
b100 1
sFIFO_1/9 0
15
1)
1!
#119000000
0!
#119500000
b0 +
b0 1
sFIFO_2/10 0
05
1!
#120000000
0!
#120500000
b1 +
sWAIT/0 0
0,
1!
#121000000
0!
#121500000
b10 +
1*
0.
1/
1-
16
1!
#122000000
0!
#122500000
b11 +
sX_WRITE/1 0
1!
b10110000000000 #
b1011 8
0*
b1 1
b10110000000000 $
06
0/
#123000000
0!
#123500000
b100 +
sX_LATCH/2 0
12
1!
#124000000
0!
#124500000
b101 +
sX_RELEASE/3 0
02
1!
#125000000
0!
#125500000
b110 +
sY_WRITE/4 0
b10 1
1!
#126000000
0!
#126500000
b111 +
13
sY_LATCH/5 0
1,
1!
#127000000
0!
#127500000
b1000 +
1.
03
0-
sY_RELEASE/6 0
1!
#128000000
0!
#128500000
b1001 +
b0 1
sA_LATCH_&_ENABLE/7 0
14
0)
1!
#129000000
0!
#129500000
b1010 +
b11 1
sA_READ/8 0
04
1!
#130000000
0!
#130500000
b1011 +
b100 1
sFIFO_1/9 0
15
1)
1!
#131000000
0!
#131500000
b0 +
b0 1
sFIFO_2/10 0
05
1!
#132000000
0!
#132500000
b1 +
sWAIT/0 0
0,
1!
#133000000
0!
#133500000
b10 +
1*
0.
1/
1-
16
1!
#134000000
0!
#134500000
b11 +
sX_WRITE/1 0
1!
b11000000000000 #
b1100 8
0*
b1 1
b11000000000000 $
06
0/
#135000000
0!
#135500000
b100 +
sX_LATCH/2 0
12
1!
#136000000
0!
#136500000
b101 +
sX_RELEASE/3 0
02
1!
#137000000
0!
#137500000
b110 +
sY_WRITE/4 0
b10 1
1!
#138000000
0!
#138500000
b111 +
13
sY_LATCH/5 0
1,
1!
#139000000
0!
#139500000
b1000 +
1.
03
0-
sY_RELEASE/6 0
1!
#140000000
0!
#140500000
b1001 +
b0 1
sA_LATCH_&_ENABLE/7 0
14
0)
1!
#141000000
0!
#141500000
b1010 +
b11 1
sA_READ/8 0
04
1!
#142000000
0!
#142500000
b1011 +
b100 1
sFIFO_1/9 0
15
1)
1!
#143000000
0!
#143500000
b0 +
b0 1
sFIFO_2/10 0
05
1!
#144000000
0!
#144500000
b1 +
sWAIT/0 0
0,
1!
#145000000
0!
#145500000
b10 +
1*
0.
1/
1-
16
1!
#146000000
0!
#146500000
b11 +
sX_WRITE/1 0
1!
b11010000000000 #
b1101 8
0*
b1 1
b11010000000000 $
06
0/
#147000000
0!
#147500000
b100 +
sX_LATCH/2 0
12
1!
#148000000
0!
#148500000
b101 +
sX_RELEASE/3 0
02
1!
#149000000
0!
#149500000
b110 +
sY_WRITE/4 0
b10 1
1!
#150000000
0!
#150500000
b111 +
13
sY_LATCH/5 0
1,
1!
#151000000
0!
#151500000
b1000 +
1.
03
0-
sY_RELEASE/6 0
1!
#152000000
0!
#152500000
b1001 +
b0 1
sA_LATCH_&_ENABLE/7 0
14
0)
1!
#153000000
0!
#153500000
b1010 +
b11 1
sA_READ/8 0
04
1!
#154000000
0!
#154500000
b1011 +
b100 1
sFIFO_1/9 0
15
1)
1!
#155000000
0!
#155500000
b0 +
b0 1
sFIFO_2/10 0
05
1!
#156000000
0!
#156500000
b1 +
sWAIT/0 0
0,
1!
#157000000
0!
#157500000
b10 +
1*
0.
1/
1-
16
1!
#158000000
0!
#158500000
b11 +
sX_WRITE/1 0
1!
b11100000000000 #
b1110 8
0*
b1 1
b11100000000000 $
06
0/
#159000000
0!
#159500000
b100 +
sX_LATCH/2 0
12
1!
#160000000
0!
#160500000
b101 +
sX_RELEASE/3 0
02
1!
#161000000
0!
#161500000
b110 +
sY_WRITE/4 0
b10 1
1!
#162000000
0!
#162500000
b111 +
13
sY_LATCH/5 0
1,
1!
#163000000
0!
#163500000
b1000 +
1.
03
0-
sY_RELEASE/6 0
1!
#164000000
0!
#164500000
b1001 +
b0 1
sA_LATCH_&_ENABLE/7 0
14
0)
1!
#165000000
0!
#165500000
b1010 +
b11 1
sA_READ/8 0
04
1!
#166000000
0!
#166500000
b1011 +
b100 1
sFIFO_1/9 0
15
1)
1!
#167000000
0!
#167500000
b0 +
b0 1
sFIFO_2/10 0
05
1!
#168000000
0!
#168500000
b1 +
sWAIT/0 0
0,
1!
#169000000
0!
#169500000
b10 +
1*
0.
1/
1-
16
1!
#170000000
0!
#170500000
b11 +
sX_WRITE/1 0
1!
b11110000000000 #
b1111 8
0*
b1 1
b11110000000000 $
06
0/
#171000000
0!
#171500000
b100 +
sX_LATCH/2 0
12
1!
#172000000
0!
#172500000
b101 +
sX_RELEASE/3 0
02
1!
#173000000
0!
#173500000
b110 +
sY_WRITE/4 0
b10 1
1!
#174000000
0!
#174500000
b111 +
13
sY_LATCH/5 0
1,
1!
#175000000
0!
#175500000
b1000 +
1.
03
0-
sY_RELEASE/6 0
1!
#176000000
0!
#176500000
b1001 +
b0 1
sA_LATCH_&_ENABLE/7 0
14
0)
1!
#177000000
0!
#177500000
b1010 +
b11 1
sA_READ/8 0
04
1!
#178000000
0!
#178500000
b1011 +
b100 1
sFIFO_1/9 0
15
1)
1!
#179000000
0!
#179500000
b0 +
b0 1
sFIFO_2/10 0
05
1!
#180000000
0!
#180500000
b1 +
sWAIT/0 0
0,
1!
#181000000
0!
#181500000
b10 +
1*
0.
1/
1-
16
1!
#182000000
0!
#182500000
b11 +
sX_WRITE/1 0
1;
1!
b0 #
b10000 8
0*
b1 1
b0 $
1:
06
0/
#183000000
0!
#183500000
b100 +
sX_LATCH/2 0
12
1!
#184000000
0!
#184500000
b101 +
sX_RELEASE/3 0
02
1!
#185000000
0!
#185500000
b110 +
sY_WRITE/4 0
b10 1
1!
#186000000
0!
#186500000
b111 +
13
sY_LATCH/5 0
1,
1!
#187000000
0!
#187500000
b1000 +
1.
03
0-
sY_RELEASE/6 0
1!
#188000000
0!
#188500000
b1001 +
b0 1
sA_LATCH_&_ENABLE/7 0
14
0)
1!
#189000000
0!
#189500000
b1010 +
b11 1
sA_READ/8 0
04
1!
#190000000
0!
#190500000
b1011 +
b100 1
sFIFO_1/9 0
15
1)
1!
#191000000
0!
#191500000
b0 +
b0 1
sFIFO_2/10 0
05
1!
#192000000
0!
#192500000
b1 +
sWAIT/0 0
0,
1!
#193000000
0!
#193500000
b10 +
1*
17
0.
1/
1-
16
1!
#194000000
0!
#194500000
b11 +
sX_WRITE/1 0
0;
1!
b10000000000 %
b0 8
0*
07
b1 1
b1 9
b10000000000 &
0:
06
0/
#195000000
0!
#195500000
b100 +
sX_LATCH/2 0
12
1!
#196000000
0!
#196500000
b101 +
sX_RELEASE/3 0
02
1!
#197000000
0!
#197500000
b110 +
sY_WRITE/4 0
b10 1
1!
#198000000
0!
#198500000
b111 +
13
sY_LATCH/5 0
1,
1!
#199000000
0!
#199500000
b1000 +
1.
03
0-
sY_RELEASE/6 0
1!
#200000000
0!
#200500000
b1001 +
b0 1
sA_LATCH_&_ENABLE/7 0
14
0)
1!
#201000000
0!
#201500000
b1010 +
b11 1
sA_READ/8 0
04
1!
#202000000
0!
#202500000
b1011 +
b100 1
sFIFO_1/9 0
15
1)
1!
#203000000
0!
#203500000
b0 +
b0 1
sFIFO_2/10 0
05
1!
#204000000
0!
#204500000
b1 +
sWAIT/0 0
0,
1!
#205000000
0!
#205500000
b10 +
1*
0.
1/
1-
16
1!
#206000000
0!
#206500000
b11 +
sX_WRITE/1 0
1!
b10000000000 #
b1 8
0*
b1 1
b10000000000 $
06
0/
#207000000
0!
#207500000
b100 +
sX_LATCH/2 0
12
1!
#208000000
0!
#208500000
b101 +
sX_RELEASE/3 0
02
1!
#209000000
0!
#209500000
b110 +
sY_WRITE/4 0
b10 1
1!
#210000000
0!
#210500000
b111 +
13
sY_LATCH/5 0
1,
1!
#211000000
0!
#211500000
b1000 +
1.
03
0-
sY_RELEASE/6 0
1!
#212000000
0!
#212500000
b1001 +
b0 1
sA_LATCH_&_ENABLE/7 0
14
0)
1!
#213000000
0!
#213500000
b1010 +
b11 1
sA_READ/8 0
04
1!
#214000000
0!
#214500000
b1011 +
b100 1
sFIFO_1/9 0
15
1)
1!
#215000000
0!
#215500000
b0 +
b0 1
sFIFO_2/10 0
05
1!
#216000000
0!
#216500000
b1 +
sWAIT/0 0
0,
1!
#217000000
0!
#217500000
b10 +
1*
0.
1/
1-
16
1!
#218000000
0!
#218500000
b11 +
sX_WRITE/1 0
1!
b100000000000 #
b10 8
0*
b1 1
b100000000000 $
06
0/
#219000000
0!
#219500000
b100 +
sX_LATCH/2 0
12
1!
#220000000
0!
#220500000
b101 +
sX_RELEASE/3 0
02
1!
#221000000
0!
#221500000
b110 +
sY_WRITE/4 0
b10 1
1!
#222000000
0!
#222500000
b111 +
13
sY_LATCH/5 0
1,
1!
#223000000
0!
#223500000
b1000 +
1.
03
0-
sY_RELEASE/6 0
1!
#224000000
0!
#224500000
b1001 +
b0 1
sA_LATCH_&_ENABLE/7 0
14
0)
1!
#225000000
0!
#225500000
b1010 +
b11 1
sA_READ/8 0
04
1!
#226000000
0!
#226500000
b1011 +
b100 1
sFIFO_1/9 0
15
1)
1!
#227000000
0!
#227500000
b0 +
b0 1
sFIFO_2/10 0
05
1!
#228000000
0!
#228500000
b1 +
sWAIT/0 0
0,
1!
#229000000
0!
#229500000
b10 +
1*
0.
1/
1-
16
1!
#230000000
0!
#230500000
b11 +
sX_WRITE/1 0
1!
b110000000000 #
b11 8
0*
b1 1
b110000000000 $
06
0/
#231000000
0!
#231500000
b100 +
sX_LATCH/2 0
12
1!
#232000000
0!
#232500000
b101 +
sX_RELEASE/3 0
02
1!
#233000000
0!
#233500000
b110 +
sY_WRITE/4 0
b10 1
1!
#234000000
0!
#234500000
b111 +
13
sY_LATCH/5 0
1,
1!
#235000000
0!
#235500000
b1000 +
1.
03
0-
sY_RELEASE/6 0
1!
#236000000
0!
#236500000
b1001 +
b0 1
sA_LATCH_&_ENABLE/7 0
14
0)
1!
#237000000
0!
#237500000
b1010 +
b11 1
sA_READ/8 0
04
1!
#238000000
0!
#238500000
b1011 +
b100 1
sFIFO_1/9 0
15
1)
1!
#239000000
0!
#239500000
b0 +
b0 1
sFIFO_2/10 0
05
1!
#240000000
0!
#240500000
b1 +
sWAIT/0 0
0,
1!
#241000000
0!
#241500000
b10 +
1*
0.
1/
1-
16
1!
#242000000
0!
#242500000
b11 +
sX_WRITE/1 0
1!
b1000000000000 #
b100 8
0*
b1 1
b1000000000000 $
06
0/
#243000000
0!
#243500000
b100 +
sX_LATCH/2 0
12
1!
#244000000
0!
#244500000
b101 +
sX_RELEASE/3 0
02
1!
#245000000
0!
#245500000
b110 +
sY_WRITE/4 0
b10 1
1!
#246000000
0!
#246500000
b111 +
13
sY_LATCH/5 0
1,
1!
#247000000
0!
#247500000
b1000 +
1.
03
0-
sY_RELEASE/6 0
1!
#248000000
0!
#248500000
b1001 +
b0 1
sA_LATCH_&_ENABLE/7 0
14
0)
1!
#249000000
0!
#249500000
b1010 +
b11 1
sA_READ/8 0
04
1!
#250000000
0!
#250500000
b1011 +
b100 1
sFIFO_1/9 0
15
1)
1!
#251000000
0!
#251500000
b0 +
b0 1
sFIFO_2/10 0
05
1!
#252000000
0!
#252500000
b1 +
sWAIT/0 0
0,
1!
#253000000
0!
#253500000
b10 +
1*
0.
1/
1-
16
1!
#254000000
0!
#254500000
b11 +
sX_WRITE/1 0
1!
b1010000000000 #
b101 8
0*
b1 1
b1010000000000 $
06
0/
#255000000
0!
#255500000
b100 +
sX_LATCH/2 0
12
1!
#256000000
0!
#256500000
b101 +
sX_RELEASE/3 0
02
1!
#257000000
0!
#257500000
b110 +
sY_WRITE/4 0
b10 1
1!
#258000000
0!
#258500000
b111 +
13
sY_LATCH/5 0
1,
1!
#259000000
0!
#259500000
b1000 +
1.
03
0-
sY_RELEASE/6 0
1!
#260000000
0!
#260500000
b1001 +
b0 1
sA_LATCH_&_ENABLE/7 0
14
0)
1!
#261000000
0!
#261500000
b1010 +
b11 1
sA_READ/8 0
04
1!
#262000000
0!
#262500000
b1011 +
b100 1
sFIFO_1/9 0
15
1)
1!
#263000000
0!
#263500000
b0 +
b0 1
sFIFO_2/10 0
05
1!
#264000000
0!
#264500000
b1 +
sWAIT/0 0
0,
1!
#265000000
0!
#265500000
b10 +
1*
0.
1/
1-
16
1!
#266000000
0!
#266500000
b11 +
sX_WRITE/1 0
1!
b1100000000000 #
b110 8
0*
b1 1
b1100000000000 $
06
0/
#267000000
0!
#267500000
b100 +
sX_LATCH/2 0
12
1!
#268000000
0!
#268500000
b101 +
sX_RELEASE/3 0
02
1!
#269000000
0!
#269500000
b110 +
sY_WRITE/4 0
b10 1
1!
#270000000
0!
#270500000
b111 +
13
sY_LATCH/5 0
1,
1!
#271000000
0!
#271500000
b1000 +
1.
03
0-
sY_RELEASE/6 0
1!
#272000000
0!
#272500000
b1001 +
b0 1
sA_LATCH_&_ENABLE/7 0
14
0)
1!
#273000000
0!
#273500000
b1010 +
b11 1
sA_READ/8 0
04
1!
#274000000
0!
#274500000
b1011 +
b100 1
sFIFO_1/9 0
15
1)
1!
#275000000
0!
#275500000
b0 +
b0 1
sFIFO_2/10 0
05
1!
#276000000
0!
#276500000
b1 +
sWAIT/0 0
0,
1!
#277000000
0!
#277500000
b10 +
1*
0.
1/
1-
16
1!
#278000000
0!
#278500000
b11 +
sX_WRITE/1 0
1!
b1110000000000 #
b111 8
0*
b1 1
b1110000000000 $
06
0/
#279000000
0!
#279500000
b100 +
sX_LATCH/2 0
12
1!
#280000000
0!
#280500000
b101 +
sX_RELEASE/3 0
02
1!
#281000000
0!
#281500000
b110 +
sY_WRITE/4 0
b10 1
1!
#282000000
0!
#282500000
b111 +
13
sY_LATCH/5 0
1,
1!
#283000000
0!
#283500000
b1000 +
1.
03
0-
sY_RELEASE/6 0
1!
#284000000
0!
#284500000
b1001 +
b0 1
sA_LATCH_&_ENABLE/7 0
14
0)
1!
#285000000
0!
#285500000
b1010 +
b11 1
sA_READ/8 0
04
1!
#286000000
0!
#286500000
b1011 +
b100 1
sFIFO_1/9 0
15
1)
1!
#287000000
0!
#287500000
b0 +
b0 1
sFIFO_2/10 0
05
1!
#288000000
0!
#288500000
b1 +
sWAIT/0 0
0,
1!
#289000000
0!
#289500000
b10 +
1*
0.
1/
1-
16
1!
#290000000
0!
#290500000
b11 +
sX_WRITE/1 0
1!
b10000000000000 #
b1000 8
0*
b1 1
b10000000000000 $
06
0/
#291000000
0!
#291500000
b100 +
sX_LATCH/2 0
12
1!
#292000000
0!
#292500000
b101 +
sX_RELEASE/3 0
02
1!
#293000000
0!
#293500000
b110 +
sY_WRITE/4 0
b10 1
1!
#294000000
0!
#294500000
b111 +
13
sY_LATCH/5 0
1,
1!
#295000000
0!
#295500000
b1000 +
1.
03
0-
sY_RELEASE/6 0
1!
#296000000
0!
#296500000
b1001 +
b0 1
sA_LATCH_&_ENABLE/7 0
14
0)
1!
#297000000
0!
#297500000
b1010 +
b11 1
sA_READ/8 0
04
1!
#298000000
0!
#298500000
b1011 +
b100 1
sFIFO_1/9 0
15
1)
1!
#299000000
0!
#299500000
b0 +
b0 1
sFIFO_2/10 0
05
1!
#300000000
0!
#300500000
b1 +
sWAIT/0 0
0,
1!
#301000000
0!
#301500000
b10 +
1*
0.
1/
1-
16
1!
#302000000
0!
#302500000
b11 +
sX_WRITE/1 0
1!
b10010000000000 #
b1001 8
0*
b1 1
b10010000000000 $
06
0/
#303000000
0!
#303500000
b100 +
sX_LATCH/2 0
12
1!
#304000000
0!
#304500000
b101 +
sX_RELEASE/3 0
02
1!
#305000000
0!
#305500000
b110 +
sY_WRITE/4 0
b10 1
1!
#306000000
0!
#306500000
b111 +
13
sY_LATCH/5 0
1,
1!
#307000000
0!
#307500000
b1000 +
1.
03
0-
sY_RELEASE/6 0
1!
#308000000
0!
#308500000
b1001 +
b0 1
sA_LATCH_&_ENABLE/7 0
14
0)
1!
#309000000
0!
#309500000
b1010 +
b11 1
sA_READ/8 0
04
1!
#310000000
0!
#310500000
b1011 +
b100 1
sFIFO_1/9 0
15
1)
1!
#311000000
0!
#311500000
b0 +
b0 1
sFIFO_2/10 0
05
1!
#312000000
0!
#312500000
b1 +
sWAIT/0 0
0,
1!
#313000000
0!
#313500000
b10 +
1*
0.
1/
1-
16
1!
#314000000
0!
#314500000
b11 +
sX_WRITE/1 0
1!
b10100000000000 #
b1010 8
0*
b1 1
b10100000000000 $
06
0/
#315000000
0!
#315500000
b100 +
sX_LATCH/2 0
12
1!
#316000000
0!
#316500000
b101 +
sX_RELEASE/3 0
02
1!
#317000000
0!
#317500000
b110 +
sY_WRITE/4 0
b10 1
1!
#318000000
0!
#318500000
b111 +
13
sY_LATCH/5 0
1,
1!
#319000000
0!
#319500000
b1000 +
1.
03
0-
sY_RELEASE/6 0
1!
#320000000
0!
#320500000
b1001 +
b0 1
sA_LATCH_&_ENABLE/7 0
14
0)
1!
#321000000
0!
#321500000
b1010 +
b11 1
sA_READ/8 0
04
1!
#322000000
0!
#322500000
b1011 +
b100 1
sFIFO_1/9 0
15
1)
1!
#323000000
0!
#323500000
b0 +
b0 1
sFIFO_2/10 0
05
1!
#324000000
0!
#324500000
b1 +
sWAIT/0 0
0,
1!
#325000000
0!
#325500000
b10 +
1*
0.
1/
1-
16
1!
#326000000
0!
#326500000
b11 +
sX_WRITE/1 0
1!
b10110000000000 #
b1011 8
0*
b1 1
b10110000000000 $
06
0/
#327000000
0!
#327500000
b100 +
sX_LATCH/2 0
12
1!
#328000000
0!
#328500000
b101 +
sX_RELEASE/3 0
02
1!
#329000000
0!
#329500000
b110 +
sY_WRITE/4 0
b10 1
1!
#330000000
0!
#330500000
b111 +
13
sY_LATCH/5 0
1,
1!
#331000000
0!
#331500000
b1000 +
1.
03
0-
sY_RELEASE/6 0
1!
#332000000
0!
#332500000
b1001 +
b0 1
sA_LATCH_&_ENABLE/7 0
14
0)
1!
#333000000
0!
#333500000
b1010 +
b11 1
sA_READ/8 0
04
1!
#334000000
0!
#334500000
b1011 +
b100 1
sFIFO_1/9 0
15
1)
1!
#335000000
0!
