scan_sim_ramp.vcd
$comment Generated by Amaranth $end
$date 2023-06-15 12:43:15.575063 $end
$timescale 1 ps $end
$scope module bench $end
$scope module top $end
$var wire 1 ! en $end
$var wire 1 " en$1 $end
$var wire 14 # x_data $end
$var wire 4 $ count $end
$var wire 14 % y_data $end
$var wire 4 & count$1 $end
$var wire 1 ' line_sync $end
$var wire 1 ( ovf $end
$var wire 1 ) frame_sync $end
$var wire 1 * ovf$1 $end
$var wire 1 + en$2 $end
$scope module x_ramp $end
$var wire 1 ! en $end
$var wire 4 $ count $end
$var wire 1 ( ovf $end
$var wire 1 , clk $end
$var wire 1 - rst $end
$upscope $end
$scope module y_ramp $end
$var wire 1 " en $end
$var wire 4 & count $end
$var wire 1 * ovf $end
$var wire 1 , clk $end
$var wire 1 - rst $end
$upscope $end
$upscope $end
$upscope $end
$enddefinitions $end
#0
$dumpvars
0!
0"
b0 #
b0 $
b0 %
b0 &
0'
0(
0)
0*
0+
0,
0-
$end
#500000
1!
1,
1+
#1000000
0,
#1500000
b100000000000 #
1,
b1 $
#2000000
0,
#2500000
b1000000000000 #
1,
b10 $
#3000000
0,
#3500000
b1100000000000 #
1,
b11 $
#4000000
0,
#4500000
b10000000000000 #
1,
b100 $
#5000000
0,
#5500000
b10100000000000 #
1,
b101 $
#6000000
0,
#6500000
b11000000000000 #
1,
b110 $
#7000000
0,
#7500000
b11100000000000 #
1,
b111 $
#8000000
0,
#8500000
b1000 $
1"
1(
1'
b0 #
1,
#9000000
0,
#9500000
b0 $
0"
b100000000000 %
0(
0'
1,
b1 &
#10000000
0,
#10500000
b100000000000 #
1,
b1 $
#11000000
0,
#11500000
b1000000000000 #
1,
b10 $
#12000000
0,
#12500000
b1100000000000 #
1,
b11 $
#13000000
0,
#13500000
b10000000000000 #
1,
b100 $
#14000000
0,
#14500000
b10100000000000 #
1,
b101 $
#15000000
0,
#15500000
b11000000000000 #
1,
b110 $
#16000000
0,
#16500000
b11100000000000 #
1,
b111 $
#17000000
0,
#17500000
b1000 $
1"
1(
1'
b0 #
1,
#18000000
0,
#18500000
b0 $
0"
b1000000000000 %
0(
0'
1,
b10 &
#19000000
0,
#19500000
b100000000000 #
1,
b1 $
#20000000
0,
#20500000
b1000000000000 #
1,
b10 $
#21000000
0,
#21500000
b1100000000000 #
1,
b11 $
#22000000
0,
#22500000
b10000000000000 #
1,
b100 $
#23000000
0,
#23500000
b10100000000000 #
1,
b101 $
#24000000
0,
#24500000
b11000000000000 #
1,
b110 $
#25000000
0,
#25500000
b11100000000000 #
1,
b111 $
#26000000
0,
#26500000
b1000 $
1"
1(
1'
b0 #
1,
#27000000
0,
#27500000
b0 $
0"
b1100000000000 %
0(
0'
1,
b11 &
#28000000
0,
#28500000
b100000000000 #
1,
b1 $
#29000000
0,
#29500000
b1000000000000 #
1,
b10 $
#30000000
0,
#30500000
b1100000000000 #
1,
b11 $
#31000000
0,
#31500000
b10000000000000 #
1,
b100 $
#32000000
0,
#32500000
b10100000000000 #
1,
b101 $
#33000000
0,
#33500000
b11000000000000 #
1,
b110 $
#34000000
0,
#34500000
b11100000000000 #
1,
b111 $
#35000000
0,
#35500000
b1000 $
1"
1(
1'
b0 #
1,
#36000000
0,
#36500000
b0 $
0"
b10000000000000 %
0(
0'
1,
b100 &
#37000000
0,
#37500000
b100000000000 #
1,
b1 $
#38000000
0,
#38500000
b1000000000000 #
1,
b10 $
#39000000
0,
#39500000
b1100000000000 #
1,
b11 $
#40000000
0,
#40500000
b10000000000000 #
1,
b100 $
#41000000
0,
#41500000
b10100000000000 #
1,
b101 $
#42000000
0,
#42500000
b11000000000000 #
1,
b110 $
#43000000
0,
#43500000
b11100000000000 #
1,
b111 $
#44000000
0,
#44500000
b1000 $
1"
1(
1'
b0 #
1,
#45000000
0,
#45500000
b0 $
0"
b10100000000000 %
0(
0'
1,
b101 &
#46000000
0,
#46500000
b100000000000 #
1,
b1 $
#47000000
0,
#47500000
b1000000000000 #
1,
b10 $
#48000000
0,
#48500000
b1100000000000 #
1,
b11 $
#49000000
0,
#49500000
b10000000000000 #
1,
b100 $
#50000000
0,
#50500000
b10100000000000 #
1,
b101 $
#51000000
0,
#51500000
b11000000000000 #
1,
b110 $
#52000000
0,
#52500000
b11100000000000 #
1,
b111 $
#53000000
0,
#53500000
b1000 $
1"
1(
1'
b0 #
1,
#54000000
0,
#54500000
b0 $
0"
b11000000000000 %
0(
0'
1,
b110 &
#55000000
0,
#55500000
b100000000000 #
1,
b1 $
#56000000
0,
#56500000
b1000000000000 #
1,
b10 $
#57000000
0,
#57500000
b1100000000000 #
1,
b11 $
#58000000
0,
#58500000
b10000000000000 #
1,
b100 $
#59000000
0,
#59500000
b10100000000000 #
1,
b101 $
#60000000
0,
#60500000
b11000000000000 #
1,
b110 $
#61000000
0,
#61500000
b11100000000000 #
1,
b111 $
#62000000
0,
#62500000
b1000 $
1"
1(
1'
b0 #
1,
#63000000
0,
#63500000
b0 $
0"
b11100000000000 %
0(
0'
1,
b111 &
#64000000
0,
#64500000
b100000000000 #
1,
b1 $
#65000000
0,
#65500000
b1000000000000 #
1,
b10 $
#66000000
0,
#66500000
b1100000000000 #
1,
b11 $
#67000000
0,
#67500000
b10000000000000 #
1,
b100 $
#68000000
0,
#68500000
b10100000000000 #
1,
b101 $
#69000000
0,
#69500000
b11000000000000 #
1,
b110 $
#70000000
0,
#70500000
b11100000000000 #
1,
b111 $
#71000000
0,
#71500000
b1000 $
1"
1(
1'
b0 #
1,
#72000000
0,
#72500000
1*
b0 $
b0 %
1,
b1000 &
0"
1)
0(
0'
#73000000
0,
#73500000
b100000000000 #
1,
b1 $
#74000000
0,
#74500000
b1000000000000 #
1,
b10 $
#75000000
0,
#75500000
b1100000000000 #
1,
b11 $
#76000000
0,
#76500000
b10000000000000 #
1,
b100 $
#77000000
0,
#77500000
b10100000000000 #
1,
b101 $
#78000000
0,
#78500000
b11000000000000 #
1,
b110 $
#79000000
0,
#79500000
b11100000000000 #
1,
b111 $
#80000000
0,
#80500000
b1000 $
1"
1(
1'
b0 #
1,
#81000000
0,
#81500000
0*
b0 $
0"
0)
0(
0'
1,
b0 &
#82000000
0,
#82500000
b100000000000 #
1,
b1 $
#83000000
0,
#83500000
b1000000000000 #
1,
b10 $
#84000000
0,
#84500000
b1100000000000 #
1,
b11 $
#85000000
0,
#85500000
b10000000000000 #
1,
b100 $
#86000000
0,
#86500000
b10100000000000 #
1,
b101 $
#87000000
0,
#87500000
b11000000000000 #
1,
b110 $
#88000000
0,
#88500000
b11100000000000 #
1,
b111 $
#89000000
0,
#89500000
b1000 $
1"
1(
1'
b0 #
1,
#90000000
0,
#90500000
b0 $
0"
b100000000000 %
0(
0'
1,
b1 &
#91000000
0,
#91500000
b100000000000 #
1,
b1 $
#92000000
0,
#92500000
b1000000000000 #
1,
b10 $
#93000000
0,
#93500000
b1100000000000 #
1,
b11 $
#94000000
0,
#94500000
b10000000000000 #
1,
b100 $
#95000000
0,
#95500000
b10100000000000 #
1,
b101 $
#96000000
0,
#96500000
b11000000000000 #
1,
b110 $
#97000000
0,
#97500000
b11100000000000 #
1,
b111 $
#98000000
0,
#98500000
b1000 $
1"
1(
1'
b0 #
1,
#99000000
0,
#99500000
b0 $
0"
b1000000000000 %
0(
0'
1,
b10 &
#100000000
0,
#100500000
b100000000000 #
1,
b1 $
#101000000
0,
#101500000
b1000000000000 #
1,
b10 $
#102000000
0,
#102500000
b1100000000000 #
1,
b11 $
#103000000
0,
#103500000
b10000000000000 #
1,
b100 $
#104000000
0,
#104500000
b10100000000000 #
1,
b101 $
#105000000
0,
#105500000
b11000000000000 #
1,
b110 $
#106000000
0,
#106500000
b11100000000000 #
1,
b111 $
#107000000
0,
#107500000
b1000 $
1"
1(
1'
b0 #
1,
#108000000
0,
#108500000
b0 $
0"
b1100000000000 %
0(
0'
1,
b11 &
#109000000
0,
#109500000
b100000000000 #
1,
b1 $
#110000000
0,
#110500000
b1000000000000 #
1,
b10 $
#111000000
0,
#111500000
b1100000000000 #
1,
b11 $
#112000000
0,
#112500000
b10000000000000 #
1,
b100 $
#113000000
0,
#113500000
b10100000000000 #
1,
b101 $
#114000000
0,
#114500000
b11000000000000 #
1,
b110 $
#115000000
0,
#115500000
b11100000000000 #
1,
b111 $
#116000000
0,
#116500000
b1000 $
1"
1(
1'
b0 #
1,
#117000000
0,
#117500000
b0 $
0"
b10000000000000 %
0(
0'
1,
b100 &
#118000000
0,
#118500000
b100000000000 #
1,
b1 $
#119000000
0,
#119500000
b1000000000000 #
1,
b10 $
#120000000
0,
#120500000
b1100000000000 #
1,
b11 $
#121000000
0,
#121500000
b10000000000000 #
1,
b100 $
#122000000
0,
#122500000
b10100000000000 #
1,
b101 $
#123000000
0,
#123500000
b11000000000000 #
1,
b110 $
#124000000
0,
#124500000
b11100000000000 #
1,
b111 $
#125000000
0,
#125500000
b1000 $
1"
1(
1'
b0 #
1,
#126000000
0,
#126500000
b0 $
0"
b10100000000000 %
0(
0'
1,
b101 &
#127000000
0,
#127500000
b100000000000 #
1,
b1 $
#128000000
0,
#128500000
b1000000000000 #
1,
b10 $
#129000000
0,
#129500000
b1100000000000 #
1,
b11 $
#130000000
0,
#130500000
b10000000000000 #
1,
b100 $
#131000000
0,
#131500000
b10100000000000 #
1,
b101 $
#132000000
0,
#132500000
b11000000000000 #
1,
b110 $
#133000000
0,
#133500000
b11100000000000 #
1,
b111 $
#134000000
0,
#134500000
b1000 $
1"
1(
1'
b0 #
1,
#135000000
0,
#135500000
b0 $
0"
b11000000000000 %
0(
0'
1,
b110 &
#136000000
0,
#136500000
b100000000000 #
1,
b1 $
#137000000
0,
#137500000
b1000000000000 #
1,
b10 $
#138000000
0,
#138500000
b1100000000000 #
1,
b11 $
#139000000
0,
#139500000
b10000000000000 #
1,
b100 $
#140000000
0,
#140500000
b10100000000000 #
1,
b101 $
#141000000
0,
#141500000
b11000000000000 #
1,
b110 $
#142000000
0,
#142500000
b11100000000000 #
1,
b111 $
#143000000
0,
#143500000
b1000 $
1"
1(
1'
b0 #
1,
#144000000
0,
#144500000
b0 $
0"
b11100000000000 %
0(
0'
1,
b111 &
#145000000
0,
#145500000
b100000000000 #
1,
b1 $
#146000000
0,
#146500000
b1000000000000 #
1,
b10 $
#147000000
0,
#147500000
b1100000000000 #
1,
b11 $
#148000000
0,
#148500000
b10000000000000 #
1,
b100 $
#149000000
0,
#149500000
b10100000000000 #
1,
b101 $
#150000000
0,
#150500000
b11000000000000 #
1,
b110 $
#151000000
0,
#151500000
b11100000000000 #
1,
b111 $
#152000000
0,
#152500000
b1000 $
1"
1(
1'
b0 #
1,
#153000000
0,
#153500000
1*
b0 $
b0 %
1,
b1000 &
0"
1)
0(
0'
#154000000
0,
#154500000
b100000000000 #
1,
b1 $
#155000000
0,
#155500000
b1000000000000 #
1,
b10 $
#156000000
0,
#156500000
b1100000000000 #
1,
b11 $
#157000000
0,
#157500000
b10000000000000 #
1,
b100 $
#158000000
0,
#158500000
b10100000000000 #
1,
b101 $
#159000000
0,
#159500000
b11000000000000 #
1,
b110 $
#160000000
0,
#160500000
b11100000000000 #
1,
b111 $
#161000000
0,
#161500000
b1000 $
1"
1(
1'
b0 #
1,
#162000000
0,
#162500000
0*
b0 $
0"
0)
0(
0'
1,
b0 &
#163000000
0,
#163500000
b100000000000 #
1,
b1 $
#164000000
0,
#164500000
b1000000000000 #
1,
b10 $
#165000000
0,
#165500000
b1100000000000 #
1,
b11 $
#166000000
0,
#166500000
b10000000000000 #
1,
b100 $
#167000000
0,
#167500000
b10100000000000 #
1,
b101 $
#168000000
0,
#168500000
b11000000000000 #
1,
b110 $
#169000000
0,
#169500000
b11100000000000 #
1,
b111 $
#170000000
0,
#170500000
b1000 $
1"
1(
1'
b0 #
1,
#171000000
0,
#171500000
b0 $
0"
b100000000000 %
0(
0'
1,
b1 &
#172000000
0,
#172500000
b100000000000 #
1,
b1 $
#173000000
0,
#173500000
b1000000000000 #
1,
b10 $
#174000000
0,
#174500000
b1100000000000 #
1,
b11 $
#175000000
0,
#175500000
b10000000000000 #
1,
b100 $
#176000000
0,
#176500000
b10100000000000 #
1,
b101 $
#177000000
0,
#177500000
b11000000000000 #
1,
b110 $
#178000000
0,
#178500000
b11100000000000 #
1,
b111 $
#179000000
0,
#179500000
b1000 $
1"
1(
1'
b0 #
1,
#180000000
0,
#180500000
b0 $
0"
b1000000000000 %
0(
0'
1,
b10 &
#181000000
0,
#181500000
b100000000000 #
1,
b1 $
#182000000
0,
#182500000
b1000000000000 #
1,
b10 $
#183000000
0,
#183500000
b1100000000000 #
1,
b11 $
#184000000
0,
#184500000
b10000000000000 #
1,
b100 $
#185000000
0,
#185500000
b10100000000000 #
1,
b101 $
#186000000
0,
#186500000
b11000000000000 #
1,
b110 $
#187000000
0,
#187500000
b11100000000000 #
1,
b111 $
#188000000
0,
#188500000
b1000 $
1"
1(
1'
b0 #
1,
#189000000
0,
#189500000
b0 $
0"
b1100000000000 %
0(
0'
1,
b11 &
#190000000
0,
#190500000
b100000000000 #
1,
b1 $
#191000000
0,
#191500000
b1000000000000 #
1,
b10 $
#192000000
0,
#192500000
b1100000000000 #
1,
b11 $
#193000000
0,
#193500000
b10000000000000 #
1,
b100 $
