scan_sim_bus.vcd
$comment Generated by Amaranth $end
$date 2023-07-06 14:43:36.925608 $end
$timescale 1 ps $end
$scope module bench $end
$scope module top $end
$var wire 1 ! clk $end
$var wire 1 " rst $end
$var wire 14 # x_data $end
$var wire 14 $ x_data$1 $end
$var wire 14 % y_data $end
$var wire 14 & y_data$1 $end
$var wire 1 ' line_sync $end
$var wire 1 ( line_sync$1 $end
$var wire 1 ) frame_sync $end
$var wire 1 * frame_sync$1 $end
$var wire 1 + x_enable $end
$var wire 1 , y_enable $end
$var wire 1 - a_enable $end
$var wire 1 . count_one $end
$var wire 4 / count $end
$var wire 1 0 count_six $end
$var wire 1 1 a_clock $end
$var wire 1 2 d_clock $end
$var wire 1 3 en $end
$var string 1 4 fsm_state $end
$var wire 8 5 bus_state $end
$var wire 1 6 x_latch $end
$var wire 1 7 y_latch $end
$var wire 1 8 a_latch $end
$var wire 1 9 fifo_ready $end
$scope module min_dwell_ctr $end
$var wire 1 ! clk $end
$var wire 1 " rst $end
$var wire 4 / count $end
$var wire 1 : ovf $end
$upscope $end
$scope module scan_gen $end
$var wire 14 $ x_data $end
$var wire 14 & y_data $end
$var wire 1 ( line_sync $end
$var wire 1 * frame_sync $end
$var wire 1 3 en $end
$var wire 1 ; en$1 $end
$var wire 1 < en$2 $end
$var wire 5 = count $end
$var wire 5 > count$1 $end
$var wire 1 ? ovf $end
$var wire 1 @ ovf$1 $end
$scope module x_ramp $end
$var wire 1 ! clk $end
$var wire 1 " rst $end
$var wire 1 ; en $end
$var wire 5 = count $end
$var wire 1 ? ovf $end
$upscope $end
$scope module y_ramp $end
$var wire 1 ! clk $end
$var wire 1 " rst $end
$var wire 1 < en $end
$var wire 5 > count $end
$var wire 1 @ ovf $end
$upscope $end
$upscope $end
$upscope $end
$upscope $end
$enddefinitions $end
#0
$dumpvars
0!
0"
b0 #
b0 $
b0 %
b0 &
0'
0(
0)
0*
0+
0,
1-
0.
b0 /
00
01
02
03
sWAIT/0 4
b0 5
06
07
08
09
0:
0;
0<
b0 =
b0 >
0?
0@
$end
#500000
19
b1 /
1!
11
#1000000
0!
#1500000
1;
13
b10 /
1!
1.
#2000000
0!
#2500000
b1 =
0;
03
b1 5
b10000000000 #
1!
sX_WRITE/1 4
b10000000000 $
b11 /
0.
#3000000
0!
#3500000
sX_LATCH/2 4
16
b100 /
1!
#4000000
0!
#4500000
sX_RELEASE/3 4
06
b101 /
1!
#5000000
0!
#5500000
sY_WRITE/4 4
b110 /
1!
b10 5
#6000000
0!
#6500000
sY_LATCH/5 4
b111 /
17
10
1!
#7000000
0!
#7500000
sY_RELEASE/6 4
b1000 /
07
01
12
1!
#8000000
0!
#8500000
sA_LATCH_&_ENABLE/7 4
b1001 /
b0 5
18
1!
0-
#9000000
0!
#9500000
sA_READ/8 4
b1010 /
b11 5
08
1!
#10000000
0!
#10500000
sA_RELEASE/9 4
b1011 /
b0 5
1:
1!
#11000000
0!
#11500000
sFIFO_1/10 4
b0 /
b100 5
0:
1!
1-
#12000000
0!
#12500000
sFIFO_2/11 4
b1 /
b101 5
00
1!
#13000000
0!
#13500000
1;
13
b0 5
02
1!
sWAIT/0 4
b10 /
11
1.
#14000000
0!
#14500000
b10 =
0;
03
b1 5
b100000000000 #
1!
sX_WRITE/1 4
b100000000000 $
b11 /
0.
#15000000
0!
#15500000
sX_LATCH/2 4
16
b100 /
1!
#16000000
0!
#16500000
sX_RELEASE/3 4
06
b101 /
1!
#17000000
0!
#17500000
sY_WRITE/4 4
b110 /
1!
b10 5
#18000000
0!
#18500000
sY_LATCH/5 4
b111 /
17
10
1!
#19000000
0!
#19500000
sY_RELEASE/6 4
b1000 /
07
01
12
1!
#20000000
0!
#20500000
sA_LATCH_&_ENABLE/7 4
b1001 /
b0 5
18
1!
0-
#21000000
0!
#21500000
sA_READ/8 4
b1010 /
b11 5
08
1!
#22000000
0!
#22500000
sA_RELEASE/9 4
b1011 /
b0 5
1:
1!
#23000000
0!
#23500000
sFIFO_1/10 4
b0 /
b100 5
0:
1!
1-
#24000000
0!
#24500000
sFIFO_2/11 4
b1 /
b101 5
00
1!
#25000000
0!
#25500000
1;
13
b0 5
02
1!
sWAIT/0 4
b10 /
11
1.
#26000000
0!
#26500000
b11 =
0;
03
b1 5
b110000000000 #
1!
sX_WRITE/1 4
b110000000000 $
b11 /
0.
#27000000
0!
#27500000
sX_LATCH/2 4
16
b100 /
1!
#28000000
0!
#28500000
sX_RELEASE/3 4
06
b101 /
1!
#29000000
0!
#29500000
sY_WRITE/4 4
b110 /
1!
b10 5
#30000000
0!
#30500000
sY_LATCH/5 4
b111 /
17
10
1!
#31000000
0!
#31500000
sY_RELEASE/6 4
b1000 /
07
01
12
1!
#32000000
0!
#32500000
sA_LATCH_&_ENABLE/7 4
b1001 /
b0 5
18
1!
0-
#33000000
0!
#33500000
sA_READ/8 4
b1010 /
b11 5
08
1!
#34000000
0!
#34500000
sA_RELEASE/9 4
b1011 /
b0 5
1:
1!
#35000000
0!
#35500000
sFIFO_1/10 4
b0 /
b100 5
0:
1!
1-
#36000000
0!
#36500000
sFIFO_2/11 4
b1 /
b101 5
00
1!
#37000000
0!
#37500000
1;
13
b0 5
02
1!
sWAIT/0 4
b10 /
11
1.
#38000000
0!
#38500000
b100 =
0;
03
b1 5
b1000000000000 #
1!
sX_WRITE/1 4
b1000000000000 $
b11 /
0.
#39000000
0!
#39500000
sX_LATCH/2 4
16
b100 /
1!
#40000000
0!
#40500000
sX_RELEASE/3 4
06
b101 /
1!
#41000000
0!
#41500000
sY_WRITE/4 4
b110 /
1!
b10 5
#42000000
0!
#42500000
sY_LATCH/5 4
b111 /
17
10
1!
#43000000
0!
#43500000
sY_RELEASE/6 4
b1000 /
07
01
12
1!
#44000000
0!
#44500000
sA_LATCH_&_ENABLE/7 4
b1001 /
b0 5
18
1!
0-
#45000000
0!
#45500000
sA_READ/8 4
b1010 /
b11 5
08
1!
#46000000
0!
#46500000
sA_RELEASE/9 4
b1011 /
b0 5
1:
1!
#47000000
0!
#47500000
sFIFO_1/10 4
b0 /
b100 5
0:
1!
1-
#48000000
0!
#48500000
sFIFO_2/11 4
b1 /
b101 5
00
1!
#49000000
0!
#49500000
1;
13
b0 5
02
1!
sWAIT/0 4
b10 /
11
1.
#50000000
0!
#50500000
b101 =
0;
03
b1 5
b1010000000000 #
1!
sX_WRITE/1 4
b1010000000000 $
b11 /
0.
#51000000
0!
#51500000
sX_LATCH/2 4
16
b100 /
1!
#52000000
0!
#52500000
sX_RELEASE/3 4
06
b101 /
1!
#53000000
0!
#53500000
sY_WRITE/4 4
b110 /
1!
b10 5
#54000000
0!
#54500000
sY_LATCH/5 4
b111 /
17
10
1!
#55000000
0!
#55500000
sY_RELEASE/6 4
b1000 /
07
01
12
1!
#56000000
0!
#56500000
sA_LATCH_&_ENABLE/7 4
b1001 /
b0 5
18
1!
0-
#57000000
0!
#57500000
sA_READ/8 4
b1010 /
b11 5
08
1!
#58000000
0!
#58500000
sA_RELEASE/9 4
b1011 /
b0 5
1:
1!
#59000000
0!
#59500000
sFIFO_1/10 4
b0 /
b100 5
0:
1!
1-
#60000000
0!
#60500000
sFIFO_2/11 4
b1 /
b101 5
00
1!
#61000000
0!
#61500000
1;
13
b0 5
02
1!
sWAIT/0 4
b10 /
11
1.
#62000000
0!
#62500000
b110 =
0;
03
b1 5
b1100000000000 #
1!
sX_WRITE/1 4
b1100000000000 $
b11 /
0.
#63000000
0!
#63500000
sX_LATCH/2 4
16
b100 /
1!
#64000000
0!
#64500000
sX_RELEASE/3 4
06
b101 /
1!
#65000000
0!
#65500000
sY_WRITE/4 4
b110 /
1!
b10 5
#66000000
0!
#66500000
sY_LATCH/5 4
b111 /
17
10
1!
#67000000
0!
#67500000
sY_RELEASE/6 4
b1000 /
07
01
12
1!
#68000000
0!
#68500000
sA_LATCH_&_ENABLE/7 4
b1001 /
b0 5
18
1!
0-
#69000000
0!
#69500000
sA_READ/8 4
b1010 /
b11 5
08
1!
#70000000
0!
#70500000
sA_RELEASE/9 4
b1011 /
b0 5
1:
1!
#71000000
0!
#71500000
sFIFO_1/10 4
b0 /
b100 5
0:
1!
1-
#72000000
0!
#72500000
sFIFO_2/11 4
b1 /
b101 5
00
1!
#73000000
0!
#73500000
1;
13
b0 5
02
1!
sWAIT/0 4
b10 /
11
1.
#74000000
0!
#74500000
b111 =
0;
03
b1 5
b1110000000000 #
1!
sX_WRITE/1 4
b1110000000000 $
b11 /
0.
#75000000
0!
#75500000
sX_LATCH/2 4
16
b100 /
1!
#76000000
0!
#76500000
sX_RELEASE/3 4
06
b101 /
1!
#77000000
0!
#77500000
sY_WRITE/4 4
b110 /
1!
b10 5
#78000000
0!
#78500000
sY_LATCH/5 4
b111 /
17
10
1!
#79000000
0!
#79500000
sY_RELEASE/6 4
b1000 /
07
01
12
1!
#80000000
0!
#80500000
sA_LATCH_&_ENABLE/7 4
b1001 /
b0 5
18
1!
0-
#81000000
0!
#81500000
sA_READ/8 4
b1010 /
b11 5
08
1!
#82000000
0!
#82500000
sA_RELEASE/9 4
b1011 /
b0 5
1:
1!
#83000000
0!
#83500000
sFIFO_1/10 4
b0 /
b100 5
0:
1!
1-
#84000000
0!
#84500000
sFIFO_2/11 4
b1 /
b101 5
00
1!
#85000000
0!
#85500000
1;
13
b0 5
02
1!
sWAIT/0 4
b10 /
11
1.
#86000000
0!
#86500000
b1000 =
0;
03
b1 5
b10000000000000 #
1!
sX_WRITE/1 4
b10000000000000 $
b11 /
0.
#87000000
0!
#87500000
sX_LATCH/2 4
16
b100 /
1!
#88000000
0!
#88500000
sX_RELEASE/3 4
06
b101 /
1!
#89000000
0!
#89500000
sY_WRITE/4 4
b110 /
1!
b10 5
#90000000
0!
#90500000
sY_LATCH/5 4
b111 /
17
10
1!
#91000000
0!
#91500000
sY_RELEASE/6 4
b1000 /
07
01
12
1!
#92000000
0!
#92500000
sA_LATCH_&_ENABLE/7 4
b1001 /
b0 5
18
1!
0-
#93000000
0!
#93500000
sA_READ/8 4
b1010 /
b11 5
08
1!
#94000000
0!
#94500000
sA_RELEASE/9 4
b1011 /
b0 5
1:
1!
#95000000
0!
#95500000
sFIFO_1/10 4
b0 /
b100 5
0:
1!
1-
#96000000
0!
#96500000
sFIFO_2/11 4
b1 /
b101 5
00
1!
#97000000
0!
#97500000
1;
13
b0 5
02
1!
sWAIT/0 4
b10 /
11
1.
#98000000
0!
#98500000
b1001 =
0;
03
b1 5
b10010000000000 #
1!
sX_WRITE/1 4
b10010000000000 $
b11 /
0.
#99000000
0!
#99500000
sX_LATCH/2 4
16
b100 /
1!
#100000000
0!
#100500000
sX_RELEASE/3 4
06
b101 /
1!
#101000000
0!
#101500000
sY_WRITE/4 4
b110 /
1!
b10 5
#102000000
0!
#102500000
sY_LATCH/5 4
b111 /
17
10
1!
#103000000
0!
#103500000
sY_RELEASE/6 4
b1000 /
07
01
12
1!
#104000000
0!
#104500000
sA_LATCH_&_ENABLE/7 4
b1001 /
b0 5
18
1!
0-
#105000000
0!
#105500000
sA_READ/8 4
b1010 /
b11 5
08
1!
#106000000
0!
#106500000
sA_RELEASE/9 4
b1011 /
b0 5
1:
1!
#107000000
0!
#107500000
sFIFO_1/10 4
b0 /
b100 5
0:
1!
1-
#108000000
0!
#108500000
sFIFO_2/11 4
b1 /
b101 5
00
1!
#109000000
0!
#109500000
1;
13
b0 5
02
1!
sWAIT/0 4
b10 /
11
1.
#110000000
0!
#110500000
b1010 =
0;
03
b1 5
b10100000000000 #
1!
sX_WRITE/1 4
b10100000000000 $
b11 /
0.
#111000000
0!
#111500000
sX_LATCH/2 4
16
b100 /
1!
#112000000
0!
#112500000
sX_RELEASE/3 4
06
b101 /
1!
#113000000
0!
#113500000
sY_WRITE/4 4
b110 /
1!
b10 5
#114000000
0!
#114500000
sY_LATCH/5 4
b111 /
17
10
1!
#115000000
0!
#115500000
sY_RELEASE/6 4
b1000 /
07
01
12
1!
#116000000
0!
#116500000
sA_LATCH_&_ENABLE/7 4
b1001 /
b0 5
18
1!
0-
#117000000
0!
#117500000
sA_READ/8 4
b1010 /
b11 5
08
1!
#118000000
0!
#118500000
sA_RELEASE/9 4
b1011 /
b0 5
1:
1!
#119000000
0!
#119500000
sFIFO_1/10 4
b0 /
b100 5
0:
1!
1-
#120000000
0!
#120500000
sFIFO_2/11 4
b1 /
b101 5
00
1!
#121000000
0!
#121500000
1;
13
b0 5
02
1!
sWAIT/0 4
b10 /
11
1.
#122000000
0!
#122500000
b1011 =
0;
03
b1 5
b10110000000000 #
1!
sX_WRITE/1 4
b10110000000000 $
b11 /
0.
#123000000
0!
#123500000
sX_LATCH/2 4
16
b100 /
1!
#124000000
0!
#124500000
sX_RELEASE/3 4
06
b101 /
1!
#125000000
0!
#125500000
sY_WRITE/4 4
b110 /
1!
b10 5
#126000000
0!
#126500000
sY_LATCH/5 4
b111 /
17
10
1!
#127000000
0!
#127500000
sY_RELEASE/6 4
b1000 /
07
01
12
1!
#128000000
0!
#128500000
sA_LATCH_&_ENABLE/7 4
b1001 /
b0 5
18
1!
0-
#129000000
0!
#129500000
sA_READ/8 4
b1010 /
b11 5
08
1!
#130000000
0!
#130500000
sA_RELEASE/9 4
b1011 /
b0 5
1:
1!
#131000000
0!
#131500000
sFIFO_1/10 4
b0 /
b100 5
0:
1!
1-
#132000000
0!
#132500000
sFIFO_2/11 4
b1 /
b101 5
00
1!
#133000000
0!
#133500000
1;
13
b0 5
02
1!
sWAIT/0 4
b10 /
11
1.
#134000000
0!
#134500000
b1100 =
0;
03
b1 5
b11000000000000 #
1!
sX_WRITE/1 4
b11000000000000 $
b11 /
0.
#135000000
0!
#135500000
sX_LATCH/2 4
16
b100 /
1!
#136000000
0!
#136500000
sX_RELEASE/3 4
06
b101 /
1!
#137000000
0!
#137500000
sY_WRITE/4 4
b110 /
1!
b10 5
#138000000
0!
#138500000
sY_LATCH/5 4
b111 /
17
10
1!
#139000000
0!
#139500000
sY_RELEASE/6 4
b1000 /
07
01
12
1!
#140000000
0!
#140500000
sA_LATCH_&_ENABLE/7 4
b1001 /
b0 5
18
1!
0-
#141000000
0!
#141500000
sA_READ/8 4
b1010 /
b11 5
08
1!
#142000000
0!
#142500000
sA_RELEASE/9 4
b1011 /
b0 5
1:
1!
#143000000
0!
#143500000
sFIFO_1/10 4
b0 /
b100 5
0:
1!
1-
#144000000
0!
#144500000
sFIFO_2/11 4
b1 /
b101 5
00
1!
#145000000
0!
#145500000
1;
13
b0 5
02
1!
sWAIT/0 4
b10 /
11
1.
#146000000
0!
#146500000
b1101 =
0;
03
b1 5
b11010000000000 #
1!
sX_WRITE/1 4
b11010000000000 $
b11 /
0.
#147000000
0!
#147500000
sX_LATCH/2 4
16
b100 /
1!
#148000000
0!
#148500000
sX_RELEASE/3 4
06
b101 /
1!
#149000000
0!
#149500000
sY_WRITE/4 4
b110 /
1!
b10 5
#150000000
0!
#150500000
sY_LATCH/5 4
b111 /
17
10
1!
#151000000
0!
#151500000
sY_RELEASE/6 4
b1000 /
07
01
12
1!
#152000000
0!
#152500000
sA_LATCH_&_ENABLE/7 4
b1001 /
b0 5
18
1!
0-
#153000000
0!
#153500000
sA_READ/8 4
b1010 /
b11 5
08
1!
#154000000
0!
#154500000
sA_RELEASE/9 4
b1011 /
b0 5
1:
1!
#155000000
0!
#155500000
sFIFO_1/10 4
b0 /
b100 5
0:
1!
1-
#156000000
0!
#156500000
sFIFO_2/11 4
b1 /
b101 5
00
1!
#157000000
0!
#157500000
1;
13
b0 5
02
1!
sWAIT/0 4
b10 /
11
1.
#158000000
0!
#158500000
b1110 =
0;
03
b1 5
b11100000000000 #
1!
sX_WRITE/1 4
b11100000000000 $
b11 /
0.
#159000000
0!
#159500000
sX_LATCH/2 4
16
b100 /
1!
#160000000
0!
#160500000
sX_RELEASE/3 4
06
b101 /
1!
#161000000
0!
#161500000
sY_WRITE/4 4
b110 /
1!
b10 5
#162000000
0!
#162500000
sY_LATCH/5 4
b111 /
17
10
1!
#163000000
0!
#163500000
sY_RELEASE/6 4
b1000 /
07
01
12
1!
#164000000
0!
#164500000
sA_LATCH_&_ENABLE/7 4
b1001 /
b0 5
18
1!
0-
#165000000
0!
#165500000
sA_READ/8 4
b1010 /
b11 5
08
1!
#166000000
0!
#166500000
sA_RELEASE/9 4
b1011 /
b0 5
1:
1!
#167000000
0!
#167500000
sFIFO_1/10 4
b0 /
b100 5
0:
1!
1-
#168000000
0!
#168500000
sFIFO_2/11 4
b1 /
b101 5
00
1!
#169000000
0!
#169500000
1;
13
b0 5
02
1!
sWAIT/0 4
b10 /
11
1.
#170000000
0!
#170500000
b1111 =
0;
03
b1 5
b11110000000000 #
1!
sX_WRITE/1 4
b11110000000000 $
b11 /
0.
#171000000
0!
#171500000
sX_LATCH/2 4
16
b100 /
1!
#172000000
0!
#172500000
sX_RELEASE/3 4
06
b101 /
1!
#173000000
0!
#173500000
sY_WRITE/4 4
b110 /
1!
b10 5
#174000000
0!
#174500000
sY_LATCH/5 4
b111 /
17
10
1!
#175000000
0!
#175500000
sY_RELEASE/6 4
b1000 /
07
01
12
1!
#176000000
0!
#176500000
sA_LATCH_&_ENABLE/7 4
b1001 /
b0 5
18
1!
0-
#177000000
0!
#177500000
sA_READ/8 4
b1010 /
b11 5
08
1!
#178000000
0!
#178500000
sA_RELEASE/9 4
b1011 /
b0 5
1:
1!
#179000000
0!
#179500000
sFIFO_1/10 4
b0 /
b100 5
0:
1!
1-
#180000000
0!
#180500000
sFIFO_2/11 4
b1 /
b101 5
00
1!
#181000000
0!
#181500000
1;
13
b0 5
02
1!
sWAIT/0 4
b10 /
11
1.
#182000000
0!
#182500000
b10000 =
0;
03
b1 5
1(
1'
b0 #
1!
sX_WRITE/1 4
b0 $
b11 /
1?
0.
#183000000
0!
#183500000
sX_LATCH/2 4
16
b100 /
1!
#184000000
0!
#184500000
sX_RELEASE/3 4
06
b101 /
1!
#185000000
0!
#185500000
sY_WRITE/4 4
b110 /
1!
b10 5
#186000000
0!
#186500000
sY_LATCH/5 4
b111 /
17
10
1!
#187000000
0!
#187500000
sY_RELEASE/6 4
b1000 /
07
01
12
1!
#188000000
0!
#188500000
sA_LATCH_&_ENABLE/7 4
b1001 /
b0 5
18
1!
0-
#189000000
0!
#189500000
sA_READ/8 4
b1010 /
b11 5
08
1!
#190000000
0!
#190500000
sA_RELEASE/9 4
b1011 /
b0 5
1:
1!
#191000000
0!
#191500000
sFIFO_1/10 4
b0 /
b100 5
0:
1!
1-
#192000000
0!
#192500000
sFIFO_2/11 4
b1 /
b101 5
00
1!
#193000000
0!
#193500000
1;
13
b0 5
02
1!
sWAIT/0 4
b10 /
1<
11
1.
#194000000
0!
#194500000
b0 =
0;
03
b1 5
0(
0'
b1 >
b10000000000 &
1!
b10000000000 %
sX_WRITE/1 4
b11 /
0?
0<
0.
#195000000
0!
#195500000
sX_LATCH/2 4
16
b100 /
1!
#196000000
0!
#196500000
sX_RELEASE/3 4
06
b101 /
1!
#197000000
0!
#197500000
sY_WRITE/4 4
b110 /
1!
b10 5
#198000000
0!
#198500000
sY_LATCH/5 4
b111 /
17
10
1!
#199000000
0!
#199500000
sY_RELEASE/6 4
b1000 /
07
01
12
1!
#200000000
0!
#200500000
sA_LATCH_&_ENABLE/7 4
b1001 /
b0 5
18
1!
0-
#201000000
0!
#201500000
sA_READ/8 4
b1010 /
b11 5
08
1!
#202000000
0!
#202500000
sA_RELEASE/9 4
b1011 /
b0 5
1:
1!
#203000000
0!
#203500000
sFIFO_1/10 4
b0 /
b100 5
0:
1!
1-
#204000000
0!
#204500000
sFIFO_2/11 4
b1 /
b101 5
00
1!
#205000000
0!
#205500000
1;
13
b0 5
02
1!
sWAIT/0 4
b10 /
11
1.
#206000000
0!
#206500000
b1 =
0;
03
b1 5
b10000000000 #
1!
sX_WRITE/1 4
b10000000000 $
b11 /
0.
#207000000
0!
#207500000
sX_LATCH/2 4
16
b100 /
1!
#208000000
0!
#208500000
sX_RELEASE/3 4
06
b101 /
1!
#209000000
0!
#209500000
sY_WRITE/4 4
b110 /
1!
b10 5
#210000000
0!
#210500000
sY_LATCH/5 4
b111 /
17
10
1!
#211000000
0!
#211500000
sY_RELEASE/6 4
b1000 /
07
01
12
1!
#212000000
0!
#212500000
sA_LATCH_&_ENABLE/7 4
b1001 /
b0 5
18
1!
0-
#213000000
0!
#213500000
sA_READ/8 4
b1010 /
b11 5
08
1!
#214000000
0!
#214500000
sA_RELEASE/9 4
b1011 /
b0 5
1:
1!
#215000000
0!
#215500000
sFIFO_1/10 4
b0 /
b100 5
0:
1!
1-
#216000000
0!
#216500000
sFIFO_2/11 4
b1 /
b101 5
00
1!
#217000000
0!
#217500000
1;
13
b0 5
02
1!
sWAIT/0 4
b10 /
11
1.
#218000000
0!
#218500000
b10 =
0;
03
b1 5
b100000000000 #
1!
sX_WRITE/1 4
b100000000000 $
b11 /
0.
#219000000
0!
#219500000
sX_LATCH/2 4
16
b100 /
1!
#220000000
0!
#220500000
sX_RELEASE/3 4
06
b101 /
1!
#221000000
0!
#221500000
sY_WRITE/4 4
b110 /
1!
b10 5
#222000000
0!
#222500000
sY_LATCH/5 4
b111 /
17
10
1!
#223000000
0!
#223500000
sY_RELEASE/6 4
b1000 /
07
01
12
1!
#224000000
0!
#224500000
sA_LATCH_&_ENABLE/7 4
b1001 /
b0 5
18
1!
0-
#225000000
0!
#225500000
sA_READ/8 4
b1010 /
b11 5
08
1!
#226000000
0!
#226500000
sA_RELEASE/9 4
b1011 /
b0 5
1:
1!
#227000000
0!
#227500000
sFIFO_1/10 4
b0 /
b100 5
0:
1!
1-
#228000000
0!
#228500000
sFIFO_2/11 4
b1 /
b101 5
00
1!
#229000000
0!
#229500000
1;
13
b0 5
02
1!
sWAIT/0 4
b10 /
11
1.
#230000000
0!
#230500000
b11 =
0;
03
b1 5
b110000000000 #
1!
sX_WRITE/1 4
b110000000000 $
b11 /
0.
#231000000
0!
#231500000
sX_LATCH/2 4
16
b100 /
1!
#232000000
0!
#232500000
sX_RELEASE/3 4
06
b101 /
1!
#233000000
0!
#233500000
sY_WRITE/4 4
b110 /
1!
b10 5
#234000000
0!
#234500000
sY_LATCH/5 4
b111 /
17
10
1!
#235000000
0!
#235500000
sY_RELEASE/6 4
b1000 /
07
01
12
1!
#236000000
0!
#236500000
sA_LATCH_&_ENABLE/7 4
b1001 /
b0 5
18
1!
0-
#237000000
0!
#237500000
sA_READ/8 4
b1010 /
b11 5
08
1!
#238000000
0!
#238500000
sA_RELEASE/9 4
b1011 /
b0 5
1:
1!
#239000000
0!
#239500000
sFIFO_1/10 4
b0 /
b100 5
0:
1!
1-
#240000000
0!
#240500000
sFIFO_2/11 4
b1 /
b101 5
00
1!
#241000000
0!
#241500000
1;
13
b0 5
02
1!
sWAIT/0 4
b10 /
11
1.
#242000000
0!
#242500000
b100 =
0;
03
b1 5
b1000000000000 #
1!
sX_WRITE/1 4
b1000000000000 $
b11 /
0.
#243000000
0!
#243500000
sX_LATCH/2 4
16
b100 /
1!
#244000000
0!
#244500000
sX_RELEASE/3 4
06
b101 /
1!
#245000000
0!
#245500000
sY_WRITE/4 4
b110 /
1!
b10 5
#246000000
0!
#246500000
sY_LATCH/5 4
b111 /
17
10
1!
#247000000
0!
#247500000
sY_RELEASE/6 4
b1000 /
07
01
12
1!
#248000000
0!
#248500000
sA_LATCH_&_ENABLE/7 4
b1001 /
b0 5
18
1!
0-
#249000000
0!
#249500000
sA_READ/8 4
b1010 /
b11 5
08
1!
#250000000
0!
#250500000
sA_RELEASE/9 4
b1011 /
b0 5
1:
1!
#251000000
0!
#251500000
sFIFO_1/10 4
b0 /
b100 5
0:
1!
1-
#252000000
0!
#252500000
sFIFO_2/11 4
b1 /
b101 5
00
1!
#253000000
0!
#253500000
1;
13
b0 5
02
1!
sWAIT/0 4
b10 /
11
1.
#254000000
0!
#254500000
b101 =
0;
03
b1 5
b1010000000000 #
1!
sX_WRITE/1 4
b1010000000000 $
b11 /
0.
#255000000
0!
#255500000
sX_LATCH/2 4
16
b100 /
1!
#256000000
0!
#256500000
sX_RELEASE/3 4
06
b101 /
1!
#257000000
0!
#257500000
sY_WRITE/4 4
b110 /
1!
b10 5
#258000000
0!
#258500000
sY_LATCH/5 4
b111 /
17
10
1!
#259000000
0!
#259500000
sY_RELEASE/6 4
b1000 /
07
01
12
1!
#260000000
0!
#260500000
sA_LATCH_&_ENABLE/7 4
b1001 /
b0 5
18
1!
0-
#261000000
0!
#261500000
sA_READ/8 4
b1010 /
b11 5
08
1!
#262000000
0!
#262500000
sA_RELEASE/9 4
b1011 /
b0 5
1:
1!
#263000000
0!
#263500000
sFIFO_1/10 4
b0 /
b100 5
0:
1!
1-
#264000000
0!
#264500000
sFIFO_2/11 4
b1 /
b101 5
00
1!
#265000000
0!
#265500000
1;
13
b0 5
02
1!
sWAIT/0 4
b10 /
11
1.
#266000000
0!
#266500000
b110 =
0;
03
b1 5
b1100000000000 #
1!
sX_WRITE/1 4
b1100000000000 $
b11 /
0.
#267000000
0!
#267500000
sX_LATCH/2 4
16
b100 /
1!
#268000000
0!
#268500000
sX_RELEASE/3 4
06
b101 /
1!
#269000000
0!
#269500000
sY_WRITE/4 4
b110 /
1!
b10 5
#270000000
0!
#270500000
sY_LATCH/5 4
b111 /
17
10
1!
#271000000
0!
#271500000
sY_RELEASE/6 4
b1000 /
07
01
12
1!
#272000000
0!
#272500000
sA_LATCH_&_ENABLE/7 4
b1001 /
b0 5
18
1!
0-
#273000000
0!
#273500000
sA_READ/8 4
b1010 /
b11 5
08
1!
#274000000
0!
#274500000
sA_RELEASE/9 4
b1011 /
b0 5
1:
1!
#275000000
0!
#275500000
sFIFO_1/10 4
b0 /
b100 5
0:
1!
1-
#276000000
0!
#276500000
sFIFO_2/11 4
b1 /
b101 5
00
1!
#277000000
0!
#277500000
1;
13
b0 5
02
1!
sWAIT/0 4
b10 /
11
1.
#278000000
0!
#278500000
b111 =
0;
03
b1 5
b1110000000000 #
1!
sX_WRITE/1 4
b1110000000000 $
b11 /
0.
#279000000
0!
#279500000
sX_LATCH/2 4
16
b100 /
1!
#280000000
0!
#280500000
sX_RELEASE/3 4
06
b101 /
1!
#281000000
0!
#281500000
sY_WRITE/4 4
b110 /
1!
b10 5
#282000000
0!
#282500000
sY_LATCH/5 4
b111 /
17
10
1!
#283000000
0!
#283500000
sY_RELEASE/6 4
b1000 /
07
01
12
1!
#284000000
0!
#284500000
sA_LATCH_&_ENABLE/7 4
b1001 /
b0 5
18
1!
0-
#285000000
0!
#285500000
sA_READ/8 4
b1010 /
b11 5
08
1!
#286000000
0!
#286500000
sA_RELEASE/9 4
b1011 /
b0 5
1:
1!
#287000000
0!
#287500000
sFIFO_1/10 4
b0 /
b100 5
0:
1!
1-
#288000000
0!
#288500000
sFIFO_2/11 4
b1 /
b101 5
00
1!
#289000000
0!
#289500000
1;
13
b0 5
02
1!
sWAIT/0 4
b10 /
11
1.
#290000000
0!
#290500000
b1000 =
0;
03
b1 5
b10000000000000 #
1!
sX_WRITE/1 4
b10000000000000 $
b11 /
0.
#291000000
0!
#291500000
sX_LATCH/2 4
16
b100 /
1!
#292000000
0!
#292500000
sX_RELEASE/3 4
06
b101 /
1!
#293000000
0!
#293500000
sY_WRITE/4 4
b110 /
1!
b10 5
#294000000
0!
#294500000
sY_LATCH/5 4
b111 /
17
10
1!
#295000000
0!
#295500000
sY_RELEASE/6 4
b1000 /
07
01
12
1!
#296000000
0!
#296500000
sA_LATCH_&_ENABLE/7 4
b1001 /
b0 5
18
1!
0-
#297000000
0!
#297500000
sA_READ/8 4
b1010 /
b11 5
08
1!
#298000000
0!
#298500000
sA_RELEASE/9 4
b1011 /
b0 5
1:
1!
#299000000
0!
#299500000
sFIFO_1/10 4
b0 /
b100 5
0:
1!
1-
#300000000
0!
#300500000
sFIFO_2/11 4
b1 /
b101 5
00
1!
#301000000
0!
#301500000
1;
13
b0 5
02
1!
sWAIT/0 4
b10 /
11
1.
#302000000
0!
#302500000
b1001 =
0;
03
b1 5
b10010000000000 #
1!
sX_WRITE/1 4
b10010000000000 $
b11 /
0.
#303000000
0!
#303500000
sX_LATCH/2 4
16
b100 /
1!
#304000000
0!
#304500000
sX_RELEASE/3 4
06
b101 /
1!
#305000000
0!
#305500000
sY_WRITE/4 4
b110 /
1!
b10 5
#306000000
0!
#306500000
sY_LATCH/5 4
b111 /
17
10
1!
#307000000
0!
#307500000
sY_RELEASE/6 4
b1000 /
07
01
12
1!
#308000000
0!
#308500000
sA_LATCH_&_ENABLE/7 4
b1001 /
b0 5
18
1!
0-
#309000000
0!
#309500000
sA_READ/8 4
b1010 /
b11 5
08
1!
#310000000
0!
#310500000
sA_RELEASE/9 4
b1011 /
b0 5
1:
1!
#311000000
0!
#311500000
sFIFO_1/10 4
b0 /
b100 5
0:
1!
1-
#312000000
0!
#312500000
sFIFO_2/11 4
b1 /
b101 5
00
1!
#313000000
0!
#313500000
1;
13
b0 5
02
1!
sWAIT/0 4
b10 /
11
1.
#314000000
0!
#314500000
b1010 =
0;
03
b1 5
b10100000000000 #
1!
sX_WRITE/1 4
b10100000000000 $
b11 /
0.
#315000000
0!
#315500000
sX_LATCH/2 4
16
b100 /
1!
#316000000
0!
#316500000
sX_RELEASE/3 4
06
b101 /
1!
#317000000
0!
#317500000
sY_WRITE/4 4
b110 /
1!
b10 5
#318000000
0!
#318500000
sY_LATCH/5 4
b111 /
17
10
1!
#319000000
0!
#319500000
sY_RELEASE/6 4
b1000 /
07
01
12
1!
#320000000
0!
#320500000
sA_LATCH_&_ENABLE/7 4
b1001 /
b0 5
18
1!
0-
#321000000
0!
