scan_sim_bus.vcd
$comment Generated by Amaranth $end
$date 2023-07-17 14:07:48.071399 $end
$timescale 1 ps $end
$scope module bench $end
$scope module top $end
$var wire 1 ! clk $end
$var wire 1 " rst $end
$var wire 1 # dwell_ctr_ovf $end
$var wire 1 $ ovf $end
$var wire 14 % x_data $end
$var wire 14 & x_data$1 $end
$var wire 14 ' y_data $end
$var wire 14 ( y_data$1 $end
$var wire 1 ) line_sync $end
$var wire 1 * line_sync$1 $end
$var wire 1 + frame_sync $end
$var wire 1 , frame_sync$1 $end
$var wire 1 - x_enable $end
$var wire 1 . y_enable $end
$var wire 1 / a_enable $end
$var wire 1 0 count_one $end
$var wire 4 1 count $end
$var wire 1 2 count_six $end
$var wire 1 3 a_clock $end
$var wire 1 4 d_clock $end
$var wire 1 5 en $end
$var wire 1 6 en$1 $end
$var string 1 7 fsm_state $end
$var wire 8 8 bus_state $end
$var wire 1 9 x_latch $end
$var wire 1 : y_latch $end
$var wire 1 ; a_latch $end
$var wire 1 < fifo_ready $end
$scope module dwell_ctr $end
$var wire 1 ! clk $end
$var wire 1 " rst $end
$var wire 1 $ ovf $end
$var wire 1 5 en $end
$var wire 2 > count $end
$upscope $end
$scope module min_dwell_ctr $end
$var wire 1 ! clk $end
$var wire 1 " rst $end
$var wire 4 1 count $end
$var wire 1 = ovf $end
$upscope $end
$scope module scan_gen $end
$var wire 14 & x_data $end
$var wire 14 ( y_data $end
$var wire 1 * line_sync $end
$var wire 1 , frame_sync $end
$var wire 1 6 en $end
$var wire 1 ? en$1 $end
$var wire 1 @ en$2 $end
$var wire 5 A count $end
$var wire 5 B count$1 $end
$var wire 1 C ovf $end
$var wire 1 D ovf$1 $end
$scope module x_ramp $end
$var wire 1 ! clk $end
$var wire 1 " rst $end
$var wire 1 ? en $end
$var wire 5 A count $end
$var wire 1 C ovf $end
$upscope $end
$scope module y_ramp $end
$var wire 1 ! clk $end
$var wire 1 " rst $end
$var wire 1 @ en $end
$var wire 5 B count $end
$var wire 1 D ovf $end
$upscope $end
$upscope $end
$upscope $end
$upscope $end
$enddefinitions $end
#0
$dumpvars
0!
0"
0#
0$
b0 %
b0 &
b0 '
b0 (
0)
0*
0+
0,
0-
0.
1/
00
b0 1
02
03
04
05
06
sWAIT/0 7
b0 8
09
0:
0;
0<
0=
b0 >
0?
0@
b0 A
b0 B
0C
0D
$end
#500000
b1 1
1!
1<
13
#1000000
0!
#1500000
b10 1
1!
10
15
#2000000
0!
#2500000
1!
b11 1
b1 >
05
b1 8
sX_WRITE/1 7
00
#3000000
0!
#3500000
sX_LATCH/2 7
b100 1
1!
19
#4000000
0!
#4500000
sX_RELEASE/3 7
b101 1
1!
09
#5000000
0!
#5500000
b10 8
sY_WRITE/4 7
b110 1
1!
#6000000
0!
#6500000
b111 1
1!
sY_LATCH/5 7
12
1:
#7000000
0!
#7500000
1!
b1000 1
sY_RELEASE/6 7
14
0:
03
#8000000
0!
#8500000
b1001 1
1!
1;
b0 8
sA_LATCH_&_ENABLE/7 7
0/
#9000000
0!
#9500000
b1010 1
1!
0;
b11 8
sA_READ/8 7
#10000000
0!
#10500000
b1011 1
1!
1=
b111 8
sA_RELEASE/9 7
#11000000
0!
#11500000
b0 1
1!
0=
b100 8
sFIFO_1/10 7
1/
#12000000
0!
#12500000
b1 1
1!
b101 8
sFIFO_2/11 7
02
#13000000
0!
#13500000
1!
b10 1
15
b0 8
sWAIT/0 7
04
10
13
#14000000
0!
#14500000
05
b1 8
sX_WRITE/1 7
1#
1$
1!
b11 1
b10 >
00
#15000000
0!
#15500000
sX_LATCH/2 7
b100 1
1!
19
#16000000
0!
#16500000
sX_RELEASE/3 7
b101 1
1!
09
#17000000
0!
#17500000
b10 8
sY_WRITE/4 7
b110 1
1!
#18000000
0!
#18500000
b111 1
1!
sY_LATCH/5 7
12
1:
#19000000
0!
#19500000
1!
b1000 1
sY_RELEASE/6 7
14
0:
03
#20000000
0!
#20500000
b1001 1
1!
1;
b0 8
sA_LATCH_&_ENABLE/7 7
0/
#21000000
0!
#21500000
b1010 1
1!
0;
b11 8
sA_READ/8 7
#22000000
0!
#22500000
b1011 1
1!
1=
b111 8
sA_RELEASE/9 7
#23000000
0!
#23500000
b0 1
1!
0=
b100 8
sFIFO_1/10 7
1/
#24000000
0!
#24500000
b1 1
1!
b101 8
sFIFO_2/11 7
02
#25000000
0!
#25500000
15
b0 8
sWAIT/0 7
04
13
16
1?
1!
b10 1
10
#26000000
0!
#26500000
b10000000000 %
05
b1 8
sX_WRITE/1 7
b1 A
0#
0$
06
0?
1!
b11 1
b0 >
00
b10000000000 &
#27000000
0!
#27500000
sX_LATCH/2 7
b100 1
1!
19
#28000000
0!
#28500000
sX_RELEASE/3 7
b101 1
1!
09
#29000000
0!
#29500000
b10 8
sY_WRITE/4 7
b110 1
1!
#30000000
0!
#30500000
b111 1
1!
sY_LATCH/5 7
12
1:
#31000000
0!
#31500000
1!
b1000 1
sY_RELEASE/6 7
14
0:
03
#32000000
0!
#32500000
b1001 1
1!
1;
b0 8
sA_LATCH_&_ENABLE/7 7
0/
#33000000
0!
#33500000
b1010 1
1!
0;
b11 8
sA_READ/8 7
#34000000
0!
#34500000
b1011 1
1!
1=
b111 8
sA_RELEASE/9 7
#35000000
0!
#35500000
b0 1
1!
0=
b100 8
sFIFO_1/10 7
1/
#36000000
0!
#36500000
b1 1
1!
b101 8
sFIFO_2/11 7
02
#37000000
0!
#37500000
1!
b10 1
15
b0 8
sWAIT/0 7
04
10
13
#38000000
0!
#38500000
1!
b11 1
b1 >
05
b1 8
sX_WRITE/1 7
00
#39000000
0!
#39500000
sX_LATCH/2 7
b100 1
1!
19
#40000000
0!
#40500000
sX_RELEASE/3 7
b101 1
1!
09
#41000000
0!
#41500000
b10 8
sY_WRITE/4 7
b110 1
1!
#42000000
0!
#42500000
b111 1
1!
sY_LATCH/5 7
12
1:
#43000000
0!
#43500000
1!
b1000 1
sY_RELEASE/6 7
14
0:
03
#44000000
0!
#44500000
b1001 1
1!
1;
b0 8
sA_LATCH_&_ENABLE/7 7
0/
#45000000
0!
#45500000
b1010 1
1!
0;
b11 8
sA_READ/8 7
#46000000
0!
#46500000
b1011 1
1!
1=
b111 8
sA_RELEASE/9 7
#47000000
0!
#47500000
b0 1
1!
0=
b100 8
sFIFO_1/10 7
1/
#48000000
0!
#48500000
b1 1
1!
b101 8
sFIFO_2/11 7
02
#49000000
0!
#49500000
1!
b10 1
15
b0 8
sWAIT/0 7
04
10
13
#50000000
0!
#50500000
05
b1 8
sX_WRITE/1 7
1#
1$
1!
b11 1
b10 >
00
#51000000
0!
#51500000
sX_LATCH/2 7
b100 1
1!
19
#52000000
0!
#52500000
sX_RELEASE/3 7
b101 1
1!
09
#53000000
0!
#53500000
b10 8
sY_WRITE/4 7
b110 1
1!
#54000000
0!
#54500000
b111 1
1!
sY_LATCH/5 7
12
1:
#55000000
0!
#55500000
1!
b1000 1
sY_RELEASE/6 7
14
0:
03
#56000000
0!
#56500000
b1001 1
1!
1;
b0 8
sA_LATCH_&_ENABLE/7 7
0/
#57000000
0!
#57500000
b1010 1
1!
0;
b11 8
sA_READ/8 7
#58000000
0!
#58500000
b1011 1
1!
1=
b111 8
sA_RELEASE/9 7
#59000000
0!
#59500000
b0 1
1!
0=
b100 8
sFIFO_1/10 7
1/
#60000000
0!
#60500000
b1 1
1!
b101 8
sFIFO_2/11 7
02
#61000000
0!
#61500000
15
b0 8
sWAIT/0 7
04
13
16
1?
1!
b10 1
10
#62000000
0!
#62500000
b100000000000 %
05
b1 8
sX_WRITE/1 7
b10 A
0#
0$
06
0?
1!
b11 1
b0 >
00
b100000000000 &
#63000000
0!
#63500000
sX_LATCH/2 7
b100 1
1!
19
#64000000
0!
#64500000
sX_RELEASE/3 7
b101 1
1!
09
#65000000
0!
#65500000
b10 8
sY_WRITE/4 7
b110 1
1!
#66000000
0!
#66500000
b111 1
1!
sY_LATCH/5 7
12
1:
#67000000
0!
#67500000
1!
b1000 1
sY_RELEASE/6 7
14
0:
03
#68000000
0!
#68500000
b1001 1
1!
1;
b0 8
sA_LATCH_&_ENABLE/7 7
0/
#69000000
0!
#69500000
b1010 1
1!
0;
b11 8
sA_READ/8 7
#70000000
0!
#70500000
b1011 1
1!
1=
b111 8
sA_RELEASE/9 7
#71000000
0!
#71500000
b0 1
1!
0=
b100 8
sFIFO_1/10 7
1/
#72000000
0!
#72500000
b1 1
1!
b101 8
sFIFO_2/11 7
02
#73000000
0!
#73500000
1!
b10 1
15
b0 8
sWAIT/0 7
04
10
13
#74000000
0!
#74500000
1!
b11 1
b1 >
05
b1 8
sX_WRITE/1 7
00
#75000000
0!
#75500000
sX_LATCH/2 7
b100 1
1!
19
#76000000
0!
#76500000
sX_RELEASE/3 7
b101 1
1!
09
#77000000
0!
#77500000
b10 8
sY_WRITE/4 7
b110 1
1!
#78000000
0!
#78500000
b111 1
1!
sY_LATCH/5 7
12
1:
#79000000
0!
#79500000
1!
b1000 1
sY_RELEASE/6 7
14
0:
03
#80000000
0!
#80500000
b1001 1
1!
1;
b0 8
sA_LATCH_&_ENABLE/7 7
0/
#81000000
0!
#81500000
b1010 1
1!
0;
b11 8
sA_READ/8 7
#82000000
0!
#82500000
b1011 1
1!
1=
b111 8
sA_RELEASE/9 7
#83000000
0!
#83500000
b0 1
1!
0=
b100 8
sFIFO_1/10 7
1/
#84000000
0!
#84500000
b1 1
1!
b101 8
sFIFO_2/11 7
02
#85000000
0!
#85500000
1!
b10 1
15
b0 8
sWAIT/0 7
04
10
13
#86000000
0!
#86500000
05
b1 8
sX_WRITE/1 7
1#
1$
1!
b11 1
b10 >
00
#87000000
0!
#87500000
sX_LATCH/2 7
b100 1
1!
19
#88000000
0!
#88500000
sX_RELEASE/3 7
b101 1
1!
09
#89000000
0!
#89500000
b10 8
sY_WRITE/4 7
b110 1
1!
#90000000
0!
#90500000
b111 1
1!
sY_LATCH/5 7
12
1:
#91000000
0!
#91500000
1!
b1000 1
sY_RELEASE/6 7
14
0:
03
#92000000
0!
#92500000
b1001 1
1!
1;
b0 8
sA_LATCH_&_ENABLE/7 7
0/
#93000000
0!
#93500000
b1010 1
1!
0;
b11 8
sA_READ/8 7
#94000000
0!
#94500000
b1011 1
1!
1=
b111 8
sA_RELEASE/9 7
#95000000
0!
#95500000
b0 1
1!
0=
b100 8
sFIFO_1/10 7
1/
#96000000
0!
#96500000
b1 1
1!
b101 8
sFIFO_2/11 7
02
#97000000
0!
#97500000
15
b0 8
sWAIT/0 7
04
13
16
1?
1!
b10 1
10
#98000000
0!
#98500000
b110000000000 %
05
b1 8
sX_WRITE/1 7
b11 A
0#
0$
06
0?
1!
b11 1
b0 >
00
b110000000000 &
#99000000
0!
#99500000
sX_LATCH/2 7
b100 1
1!
19
#100000000
0!
#100500000
sX_RELEASE/3 7
b101 1
1!
09
#101000000
0!
#101500000
b10 8
sY_WRITE/4 7
b110 1
1!
#102000000
0!
#102500000
b111 1
1!
sY_LATCH/5 7
12
1:
#103000000
0!
#103500000
1!
b1000 1
sY_RELEASE/6 7
14
0:
03
#104000000
0!
#104500000
b1001 1
1!
1;
b0 8
sA_LATCH_&_ENABLE/7 7
0/
#105000000
0!
#105500000
b1010 1
1!
0;
b11 8
sA_READ/8 7
#106000000
0!
#106500000
b1011 1
1!
1=
b111 8
sA_RELEASE/9 7
#107000000
0!
#107500000
b0 1
1!
0=
b100 8
sFIFO_1/10 7
1/
#108000000
0!
#108500000
b1 1
1!
b101 8
sFIFO_2/11 7
02
#109000000
0!
#109500000
1!
b10 1
15
b0 8
sWAIT/0 7
04
10
13
#110000000
0!
#110500000
1!
b11 1
b1 >
05
b1 8
sX_WRITE/1 7
00
#111000000
0!
#111500000
sX_LATCH/2 7
b100 1
1!
19
#112000000
0!
#112500000
sX_RELEASE/3 7
b101 1
1!
09
#113000000
0!
#113500000
b10 8
sY_WRITE/4 7
b110 1
1!
#114000000
0!
#114500000
b111 1
1!
sY_LATCH/5 7
12
1:
#115000000
0!
#115500000
1!
b1000 1
sY_RELEASE/6 7
14
0:
03
#116000000
0!
#116500000
b1001 1
1!
1;
b0 8
sA_LATCH_&_ENABLE/7 7
0/
#117000000
0!
#117500000
b1010 1
1!
0;
b11 8
sA_READ/8 7
#118000000
0!
#118500000
b1011 1
1!
1=
b111 8
sA_RELEASE/9 7
#119000000
0!
#119500000
b0 1
1!
0=
b100 8
sFIFO_1/10 7
1/
#120000000
0!
#120500000
b1 1
1!
b101 8
sFIFO_2/11 7
02
#121000000
0!
#121500000
1!
b10 1
15
b0 8
sWAIT/0 7
04
10
13
#122000000
0!
#122500000
05
b1 8
sX_WRITE/1 7
1#
1$
1!
b11 1
b10 >
00
#123000000
0!
#123500000
sX_LATCH/2 7
b100 1
1!
19
#124000000
0!
#124500000
sX_RELEASE/3 7
b101 1
1!
09
#125000000
0!
#125500000
b10 8
sY_WRITE/4 7
b110 1
1!
#126000000
0!
#126500000
b111 1
1!
sY_LATCH/5 7
12
1:
#127000000
0!
#127500000
1!
b1000 1
sY_RELEASE/6 7
14
0:
03
#128000000
0!
#128500000
b1001 1
1!
1;
b0 8
sA_LATCH_&_ENABLE/7 7
0/
#129000000
0!
#129500000
b1010 1
1!
0;
b11 8
sA_READ/8 7
#130000000
0!
#130500000
b1011 1
1!
1=
b111 8
sA_RELEASE/9 7
#131000000
0!
#131500000
b0 1
1!
0=
b100 8
sFIFO_1/10 7
1/
#132000000
0!
#132500000
b1 1
1!
b101 8
sFIFO_2/11 7
02
#133000000
0!
#133500000
15
b0 8
sWAIT/0 7
04
13
16
1?
1!
b10 1
10
#134000000
0!
#134500000
b1000000000000 %
05
b1 8
sX_WRITE/1 7
b100 A
0#
0$
06
0?
1!
b11 1
b0 >
00
b1000000000000 &
#135000000
0!
#135500000
sX_LATCH/2 7
b100 1
1!
19
#136000000
0!
#136500000
sX_RELEASE/3 7
b101 1
1!
09
#137000000
0!
#137500000
b10 8
sY_WRITE/4 7
b110 1
1!
#138000000
0!
#138500000
b111 1
1!
sY_LATCH/5 7
12
1:
#139000000
0!
#139500000
1!
b1000 1
sY_RELEASE/6 7
14
0:
03
#140000000
0!
#140500000
b1001 1
1!
1;
b0 8
sA_LATCH_&_ENABLE/7 7
0/
#141000000
0!
#141500000
b1010 1
1!
0;
b11 8
sA_READ/8 7
#142000000
0!
#142500000
b1011 1
1!
1=
b111 8
sA_RELEASE/9 7
#143000000
0!
#143500000
b0 1
1!
0=
b100 8
sFIFO_1/10 7
1/
#144000000
0!
#144500000
b1 1
1!
b101 8
sFIFO_2/11 7
02
#145000000
0!
#145500000
1!
b10 1
15
b0 8
sWAIT/0 7
04
10
13
#146000000
0!
#146500000
1!
b11 1
b1 >
05
b1 8
sX_WRITE/1 7
00
#147000000
0!
#147500000
sX_LATCH/2 7
b100 1
1!
19
#148000000
0!
#148500000
sX_RELEASE/3 7
b101 1
1!
09
#149000000
0!
#149500000
b10 8
sY_WRITE/4 7
b110 1
1!
#150000000
0!
#150500000
b111 1
1!
sY_LATCH/5 7
12
1:
#151000000
0!
#151500000
1!
b1000 1
sY_RELEASE/6 7
14
0:
03
#152000000
0!
#152500000
b1001 1
1!
1;
b0 8
sA_LATCH_&_ENABLE/7 7
0/
#153000000
0!
#153500000
b1010 1
1!
0;
b11 8
sA_READ/8 7
#154000000
0!
#154500000
b1011 1
1!
1=
b111 8
sA_RELEASE/9 7
#155000000
0!
#155500000
b0 1
1!
0=
b100 8
sFIFO_1/10 7
1/
#156000000
0!
#156500000
b1 1
1!
b101 8
sFIFO_2/11 7
02
#157000000
0!
#157500000
1!
b10 1
15
b0 8
sWAIT/0 7
04
10
13
#158000000
0!
#158500000
05
b1 8
sX_WRITE/1 7
1#
1$
1!
b11 1
b10 >
00
#159000000
0!
#159500000
sX_LATCH/2 7
b100 1
1!
19
#160000000
0!
#160500000
sX_RELEASE/3 7
b101 1
1!
09
#161000000
0!
#161500000
b10 8
sY_WRITE/4 7
b110 1
1!
#162000000
0!
#162500000
b111 1
1!
sY_LATCH/5 7
12
1:
#163000000
0!
#163500000
1!
b1000 1
sY_RELEASE/6 7
14
0:
03
#164000000
0!
#164500000
b1001 1
1!
1;
b0 8
sA_LATCH_&_ENABLE/7 7
0/
#165000000
0!
#165500000
b1010 1
1!
0;
b11 8
sA_READ/8 7
#166000000
0!
#166500000
b1011 1
1!
1=
b111 8
sA_RELEASE/9 7
#167000000
0!
#167500000
b0 1
1!
0=
b100 8
sFIFO_1/10 7
1/
#168000000
0!
#168500000
b1 1
1!
b101 8
sFIFO_2/11 7
02
#169000000
0!
#169500000
15
b0 8
sWAIT/0 7
04
13
16
1?
1!
b10 1
10
#170000000
0!
#170500000
b1010000000000 %
05
b1 8
sX_WRITE/1 7
b101 A
0#
0$
06
0?
1!
b11 1
b0 >
00
b1010000000000 &
#171000000
0!
#171500000
sX_LATCH/2 7
b100 1
1!
19
#172000000
0!
#172500000
sX_RELEASE/3 7
b101 1
1!
09
#173000000
0!
#173500000
b10 8
sY_WRITE/4 7
b110 1
1!
#174000000
0!
#174500000
b111 1
1!
sY_LATCH/5 7
12
1:
#175000000
0!
#175500000
1!
b1000 1
sY_RELEASE/6 7
14
0:
03
#176000000
0!
#176500000
b1001 1
1!
1;
b0 8
sA_LATCH_&_ENABLE/7 7
0/
#177000000
0!
#177500000
b1010 1
1!
0;
b11 8
sA_READ/8 7
#178000000
0!
#178500000
b1011 1
1!
1=
b111 8
sA_RELEASE/9 7
#179000000
0!
#179500000
b0 1
1!
0=
b100 8
sFIFO_1/10 7
1/
#180000000
0!
#180500000
b1 1
1!
b101 8
sFIFO_2/11 7
02
#181000000
0!
#181500000
1!
b10 1
15
b0 8
sWAIT/0 7
04
10
13
#182000000
0!
#182500000
1!
b11 1
b1 >
05
b1 8
sX_WRITE/1 7
00
#183000000
0!
#183500000
sX_LATCH/2 7
b100 1
1!
19
#184000000
0!
#184500000
sX_RELEASE/3 7
b101 1
1!
09
#185000000
0!
#185500000
b10 8
sY_WRITE/4 7
b110 1
1!
#186000000
0!
#186500000
b111 1
1!
sY_LATCH/5 7
12
1:
#187000000
0!
#187500000
1!
b1000 1
sY_RELEASE/6 7
14
0:
03
#188000000
0!
#188500000
b1001 1
1!
1;
b0 8
sA_LATCH_&_ENABLE/7 7
0/
#189000000
0!
#189500000
b1010 1
1!
0;
b11 8
sA_READ/8 7
#190000000
0!
#190500000
b1011 1
1!
1=
b111 8
sA_RELEASE/9 7
#191000000
0!
#191500000
b0 1
1!
0=
b100 8
sFIFO_1/10 7
1/
#192000000
0!
#192500000
b1 1
1!
b101 8
sFIFO_2/11 7
02
#193000000
0!
#193500000
1!
b10 1
15
b0 8
sWAIT/0 7
04
10
13
#194000000
0!
#194500000
05
b1 8
sX_WRITE/1 7
1#
1$
1!
b11 1
b10 >
00
#195000000
0!
#195500000
sX_LATCH/2 7
b100 1
1!
19
#196000000
0!
#196500000
sX_RELEASE/3 7
b101 1
1!
09
#197000000
0!
#197500000
b10 8
sY_WRITE/4 7
b110 1
1!
#198000000
0!
#198500000
b111 1
1!
sY_LATCH/5 7
12
1:
#199000000
0!
#199500000
1!
b1000 1
sY_RELEASE/6 7
14
0:
03
#200000000
0!
#200500000
b1001 1
1!
1;
b0 8
sA_LATCH_&_ENABLE/7 7
0/
#201000000
0!
#201500000
b1010 1
1!
0;
b11 8
sA_READ/8 7
#202000000
0!
#202500000
b1011 1
1!
1=
b111 8
sA_RELEASE/9 7
#203000000
0!
#203500000
b0 1
1!
0=
b100 8
sFIFO_1/10 7
1/
#204000000
0!
#204500000
b1 1
1!
b101 8
sFIFO_2/11 7
02
#205000000
0!
#205500000
15
b0 8
sWAIT/0 7
04
13
16
1?
1!
b10 1
10
#206000000
0!
#206500000
b1100000000000 %
05
b1 8
sX_WRITE/1 7
b110 A
0#
0$
06
0?
1!
b11 1
b0 >
00
b1100000000000 &
#207000000
0!
#207500000
sX_LATCH/2 7
b100 1
1!
19
#208000000
0!
#208500000
sX_RELEASE/3 7
b101 1
1!
09
#209000000
0!
#209500000
b10 8
sY_WRITE/4 7
b110 1
1!
#210000000
0!
#210500000
b111 1
1!
sY_LATCH/5 7
12
1:
#211000000
0!
#211500000
1!
b1000 1
sY_RELEASE/6 7
14
0:
03
#212000000
0!
#212500000
b1001 1
1!
1;
b0 8
sA_LATCH_&_ENABLE/7 7
0/
#213000000
0!
#213500000
b1010 1
1!
0;
b11 8
sA_READ/8 7
#214000000
0!
#214500000
b1011 1
1!
1=
b111 8
sA_RELEASE/9 7
#215000000
0!
#215500000
b0 1
1!
0=
b100 8
sFIFO_1/10 7
1/
#216000000
0!
#216500000
b1 1
1!
b101 8
sFIFO_2/11 7
02
#217000000
0!
#217500000
1!
b10 1
15
b0 8
sWAIT/0 7
04
10
13
#218000000
0!
#218500000
1!
b11 1
b1 >
05
b1 8
sX_WRITE/1 7
00
#219000000
0!
#219500000
sX_LATCH/2 7
b100 1
1!
19
#220000000
0!
#220500000
sX_RELEASE/3 7
b101 1
1!
09
#221000000
0!
#221500000
b10 8
sY_WRITE/4 7
b110 1
1!
#222000000
0!
#222500000
b111 1
1!
sY_LATCH/5 7
12
1:
#223000000
0!
#223500000
1!
b1000 1
sY_RELEASE/6 7
14
0:
03
#224000000
0!
#224500000
b1001 1
1!
1;
b0 8
sA_LATCH_&_ENABLE/7 7
0/
#225000000
0!
#225500000
b1010 1
1!
0;
b11 8
sA_READ/8 7
#226000000
0!
#226500000
b1011 1
1!
1=
b111 8
sA_RELEASE/9 7
#227000000
0!
#227500000
b0 1
1!
0=
b100 8
sFIFO_1/10 7
1/
#228000000
0!
#228500000
b1 1
1!
b101 8
sFIFO_2/11 7
02
#229000000
0!
#229500000
1!
b10 1
15
b0 8
sWAIT/0 7
04
10
13
#230000000
0!
#230500000
05
b1 8
sX_WRITE/1 7
1#
1$
1!
b11 1
b10 >
00
#231000000
0!
#231500000
sX_LATCH/2 7
b100 1
1!
19
#232000000
0!
#232500000
sX_RELEASE/3 7
b101 1
1!
09
#233000000
0!
#233500000
b10 8
sY_WRITE/4 7
b110 1
1!
#234000000
0!
#234500000
b111 1
1!
sY_LATCH/5 7
12
1:
#235000000
0!
#235500000
1!
b1000 1
sY_RELEASE/6 7
14
0:
03
#236000000
0!
#236500000
b1001 1
1!
1;
b0 8
sA_LATCH_&_ENABLE/7 7
0/
#237000000
0!
#237500000
b1010 1
1!
0;
b11 8
sA_READ/8 7
#238000000
0!
#238500000
b1011 1
1!
1=
b111 8
sA_RELEASE/9 7
#239000000
0!
#239500000
b0 1
1!
0=
b100 8
sFIFO_1/10 7
1/
#240000000
0!
#240500000
b1 1
1!
b101 8
sFIFO_2/11 7
02
#241000000
0!
#241500000
15
b0 8
sWAIT/0 7
04
13
16
1?
1!
b10 1
10
#242000000
0!
#242500000
b1110000000000 %
05
b1 8
sX_WRITE/1 7
b111 A
0#
0$
06
0?
1!
b11 1
b0 >
00
b1110000000000 &
#243000000
0!
#243500000
sX_LATCH/2 7
b100 1
1!
19
#244000000
0!
#244500000
sX_RELEASE/3 7
b101 1
1!
09
#245000000
0!
#245500000
b10 8
sY_WRITE/4 7
b110 1
1!
#246000000
0!
#246500000
b111 1
1!
sY_LATCH/5 7
12
1:
#247000000
0!
#247500000
1!
b1000 1
sY_RELEASE/6 7
14
0:
03
#248000000
0!
#248500000
b1001 1
1!
1;
b0 8
sA_LATCH_&_ENABLE/7 7
0/
#249000000
0!
#249500000
b1010 1
1!
0;
b11 8
sA_READ/8 7
#250000000
0!
#250500000
b1011 1
1!
1=
b111 8
sA_RELEASE/9 7
#251000000
0!
#251500000
b0 1
1!
0=
b100 8
sFIFO_1/10 7
1/
#252000000
0!
#252500000
b1 1
1!
b101 8
sFIFO_2/11 7
02
#253000000
0!
#253500000
1!
b10 1
15
b0 8
sWAIT/0 7
04
10
13
#254000000
0!
#254500000
1!
b11 1
b1 >
05
b1 8
sX_WRITE/1 7
00
#255000000
0!
#255500000
sX_LATCH/2 7
b100 1
1!
19
#256000000
0!
#256500000
sX_RELEASE/3 7
b101 1
1!
09
#257000000
0!
#257500000
b10 8
sY_WRITE/4 7
b110 1
1!
#258000000
0!
#258500000
b111 1
1!
sY_LATCH/5 7
12
1:
#259000000
0!
#259500000
1!
b1000 1
sY_RELEASE/6 7
14
0:
03
#260000000
0!
#260500000
b1001 1
1!
1;
b0 8
sA_LATCH_&_ENABLE/7 7
0/
#261000000
0!
#261500000
b1010 1
1!
0;
b11 8
sA_READ/8 7
#262000000
0!
#262500000
b1011 1
1!
1=
b111 8
sA_RELEASE/9 7
#263000000
0!
#263500000
b0 1
1!
0=
b100 8
sFIFO_1/10 7
1/
#264000000
0!
#264500000
b1 1
1!
b101 8
sFIFO_2/11 7
02
#265000000
0!
#265500000
1!
b10 1
15
b0 8
sWAIT/0 7
04
10
13
#266000000
0!
#266500000
05
b1 8
sX_WRITE/1 7
1#
1$
1!
b11 1
b10 >
00
#267000000
0!
#267500000
sX_LATCH/2 7
b100 1
1!
19
#268000000
0!
#268500000
sX_RELEASE/3 7
b101 1
1!
09
#269000000
0!
#269500000
b10 8
sY_WRITE/4 7
b110 1
1!
#270000000
0!
#270500000
b111 1
1!
sY_LATCH/5 7
12
1:
#271000000
0!
#271500000
1!
b1000 1
sY_RELEASE/6 7
14
0:
03
#272000000
0!
#272500000
b1001 1
1!
1;
b0 8
sA_LATCH_&_ENABLE/7 7
0/
#273000000
0!
#273500000
b1010 1
1!
0;
b11 8
sA_READ/8 7
#274000000
0!
#274500000
b1011 1
1!
1=
b111 8
sA_RELEASE/9 7
#275000000
0!
#275500000
b0 1
1!
0=
b100 8
sFIFO_1/10 7
1/
#276000000
0!
#276500000
b1 1
1!
b101 8
sFIFO_2/11 7
02
#277000000
0!
#277500000
15
b0 8
sWAIT/0 7
04
13
16
1?
1!
b10 1
10
#278000000
0!
#278500000
b10000000000000 %
05
b1 8
sX_WRITE/1 7
b1000 A
0#
0$
06
0?
1!
b11 1
b0 >
00
b10000000000000 &
#279000000
0!
#279500000
sX_LATCH/2 7
b100 1
1!
19
#280000000
0!
#280500000
sX_RELEASE/3 7
b101 1
1!
09
#281000000
0!
#281500000
b10 8
sY_WRITE/4 7
b110 1
1!
#282000000
0!
#282500000
b111 1
1!
sY_LATCH/5 7
12
1:
#283000000
0!
#283500000
1!
b1000 1
sY_RELEASE/6 7
14
0:
03
#284000000
0!
#284500000
b1001 1
1!
1;
b0 8
sA_LATCH_&_ENABLE/7 7
0/
#285000000
0!
#285500000
b1010 1
1!
0;
b11 8
sA_READ/8 7
#286000000
0!
#286500000
b1011 1
1!
1=
b111 8
sA_RELEASE/9 7
#287000000
0!
#287500000
b0 1
1!
0=
b100 8
sFIFO_1/10 7
1/
#288000000
0!
#288500000
b1 1
1!
b101 8
sFIFO_2/11 7
02
#289000000
0!
#289500000
1!
b10 1
15
b0 8
sWAIT/0 7
04
10
13
#290000000
0!
#290500000
1!
b11 1
b1 >
05
b1 8
sX_WRITE/1 7
00
#291000000
0!
#291500000
sX_LATCH/2 7
b100 1
1!
19
#292000000
0!
#292500000
sX_RELEASE/3 7
b101 1
1!
09
#293000000
0!
#293500000
b10 8
sY_WRITE/4 7
b110 1
1!
#294000000
0!
#294500000
b111 1
1!
sY_LATCH/5 7
12
1:
#295000000
0!
#295500000
1!
b1000 1
sY_RELEASE/6 7
14
0:
03
#296000000
0!
#296500000
b1001 1
1!
1;
b0 8
sA_LATCH_&_ENABLE/7 7
0/
#297000000
0!
#297500000
b1010 1
1!
0;
b11 8
sA_READ/8 7
#298000000
0!
#298500000
b1011 1
1!
1=
b111 8
sA_RELEASE/9 7
#299000000
0!
#299500000
b0 1
1!
0=
b100 8
sFIFO_1/10 7
1/
#300000000
0!
#300500000
b1 1
1!
b101 8
sFIFO_2/11 7
02
#301000000
0!
#301500000
1!
b10 1
15
b0 8
sWAIT/0 7
04
10
13
#302000000
0!
#302500000
05
b1 8
sX_WRITE/1 7
1#
1$
1!
b11 1
b10 >
00
#303000000
0!
#303500000
sX_LATCH/2 7
b100 1
1!
19
#304000000
0!
#304500000
sX_RELEASE/3 7
b101 1
1!
09
#305000000
0!
#305500000
b10 8
sY_WRITE/4 7
b110 1
1!
#306000000
0!
#306500000
b111 1
1!
sY_LATCH/5 7
12
1:
#307000000
0!
#307500000
1!
b1000 1
sY_RELEASE/6 7
14
0:
03
#308000000
0!
#308500000
b1001 1
1!
1;
b0 8
sA_LATCH_&_ENABLE/7 7
0/
#309000000
0!
#309500000
b1010 1
1!
0;
b11 8
sA_READ/8 7
#310000000
0!
#310500000
b1011 1
1!
1=
b111 8
sA_RELEASE/9 7
#311000000
0!
#311500000
b0 1
1!
0=
b100 8
sFIFO_1/10 7
1/
#312000000
0!
#312500000
b1 1
1!
b101 8
sFIFO_2/11 7
02
#313000000
0!
#313500000
15
b0 8
sWAIT/0 7
04
13
16
1?
1!
b10 1
10
#314000000
0!
#314500000
b10010000000000 %
05
b1 8
sX_WRITE/1 7
b1001 A
0#
0$
06
0?
1!
b11 1
b0 >
00
b10010000000000 &
#315000000
0!
#315500000
sX_LATCH/2 7
b100 1
1!
19
#316000000
0!
#316500000
sX_RELEASE/3 7
b101 1
1!
09
#317000000
0!
#317500000
b10 8
sY_WRITE/4 7
b110 1
1!
#318000000
0!
#318500000
b111 1
1!
sY_LATCH/5 7
12
1:
#319000000
0!
#319500000
1!
b1000 1
sY_RELEASE/6 7
14
0:
03
#320000000
0!
#320500000
b1001 1
1!
1;
b0 8
sA_LATCH_&_ENABLE/7 7
0/
#321000000
0!
#321500000
b1010 1
1!
0;
b11 8
sA_READ/8 7
#322000000
0!
