scan_sim_average.vcd
$comment Generated by Amaranth $end
$date 2023-07-11 18:23:13.123654 $end
$timescale 1 ps $end
$scope module bench $end
$scope module top $end
$var wire 1 ! clk $end
$var wire 1 " rst $end
$var wire 1 # en $end
$var wire 8 $ state $end
$var string 1 % fsm_state $end
$var wire 14 & P1 $end
$var wire 15 ' running_average $end
$var wire 14 ( average_output $end
$var wire 14 ) P2 $end
$var wire 14 * in_pixel $end
$var wire 1 + ovf $end
$scope module dwell_ctr $end
$var wire 1 ! clk $end
$var wire 1 " rst $end
$var wire 1 # en $end
$var wire 1 + ovf $end
$var wire 4 , count $end
$upscope $end
$upscope $end
$upscope $end
$enddefinitions $end
#0
$dumpvars
0!
0"
0#
b0 $
sExternal/0 %
b0 &
b0 '
b0 (
b0 )
b0 *
0+
b0 ,
$end
#500000
1!
b1 $
b10011000 *
sWrite/1 %
#1000000
0!
#1500000
1!
b10011000 &
1#
sIncrement/3 %
b11 $
#2000000
0!
#2500000
1!
0#
sShuffle/4 %
b1 ,
b100 $
#3000000
0!
#3500000
1!
b0 $
b10011011 *
sExternal/0 %
#4000000
0!
#4500000
1!
b1 $
sWrite/1 %
#5000000
0!
#5500000
1!
b10011011 &
1#
sIncrement/3 %
b10011000 '
b11 $
#6000000
0!
#6500000
1!
0#
sShuffle/4 %
b10 ,
b100 $
#7000000
0!
#7500000
1!
b10011111 *
sExternal/0 %
b0 $
b10011000 )
#8000000
0!
#8500000
1!
b1 $
sWrite/1 %
#9000000
0!
#9500000
1!
b10011111 &
b10 $
sCalculate/2 %
#10000000
0!
#10500000
1!
1#
sIncrement/3 %
b10011011 '
b11 $
#11000000
0!
#11500000
1!
b10011110 *
0#
sShuffle/4 %
b11 ,
b100 $
#12000000
0!
#12500000
1!
b0 $
sExternal/0 %
b10011011 )
#13000000
0!
#13500000
1!
b1 $
sWrite/1 %
#14000000
0!
#14500000
1!
b10011110 &
b10 $
sCalculate/2 %
#15000000
0!
#15500000
1!
b10011001 *
1#
sIncrement/3 %
b10011100 '
b11 $
#16000000
0!
#16500000
1!
0#
sShuffle/4 %
b100 ,
b100 $
#17000000
0!
#17500000
1!
b0 $
sExternal/0 %
b10011100 )
#18000000
0!
#18500000
1!
b1 $
sWrite/1 %
#19000000
0!
#19500000
1!
b10011001 &
b10011000 *
sCalculate/2 %
b10 $
#20000000
0!
#20500000
1!
1#
sIncrement/3 %
b10011010 '
b11 $
#21000000
0!
#21500000
1!
0#
sShuffle/4 %
b101 ,
b100 $
#22000000
0!
#22500000
1!
b0 $
sExternal/0 %
b10011010 )
#23000000
0!
#23500000
1!
b1 $
b10011100 *
sWrite/1 %
#24000000
0!
#24500000
1!
b10011100 &
b10 $
sCalculate/2 %
#25000000
0!
#25500000
1!
1#
sIncrement/3 %
b10011011 '
b11 $
#26000000
0!
#26500000
1!
0#
sShuffle/4 %
b110 ,
b100 $
#27000000
0!
#27500000
1!
b10011110 *
sExternal/0 %
b0 $
b10011011 )
#28000000
0!
#28500000
1!
b1 $
sWrite/1 %
#29000000
0!
#29500000
1!
b10011110 &
b10 $
sCalculate/2 %
#30000000
0!
#30500000
1!
1#
sIncrement/3 %
b10011100 '
b11 $
#31000000
0!
#31500000
1!
b10011001 *
0#
sShuffle/4 %
b111 ,
b100 $
#32000000
0!
#32500000
1!
b0 $
sExternal/0 %
b10011100 )
#33000000
0!
#33500000
1!
b1 $
sWrite/1 %
#34000000
0!
#34500000
1!
b10011001 &
b10 $
sCalculate/2 %
#35000000
0!
#35500000
1!
b10011111 *
1#
sIncrement/3 %
b10011010 '
b11 $
#36000000
0!
#36500000
1!
0#
sShuffle/4 %
b1000 ,
b100 $
#37000000
0!
#37500000
1!
b0 $
sExternal/0 %
b10011010 )
#38000000
0!
#38500000
1!
b1 $
sWrite/1 %
#39000000
0!
#39500000
1!
b10011111 &
b10010101 *
sCalculate/2 %
b10 $
#40000000
0!
#40500000
1!
1#
sIncrement/3 %
b10011100 '
b11 $
#41000000
0!
#41500000
1!
0#
sShuffle/4 %
b1001 ,
b100 $
1+
#42000000
0!
#42500000
1!
b10011100 (
b10011100 *
sExternal/0 %
b0 $
b0 )
#43000000
0!
#43500000
1!
b1 $
sWrite/1 %
#44000000
0!
#44500000
1!
b10011100 &
1#
sIncrement/3 %
b10011111 '
b11 $
#45000000
0!
#45500000
1!
0#
sShuffle/4 %
b0 ,
b100 $
0+
#46000000
0!
#46500000
1!
b0 $
sExternal/0 %
b10011111 )
#47000000
0!
#47500000
1!
b1 $
sWrite/1 %
#48000000
0!
#48500000
1!
b10 $
sCalculate/2 %
#49000000
0!
#49500000
1!
b10011001 *
1#
sIncrement/3 %
b10011101 '
b11 $
#50000000
0!
#50500000
1!
0#
sShuffle/4 %
b1 ,
b100 $
#51000000
0!
#51500000
1!
b0 $
sExternal/0 %
b10011101 )
#52000000
0!
#52500000
1!
b1 $
sWrite/1 %
#53000000
0!
#53500000
1!
b10011001 &
b10 $
sCalculate/2 %
#54000000
0!
#54500000
1!
1#
sIncrement/3 %
b10011011 '
b11 $
#55000000
0!
#55500000
1!
0#
sShuffle/4 %
b10 ,
b100 $
#56000000
0!
#56500000
1!
b0 $
sExternal/0 %
b10011011 )
#57000000
0!
#57500000
1!
b1 $
b10010111 *
sWrite/1 %
#58000000
0!
#58500000
1!
b10010111 &
b10 $
sCalculate/2 %
#59000000
0!
#59500000
1!
1#
sIncrement/3 %
b10011001 '
b11 $
#60000000
0!
#60500000
1!
0#
sShuffle/4 %
b11 ,
b100 $
#61000000
0!
#61500000
1!
b10011000 *
sExternal/0 %
b0 $
b10011001 )
#62000000
0!
#62500000
1!
b1 $
sWrite/1 %
#63000000
0!
#63500000
1!
b10011000 &
b10 $
sCalculate/2 %
#64000000
0!
#64500000
1!
1#
sIncrement/3 %
b10011000 '
b11 $
#65000000
0!
#65500000
1!
b10010110 *
0#
sShuffle/4 %
b100 ,
b100 $
#66000000
0!
#66500000
1!
b0 $
sExternal/0 %
b10011000 )
#67000000
0!
#67500000
1!
b1 $
sWrite/1 %
#68000000
0!
#68500000
1!
b10010110 &
b10 $
sCalculate/2 %
#69000000
0!
#69500000
1!
b10010100 *
1#
sIncrement/3 %
b10010111 '
b11 $
#70000000
0!
#70500000
1!
0#
sShuffle/4 %
b101 ,
b100 $
#71000000
0!
#71500000
1!
b0 $
sExternal/0 %
b10010111 )
#72000000
0!
#72500000
1!
b1 $
sWrite/1 %
#73000000
0!
#73500000
1!
b10010100 &
b10011100 *
sCalculate/2 %
b10 $
#74000000
0!
#74500000
1!
1#
sIncrement/3 %
b10010101 '
b11 $
#75000000
0!
#75500000
1!
0#
sShuffle/4 %
b110 ,
b100 $
#76000000
0!
#76500000
1!
b0 $
sExternal/0 %
b10010101 )
#77000000
0!
#77500000
1!
b1 $
b10010111 *
sWrite/1 %
#78000000
0!
#78500000
1!
b10010111 &
b10 $
sCalculate/2 %
#79000000
0!
#79500000
1!
1#
sIncrement/3 %
b10010110 '
b11 $
#80000000
0!
#80500000
1!
0#
sShuffle/4 %
b111 ,
b100 $
#81000000
0!
#81500000
1!
b10010110 *
sExternal/0 %
b0 $
b10010110 )
#82000000
0!
#82500000
1!
b1 $
sWrite/1 %
#83000000
0!
#83500000
1!
b10010110 &
b10 $
sCalculate/2 %
#84000000
0!
#84500000
1!
b11 $
1#
sIncrement/3 %
#85000000
0!
#85500000
1!
0#
sShuffle/4 %
b1000 ,
b100 $
#86000000
0!
#86500000
1!
b0 $
sExternal/0 %
#87000000
0!
#87500000
1!
b1 $
b10011010 *
sWrite/1 %
#88000000
0!
#88500000
1!
b10011010 &
b10 $
sCalculate/2 %
#89000000
0!
#89500000
1!
1#
sIncrement/3 %
b10011000 '
b11 $
#90000000
0!
#90500000
1!
0#
sShuffle/4 %
b1001 ,
b100 $
1+
#91000000
0!
#91500000
1!
b10011000 (
b10011001 *
sExternal/0 %
b0 $
b0 )
#92000000
0!
#92500000
1!
b1 $
sWrite/1 %
#93000000
0!
#93500000
1!
b10011001 &
1#
sIncrement/3 %
b10011010 '
b11 $
#94000000
0!
#94500000
1!
0#
sShuffle/4 %
b0 ,
b100 $
0+
#95000000
0!
#95500000
1!
b10010101 *
sExternal/0 %
b0 $
b10011010 )
#96000000
0!
#96500000
1!
b1 $
sWrite/1 %
#97000000
0!
#97500000
1!
b10010101 &
b10 $
sCalculate/2 %
#98000000
0!
#98500000
1!
1#
sIncrement/3 %
b10010111 '
b11 $
#99000000
0!
#99500000
1!
b10011010 *
0#
sShuffle/4 %
b1 ,
b100 $
#100000000
0!
#100500000
1!
b0 $
sExternal/0 %
b10010111 )
#101000000
0!
#101500000
1!
b1 $
sWrite/1 %
#102000000
0!
#102500000
1!
b10011010 &
b10 $
sCalculate/2 %
#103000000
0!
#103500000
1!
b10011000 *
1#
sIncrement/3 %
b10011000 '
b11 $
#104000000
0!
#104500000
1!
0#
sShuffle/4 %
b10 ,
b100 $
#105000000
0!
#105500000
1!
b0 $
sExternal/0 %
b10011000 )
#106000000
0!
#106500000
1!
b1 $
sWrite/1 %
#107000000
0!
#107500000
1!
b10011000 &
b10010111 *
sCalculate/2 %
b10 $
#108000000
0!
#108500000
1!
b11 $
1#
sIncrement/3 %
#109000000
0!
#109500000
1!
0#
sShuffle/4 %
b11 ,
b100 $
#110000000
0!
#110500000
1!
b0 $
sExternal/0 %
#111000000
0!
#111500000
1!
b1 $
b10011000 *
sWrite/1 %
#112000000
0!
#112500000
1!
b10 $
sCalculate/2 %
#113000000
0!
#113500000
1!
b11 $
1#
sIncrement/3 %
#114000000
0!
#114500000
1!
0#
sShuffle/4 %
b100 ,
b100 $
#115000000
0!
#115500000
1!
b0 $
b10010100 *
sExternal/0 %
#116000000
0!
#116500000
1!
b1 $
sWrite/1 %
#117000000
0!
#117500000
1!
b10010100 &
b10 $
sCalculate/2 %
#118000000
0!
#118500000
1!
1#
sIncrement/3 %
b10010110 '
b11 $
#119000000
0!
#119500000
1!
b10010011 *
0#
sShuffle/4 %
b101 ,
b100 $
#120000000
0!
#120500000
1!
b0 $
sExternal/0 %
b10010110 )
#121000000
0!
#121500000
1!
b1 $
sWrite/1 %
#122000000
0!
#122500000
1!
b10010011 &
b10 $
sCalculate/2 %
#123000000
0!
#123500000
1!
b10010101 *
1#
sIncrement/3 %
b10010100 '
b11 $
#124000000
0!
#124500000
1!
0#
sShuffle/4 %
b110 ,
b100 $
#125000000
0!
#125500000
1!
b0 $
sExternal/0 %
b10010100 )
#126000000
0!
#126500000
1!
b1 $
sWrite/1 %
