scan_sim_average.vcd
$comment Generated by Amaranth $end
$date 2023-07-11 16:58:01.043076 $end
$timescale 1 ps $end
$scope module bench $end
$scope module top $end
$var wire 1 ! clk $end
$var wire 1 " rst $end
$var wire 14 # in_pixel $end
$var wire 1 $ en $end
$var wire 14 % current_pixel $end
$var wire 15 & running_average $end
$var wire 1 ' ovf $end
$scope module dwell_ctr $end
$var wire 1 ! clk $end
$var wire 1 " rst $end
$var wire 1 $ en $end
$var wire 1 ' ovf $end
$var wire 4 ( count $end
$upscope $end
$upscope $end
$upscope $end
$enddefinitions $end
#0
$dumpvars
0!
0"
b0 #
1$
b0 %
b0 &
0'
b0 (
$end
#500000
1!
b10011100 #
b1 (
#1000000
0!
#1500000
b10 (
b0 #
1!
b10011100 %
b10011011 &
#2000000
0!
#2500000
b11 (
1!
b0 %
b0 &
#3000000
0!
#3500000
1!
b10011000 #
b100 (
#4000000
0!
#4500000
b101 (
b0 #
1!
b10011000 %
b10010111 &
#5000000
0!
#5500000
b110 (
1!
b0 %
b0 &
#6000000
0!
#6500000
1!
b10011010 #
b111 (
#7000000
0!
#7500000
b1000 (
b0 #
1!
b10011010 %
b10011001 &
#8000000
0!
#8500000
b1001 (
1!
b0 %
1'
b0 &
#9000000
0!
#9500000
b0 (
1!
0'
#10000000
0!
#10500000
1!
b10011100 #
b1 (
#11000000
0!
#11500000
b10 (
b0 #
1!
b10011100 %
b10011011 &
#12000000
0!
#12500000
b11 (
1!
b0 %
b0 &
#13000000
0!
#13500000
1!
b10010101 #
b100 (
#14000000
0!
#14500000
b101 (
b0 #
1!
b10010101 %
b10010100 &
#15000000
0!
#15500000
b110 (
1!
b0 %
b0 &
#16000000
0!
#16500000
1!
b10011100 #
b111 (
#17000000
0!
#17500000
b1000 (
b0 #
1!
b10011100 %
b10011011 &
#18000000
0!
#18500000
b1001 (
1!
b0 %
1'
b0 &
#19000000
0!
#19500000
b0 (
1!
0'
#20000000
0!
#20500000
1!
b10011001 #
b1 (
#21000000
0!
#21500000
b10 (
b0 #
1!
b10011001 %
b10011000 &
#22000000
0!
#22500000
b11 (
1!
b0 %
b0 &
#23000000
0!
#23500000
1!
b10010101 #
b100 (
#24000000
0!
#24500000
b101 (
b0 #
1!
b10010101 %
b10010100 &
#25000000
0!
#25500000
b110 (
1!
b0 %
b0 &
#26000000
0!
#26500000
1!
b10010110 #
b111 (
#27000000
0!
#27500000
b1000 (
b0 #
1!
b10010110 %
b10010101 &
#28000000
0!
#28500000
b1001 (
1!
b0 %
1'
b0 &
#29000000
0!
#29500000
b0 (
1!
0'
#30000000
0!
#30500000
1!
b10010110 #
b1 (
#31000000
0!
#31500000
b10 (
b0 #
1!
b10010110 %
b10010101 &
#32000000
0!
#32500000
b11 (
1!
b0 %
b0 &
#33000000
0!
#33500000
1!
b10011011 #
b100 (
#34000000
0!
#34500000
b101 (
b0 #
1!
b10011011 %
b10011010 &
#35000000
0!
#35500000
b110 (
1!
b0 %
b0 &
#36000000
0!
#36500000
1!
b10011001 #
b111 (
#37000000
0!
#37500000
b1000 (
b0 #
1!
b10011001 %
b10011000 &
#38000000
0!
#38500000
b1001 (
1!
b0 %
1'
b0 &
#39000000
0!
#39500000
b0 (
1!
0'
#40000000
0!
#40500000
1!
b10011101 #
b1 (
#41000000
0!
#41500000
b10 (
b0 #
1!
b10011101 %
b10011100 &
#42000000
0!
#42500000
b11 (
1!
b0 %
b0 &
#43000000
0!
#43500000
1!
b10011101 #
b100 (
#44000000
0!
#44500000
b101 (
b0 #
1!
b10011101 %
b10011100 &
#45000000
0!
#45500000
b110 (
1!
b0 %
b0 &
#46000000
0!
#46500000
1!
b10011010 #
b111 (
#47000000
0!
#47500000
b1000 (
b0 #
1!
b10011010 %
b10011001 &
#48000000
0!
#48500000
b1001 (
1!
b0 %
1'
b0 &
#49000000
0!
#49500000
b0 (
1!
0'
#50000000
0!
#50500000
1!
b10011000 #
b1 (
#51000000
0!
#51500000
b10 (
b0 #
1!
b10011000 %
b10010111 &
#52000000
0!
#52500000
b11 (
1!
b0 %
b0 &
#53000000
0!
#53500000
1!
b10011011 #
b100 (
#54000000
0!
#54500000
b101 (
b0 #
1!
b10011011 %
b10011010 &
#55000000
0!
#55500000
b110 (
1!
b0 %
b0 &
#56000000
0!
#56500000
1!
b10010100 #
b111 (
#57000000
0!
#57500000
b1000 (
b0 #
1!
b10010100 %
b10010011 &
#58000000
0!
#58500000
b1001 (
1!
b0 %
1'
b0 &
#59000000
0!
#59500000
b0 (
1!
0'
#60000000
0!
#60500000
1!
b10011001 #
b1 (
#61000000
0!
#61500000
b10 (
b0 #
1!
b10011001 %
b10011000 &
#62000000
0!
#62500000
b11 (
1!
b0 %
b0 &
#63000000
0!
#63500000
1!
b10010011 #
b100 (
#64000000
0!
#64500000
b101 (
b0 #
1!
b10010011 %
b10010010 &
#65000000
0!
#65500000
b110 (
1!
b0 %
b0 &
#66000000
0!
#66500000
1!
b10010101 #
b111 (
#67000000
0!
#67500000
b1000 (
b0 #
1!
b10010101 %
b10010100 &
#68000000
0!
#68500000
b1001 (
1!
b0 %
1'
b0 &
#69000000
0!
#69500000
b0 (
1!
0'
#70000000
0!
#70500000
1!
b10010111 #
b1 (
#71000000
0!
#71500000
b10 (
b0 #
1!
b10010111 %
b10010110 &
#72000000
0!
#72500000
b11 (
1!
b0 %
b0 &
#73000000
0!
#73500000
1!
b10010101 #
b100 (
#74000000
0!
#74500000
b101 (
b0 #
1!
b10010101 %
b10010100 &
#75000000
0!
#75500000
b110 (
1!
b0 %
b0 &
#76000000
0!
#76500000
1!
b10010111 #
b111 (
#77000000
0!
#77500000
b1000 (
b0 #
1!
b10010111 %
b10010110 &
#78000000
0!
#78500000
b1001 (
1!
b0 %
1'
b0 &
#79000000
0!
#79500000
b0 (
1!
0'
#80000000
0!
#80500000
1!
b10011100 #
b1 (
#81000000
0!
#81500000
b10 (
b0 #
1!
b10011100 %
b10011011 &
#82000000
0!
#82500000
b11 (
1!
b0 %
b0 &
#83000000
0!
#83500000
1!
b10011100 #
b100 (
#84000000
0!
#84500000
b101 (
b0 #
1!
b10011100 %
b10011011 &
#85000000
0!
#85500000
b110 (
1!
b0 %
b0 &
#86000000
0!
#86500000
1!
b10011001 #
b111 (
#87000000
0!
#87500000
b1000 (
b0 #
1!
b10011001 %
b10011000 &
#88000000
0!
#88500000
b1001 (
1!
b0 %
1'
b0 &
#89000000
0!
#89500000
b0 (
1!
0'
#90000000
0!
#90500000
1!
b10010110 #
b1 (
#91000000
0!
#91500000
b10 (
b0 #
1!
b10010110 %
b10010101 &
#92000000
0!
#92500000
b11 (
1!
b0 %
b0 &
#93000000
0!
#93500000
1!
b10011101 #
b100 (
#94000000
0!
#94500000
b101 (
b0 #
1!
b10011101 %
b10011100 &
#95000000
0!
#95500000
b110 (
1!
b0 %
b0 &
#96000000
0!
#96500000
1!
b10011100 #
b111 (
#97000000
0!
#97500000
b1000 (
b0 #
1!
b10011100 %
b10011011 &
#98000000
0!
#98500000
b1001 (
1!
b0 %
1'
b0 &
#99000000
0!
#99500000
b0 (
1!
0'
#100000000
0!
#100500000
1!
b10010010 #
b1 (
#101000000
0!
#101500000
b10 (
b0 #
1!
b10010010 %
b10010001 &
#102000000
0!
#102500000
b11 (
1!
b0 %
b0 &
#103000000
0!
#103500000
1!
b10010110 #
b100 (
#104000000
0!
#104500000
b101 (
b0 #
1!
b10010110 %
b10010101 &
#105000000
0!
#105500000
b110 (
1!
b0 %
b0 &
#106000000
0!
#106500000
1!
b10010111 #
b111 (
#107000000
0!
#107500000
b1000 (
b0 #
1!
b10010111 %
b10010110 &
#108000000
0!
#108500000
b1001 (
1!
b0 %
1'
b0 &
#109000000
0!
#109500000
b0 (
1!
0'
#110000000
0!
#110500000
1!
b10011001 #
b1 (
#111000000
0!
#111500000
b10 (
b0 #
1!
b10011001 %
b10011000 &
#112000000
0!
#112500000
b11 (
1!
b0 %
b0 &
#113000000
0!
#113500000
1!
b10011010 #
b100 (
#114000000
0!
#114500000
b101 (
b0 #
1!
b10011010 %
b10011001 &
#115000000
0!
#115500000
b110 (
1!
b0 %
b0 &
#116000000
0!
#116500000
1!
b10011000 #
b111 (
#117000000
0!
#117500000
b1000 (
b0 #
1!
b10011000 %
b10010111 &
#118000000
0!
#118500000
b1001 (
1!
b0 %
1'
b0 &
#119000000
0!
#119500000
b0 (
1!
0'
#120000000
0!
#120500000
1!
b10010111 #
b1 (
#121000000
0!
#121500000
b10 (
b0 #
1!
b10010111 %
b10010110 &
#122000000
0!
#122500000
b11 (
1!
b0 %
b0 &
#123000000
0!
#123500000
1!
b10011100 #
b100 (
#124000000
0!
#124500000
b101 (
b0 #
1!
b10011100 %
b10011011 &
#125000000
0!
#125500000
b110 (
1!
b0 %
b0 &
#126000000
0!
#126500000
1!
b10011100 #
b111 (
#127000000
0!
#127500000
b1000 (
b0 #
1!
b10011100 %
b10011011 &
#128000000
0!
#128500000
b1001 (
1!
b0 %
1'
b0 &
#129000000
0!
#129500000
b0 (
1!
0'
#130000000
0!
#130500000
1!
b10011011 #
b1 (
#131000000
0!
#131500000
b10 (
b0 #
1!
b10011011 %
b10011010 &
#132000000
0!
#132500000
b11 (
1!
b0 %
b0 &
#133000000
0!
#133500000
1!
b10011001 #
b100 (
#134000000
0!
#134500000
b101 (
b0 #
1!
b10011001 %
b10011000 &
#135000000
0!
#135500000
b110 (
1!
b0 %
b0 &
#136000000
0!
#136500000
1!
b10010101 #
b111 (
#137000000
0!
#137500000
b1000 (
b0 #
1!
b10010101 %
b10010100 &
#138000000
0!
#138500000
b1001 (
1!
b0 %
1'
b0 &
#139000000
0!
#139500000
b0 (
1!
0'
#140000000
0!
#140500000
1!
b10011000 #
b1 (
#141000000
0!
#141500000
b10 (
b0 #
1!
b10011000 %
b10010111 &
#142000000
0!
#142500000
b11 (
1!
b0 %
b0 &
#143000000
0!
#143500000
1!
b10011011 #
b100 (
#144000000
0!
#144500000
b101 (
b0 #
1!
b10011011 %
b10011010 &
#145000000
0!
#145500000
b110 (
1!
b0 %
b0 &
#146000000
0!
#146500000
1!
b10011100 #
b111 (
#147000000
0!
#147500000
b1000 (
b0 #
1!
b10011100 %
b10011011 &
#148000000
0!
#148500000
b1001 (
1!
b0 %
1'
b0 &
#149000000
0!
#149500000
b0 (
1!
0'
#150000000
0!
#150500000
1!
b10010011 #
b1 (
#151000000
0!
#151500000
b10 (
b0 #
1!
b10010011 %
b10010010 &
#152000000
0!
#152500000
b11 (
1!
b0 %
b0 &
#153000000
0!
#153500000
1!
b10010011 #
b100 (
#154000000
0!
#154500000
b101 (
b0 #
1!
b10010011 %
b10010010 &
#155000000
0!
#155500000
b110 (
1!
b0 %
b0 &
#156000000
0!
#156500000
1!
b10010000 #
b111 (
#157000000
0!
#157500000
b1000 (
b0 #
1!
b10010000 %
b10001111 &
#158000000
0!
#158500000
b1001 (
1!
b0 %
1'
b0 &
#159000000
0!
#159500000
b0 (
1!
0'
#160000000
0!
#160500000
1!
b10011001 #
b1 (
#161000000
0!
#161500000
b10 (
b0 #
1!
b10011001 %
b10011000 &
#162000000
0!
#162500000
b11 (
1!
b0 %
b0 &
#163000000
0!
#163500000
1!
b10010100 #
b100 (
#164000000
0!
#164500000
b101 (
b0 #
1!
b10010100 %
b10010011 &
#165000000
0!
#165500000
b110 (
1!
b0 %
b0 &
#166000000
0!
#166500000
1!
b10010111 #
b111 (
#167000000
0!
#167500000
b1000 (
b0 #
1!
b10010111 %
b10010110 &
#168000000
0!
#168500000
b1001 (
1!
b0 %
1'
b0 &
#169000000
0!
#169500000
b0 (
1!
0'
#170000000
0!
#170500000
1!
b10011011 #
b1 (
#171000000
0!
#171500000
b10 (
b0 #
1!
b10011011 %
b10011010 &
#172000000
0!
#172500000
b11 (
1!
b0 %
b0 &
#173000000
0!
#173500000
1!
b10011101 #
b100 (
#174000000
0!
#174500000
b101 (
b0 #
1!
b10011101 %
b10011100 &
#175000000
0!
#175500000
b110 (
1!
b0 %
b0 &
#176000000
0!
#176500000
1!
b10011010 #
b111 (
#177000000
0!
#177500000
b1000 (
b0 #
1!
b10011010 %
b10011001 &
#178000000
0!
#178500000
b1001 (
1!
b0 %
1'
b0 &
#179000000
0!
#179500000
b0 (
1!
0'
#180000000
0!
#180500000
1!
b10011001 #
b1 (
#181000000
0!
#181500000
b10 (
b0 #
1!
b10011001 %
b10011000 &
#182000000
0!
#182500000
b11 (
1!
b0 %
b0 &
#183000000
0!
#183500000
1!
b10011101 #
b100 (
#184000000
0!
#184500000
b101 (
b0 #
1!
b10011101 %
b10011100 &
#185000000
0!
#185500000
b110 (
1!
b0 %
b0 &
#186000000
0!
#186500000
1!
b10010110 #
b111 (
#187000000
0!
#187500000
b1000 (
b0 #
1!
b10010110 %
b10010101 &
#188000000
0!
#188500000
b1001 (
1!
b0 %
1'
b0 &
#189000000
0!
#189500000
b0 (
1!
0'
#190000000
0!
#190500000
1!
b10011000 #
b1 (
#191000000
0!
#191500000
b10 (
b0 #
1!
b10011000 %
b10010111 &
#192000000
0!
#192500000
b11 (
1!
b0 %
b0 &
#193000000
0!
#193500000
1!
b10011111 #
b100 (
#194000000
0!
#194500000
b101 (
b0 #
1!
b10011111 %
b10011110 &
#195000000
0!
#195500000
b110 (
1!
b0 %
b0 &
#196000000
0!
#196500000
1!
b10010111 #
b111 (
#197000000
0!
#197500000
b1000 (
b0 #
1!
b10010111 %
b10010110 &
#198000000
0!
#198500000
b1001 (
1!
b0 %
1'
b0 &
#199000000
0!
#199500000
b0 (
1!
0'
#200000000
0!
#200500000
1!
b1 (
