scan_sim_bus.vcd
$comment Generated by Amaranth $end
$date 2023-07-18 12:01:34.747751 $end
$timescale 1 ps $end
$scope module bench $end
$scope module top $end
$var wire 1 ! clk $end
$var wire 1 " rst $end
$var wire 14 # x_data $end
$var wire 14 $ x_data$1 $end
$var wire 14 % y_data $end
$var wire 14 & y_data$1 $end
$var wire 1 ' line_sync $end
$var wire 1 ( line_sync$1 $end
$var wire 1 ) frame_sync $end
$var wire 1 * frame_sync$1 $end
$var wire 1 + x_enable $end
$var wire 1 , y_enable $end
$var wire 1 - a_enable $end
$var wire 1 . count_one $end
$var wire 4 / count $end
$var wire 1 0 count_six $end
$var wire 1 1 a_clock $end
$var wire 1 2 d_clock $end
$var wire 1 3 dwell_ctr_ovf $end
$var wire 8 4 count$1 $end
$var wire 8 5 out_fifo $end
$var wire 1 6 rst$1 $end
$var wire 8 7 bus_state $end
$var string 1 8 fsm_state $end
$var wire 1 9 rst$2 $end
$var wire 1 : en $end
$var wire 1 ; en$1 $end
$var wire 1 < x_latch $end
$var wire 1 = y_latch $end
$var wire 1 > a_latch $end
$var wire 1 ? out_fifo_ready $end
$scope module dwell_ctr $end
$var wire 1 ! clk $end
$var wire 1 " rst $end
$var wire 8 4 count $end
$var wire 1 9 rst$1 $end
$var wire 1 ; en $end
$upscope $end
$scope module min_dwell_ctr $end
$var wire 1 ! clk $end
$var wire 1 " rst $end
$var wire 4 / count $end
$var wire 1 @ ovf $end
$upscope $end
$scope module scan_gen $end
$var wire 1 ! clk $end
$var wire 1 " rst $end
$var wire 14 $ x_data $end
$var wire 14 & y_data $end
$var wire 1 ( line_sync $end
$var wire 1 * frame_sync $end
$var wire 1 6 rst$1 $end
$var wire 1 : en $end
$var wire 1 A en$1 $end
$var wire 1 B en$2 $end
$var wire 5 C count $end
$var wire 5 D count$1 $end
$var wire 1 E ovf $end
$var wire 1 F ovf$1 $end
$var wire 1 G rst$2 $end
$var wire 1 H rst$3 $end
$scope module x_ramp $end
$var wire 1 ! clk $end
$var wire 1 " rst $end
$var wire 1 A en $end
$var wire 5 C count $end
$var wire 1 E ovf $end
$var wire 1 H rst$1 $end
$upscope $end
$scope module y_ramp $end
$var wire 1 ! clk $end
$var wire 1 " rst $end
$var wire 1 B en $end
$var wire 5 D count $end
$var wire 1 F ovf $end
$var wire 1 G rst$1 $end
$upscope $end
$upscope $end
$upscope $end
$upscope $end
$enddefinitions $end
#0
$dumpvars
0!
0"
b0 #
b0 $
b0 %
b0 &
0'
0(
0)
0*
0+
0,
1-
0.
b0 /
00
01
02
03
b0 4
b0 5
06
b0 7
sWait_For_First_USB_Data/0 8
09
0:
0;
0<
0=
0>
0?
0@
0A
0B
b0 C
b0 D
0E
0F
0G
0H
$end
#500000
11
b11 5
1?
1!
13
b1000 7
16
b1 /
#1000000
0!
#1500000
1.
1!
sWAIT/1 8
1G
03
b0 7
1;
b10 /
1H
#2000000
0!
#2500000
0.
b1 7
0;
b11 /
1!
sX_WRITE/2 8
b1 4
#3000000
0!
#3500000
1<
b100 /
1!
sX_LATCH/3 8
#4000000
0!
#4500000
0<
b101 /
1!
sX_RELEASE/4 8
#5000000
0!
#5500000
b110 /
1!
sY_WRITE/5 8
b10 7
#6000000
0!
#6500000
10
1=
b111 /
1!
sY_LATCH/6 8
#7000000
0!
#7500000
01
12
0=
b1000 /
1!
sY_RELEASE/7 8
#8000000
0!
#8500000
0-
b1001 /
1!
1>
sA_LATCH_&_ENABLE/8 8
b0 7
#9000000
0!
#9500000
b1010 /
1!
0>
sA_READ/9 8
b11 7
#10000000
0!
#10500000
1@
b1011 /
1!
sA_RELEASE/10 8
b111 7
#11000000
0!
#11500000
0@
1-
b0 /
1!
sFIFO_1/11 8
b100 7
#12000000
0!
#12500000
00
b1 /
1!
sFIFO_2/12 8
b101 7
#13000000
0!
#13500000
1.
11
02
1;
b10 /
1!
sWAIT/1 8
b0 7
#14000000
0!
#14500000
0.
b1 7
0;
b11 /
1!
sX_WRITE/2 8
b10 4
#15000000
0!
#15500000
1<
b100 /
1!
sX_LATCH/3 8
#16000000
0!
#16500000
0<
b101 /
1!
sX_RELEASE/4 8
#17000000
0!
#17500000
b110 /
1!
sY_WRITE/5 8
b10 7
#18000000
0!
#18500000
10
1=
b111 /
1!
sY_LATCH/6 8
#19000000
0!
#19500000
01
12
0=
b1000 /
1!
sY_RELEASE/7 8
#20000000
0!
#20500000
0-
b1001 /
1!
1>
sA_LATCH_&_ENABLE/8 8
b0 7
#21000000
0!
#21500000
b1010 /
1!
0>
sA_READ/9 8
b11 7
#22000000
0!
#22500000
1@
b1011 /
1!
sA_RELEASE/10 8
b111 7
#23000000
0!
#23500000
0@
1-
b0 /
1!
sFIFO_1/11 8
b100 7
#24000000
0!
#24500000
00
b1 /
1!
sFIFO_2/12 8
b101 7
#25000000
0!
#25500000
1.
11
02
1;
b10 /
1!
sWAIT/1 8
b0 7
#26000000
0!
#26500000
0.
b1 7
0;
b11 /
1!
sX_WRITE/2 8
b11 4
#27000000
0!
#27500000
1<
b100 /
1!
sX_LATCH/3 8
13
#28000000
0!
#28500000
0<
b101 /
1!
sX_RELEASE/4 8
#29000000
0!
#29500000
b110 /
1!
sY_WRITE/5 8
b10 7
#30000000
0!
#30500000
10
1=
b111 /
1!
sY_LATCH/6 8
#31000000
0!
#31500000
01
12
0=
b1000 /
1!
sY_RELEASE/7 8
#32000000
0!
#32500000
0-
b1001 /
1!
1>
sA_LATCH_&_ENABLE/8 8
b0 7
#33000000
0!
#33500000
b1010 /
1!
0>
sA_READ/9 8
b11 7
#34000000
0!
#34500000
1@
b1011 /
1!
sA_RELEASE/10 8
b111 7
#35000000
0!
#35500000
0@
1-
b0 /
1!
sFIFO_1/11 8
b100 7
#36000000
0!
#36500000
00
b1 /
1!
sFIFO_2/12 8
b101 7
#37000000
0!
#37500000
1.
11
02
1!
sWAIT/1 8
b1000 7
19
1:
b10 /
#38000000
0!
#38500000
0.
b1 7
09
0:
b11 /
1!
sX_WRITE/2 8
b0 4
#39000000
0!
#39500000
1<
b100 /
1!
sX_LATCH/3 8
03
#40000000
0!
#40500000
0<
b101 /
1!
sX_RELEASE/4 8
#41000000
0!
#41500000
b110 /
1!
sY_WRITE/5 8
b10 7
#42000000
0!
#42500000
10
1=
b111 /
1!
sY_LATCH/6 8
#43000000
0!
#43500000
01
12
0=
b1000 /
1!
sY_RELEASE/7 8
#44000000
0!
#44500000
0-
b1001 /
1!
1>
sA_LATCH_&_ENABLE/8 8
b0 7
#45000000
0!
#45500000
b1010 /
1!
0>
sA_READ/9 8
b11 7
#46000000
0!
#46500000
1@
b1011 /
1!
sA_RELEASE/10 8
b111 7
#47000000
0!
#47500000
0@
1-
b0 /
1!
sFIFO_1/11 8
b100 7
#48000000
0!
#48500000
00
b1 /
1!
sFIFO_2/12 8
b101 7
#49000000
0!
#49500000
1.
11
02
1;
b10 /
1!
sWAIT/1 8
b0 7
#50000000
0!
#50500000
0.
b1 7
0;
b11 /
1!
sX_WRITE/2 8
b1 4
#51000000
0!
#51500000
1<
b100 /
1!
sX_LATCH/3 8
#52000000
0!
#52500000
0<
b101 /
1!
sX_RELEASE/4 8
#53000000
0!
#53500000
b110 /
1!
sY_WRITE/5 8
b10 7
#54000000
0!
#54500000
10
1=
b111 /
1!
sY_LATCH/6 8
#55000000
0!
#55500000
01
12
0=
b1000 /
1!
sY_RELEASE/7 8
#56000000
0!
#56500000
0-
b1001 /
1!
1>
sA_LATCH_&_ENABLE/8 8
b0 7
#57000000
0!
#57500000
b1010 /
1!
0>
sA_READ/9 8
b11 7
#58000000
0!
#58500000
1@
b1011 /
1!
sA_RELEASE/10 8
b111 7
#59000000
0!
#59500000
0@
1-
b0 /
1!
sFIFO_1/11 8
b100 7
#60000000
0!
#60500000
00
b1 /
1!
sFIFO_2/12 8
b101 7
#61000000
0!
#61500000
1.
11
02
1;
b10 /
1!
sWAIT/1 8
b0 7
#62000000
0!
#62500000
0.
b1 7
0;
b11 /
1!
sX_WRITE/2 8
b10 4
#63000000
0!
#63500000
1<
b100 /
1!
sX_LATCH/3 8
#64000000
0!
#64500000
0<
b101 /
1!
sX_RELEASE/4 8
#65000000
0!
#65500000
b110 /
1!
sY_WRITE/5 8
b10 7
#66000000
0!
#66500000
10
1=
b111 /
1!
sY_LATCH/6 8
#67000000
0!
#67500000
01
12
0=
b1000 /
1!
sY_RELEASE/7 8
#68000000
0!
#68500000
0-
b1001 /
1!
1>
sA_LATCH_&_ENABLE/8 8
b0 7
#69000000
0!
#69500000
b1010 /
1!
0>
sA_READ/9 8
b11 7
#70000000
0!
#70500000
1@
b1011 /
1!
sA_RELEASE/10 8
b111 7
#71000000
0!
#71500000
0@
1-
b0 /
1!
sFIFO_1/11 8
b100 7
#72000000
0!
#72500000
00
b1 /
1!
sFIFO_2/12 8
b101 7
#73000000
0!
#73500000
1.
11
02
1;
b10 /
1!
sWAIT/1 8
b0 7
#74000000
0!
#74500000
0.
b1 7
0;
b11 /
1!
sX_WRITE/2 8
b11 4
#75000000
0!
#75500000
1<
b100 /
1!
sX_LATCH/3 8
13
#76000000
0!
#76500000
0<
b101 /
1!
sX_RELEASE/4 8
#77000000
0!
#77500000
b110 /
1!
sY_WRITE/5 8
b10 7
#78000000
0!
#78500000
10
1=
b111 /
1!
sY_LATCH/6 8
#79000000
0!
#79500000
01
12
0=
b1000 /
1!
sY_RELEASE/7 8
#80000000
0!
#80500000
0-
b1001 /
1!
1>
sA_LATCH_&_ENABLE/8 8
b0 7
#81000000
0!
#81500000
b1010 /
1!
0>
sA_READ/9 8
b11 7
#82000000
0!
#82500000
1@
b1011 /
1!
sA_RELEASE/10 8
b111 7
#83000000
0!
#83500000
0@
1-
b0 /
1!
sFIFO_1/11 8
b100 7
#84000000
0!
#84500000
00
b1 /
1!
sFIFO_2/12 8
b101 7
#85000000
0!
#85500000
1.
11
02
1!
sWAIT/1 8
b1000 7
19
1:
b10 /
#86000000
0!
#86500000
0.
b1 7
09
0:
b11 /
1!
sX_WRITE/2 8
b0 4
#87000000
0!
#87500000
1<
b100 /
1!
sX_LATCH/3 8
03
#88000000
0!
#88500000
0<
b101 /
1!
sX_RELEASE/4 8
#89000000
0!
#89500000
b110 /
1!
sY_WRITE/5 8
b10 7
#90000000
0!
#90500000
10
1=
b111 /
1!
sY_LATCH/6 8
#91000000
0!
#91500000
01
12
0=
b1000 /
1!
sY_RELEASE/7 8
#92000000
0!
#92500000
0-
b1001 /
1!
1>
sA_LATCH_&_ENABLE/8 8
b0 7
#93000000
0!
#93500000
b1010 /
1!
0>
sA_READ/9 8
b11 7
#94000000
0!
#94500000
1@
b1011 /
1!
sA_RELEASE/10 8
b111 7
#95000000
0!
#95500000
0@
1-
b0 /
1!
sFIFO_1/11 8
b100 7
#96000000
0!
#96500000
00
b1 /
1!
sFIFO_2/12 8
b101 7
#97000000
0!
#97500000
1.
11
02
1;
b10 /
1!
sWAIT/1 8
b0 7
#98000000
0!
#98500000
0.
b1 7
0;
b11 /
1!
sX_WRITE/2 8
b1 4
#99000000
0!
#99500000
1<
b100 /
1!
sX_LATCH/3 8
#100000000
0!
#100500000
0<
b101 /
1!
sX_RELEASE/4 8
#101000000
0!
#101500000
b110 /
1!
sY_WRITE/5 8
b10 7
#102000000
0!
#102500000
10
1=
b111 /
1!
sY_LATCH/6 8
#103000000
0!
#103500000
01
12
0=
b1000 /
1!
sY_RELEASE/7 8
#104000000
0!
#104500000
0-
b1001 /
1!
1>
sA_LATCH_&_ENABLE/8 8
b0 7
#105000000
0!
#105500000
b1010 /
1!
0>
sA_READ/9 8
b11 7
#106000000
0!
#106500000
1@
b1011 /
1!
sA_RELEASE/10 8
b111 7
#107000000
0!
#107500000
0@
1-
b0 /
1!
sFIFO_1/11 8
b100 7
#108000000
0!
#108500000
00
b1 /
1!
sFIFO_2/12 8
b101 7
#109000000
0!
#109500000
1.
11
02
1;
b10 /
1!
sWAIT/1 8
b0 7
#110000000
0!
#110500000
0.
b1 7
0;
b11 /
1!
sX_WRITE/2 8
b10 4
#111000000
0!
#111500000
1<
b100 /
1!
sX_LATCH/3 8
#112000000
0!
#112500000
0<
b101 /
1!
sX_RELEASE/4 8
#113000000
0!
#113500000
b110 /
1!
sY_WRITE/5 8
b10 7
#114000000
0!
#114500000
10
1=
b111 /
1!
sY_LATCH/6 8
#115000000
0!
#115500000
01
12
0=
b1000 /
1!
sY_RELEASE/7 8
#116000000
0!
#116500000
0-
b1001 /
1!
1>
sA_LATCH_&_ENABLE/8 8
b0 7
#117000000
0!
#117500000
b1010 /
1!
0>
sA_READ/9 8
b11 7
#118000000
0!
#118500000
1@
b1011 /
1!
sA_RELEASE/10 8
b111 7
#119000000
0!
#119500000
0@
1-
b0 /
1!
sFIFO_1/11 8
b100 7
#120000000
0!
#120500000
00
b1 /
1!
sFIFO_2/12 8
b101 7
#121000000
0!
#121500000
1.
11
02
1;
b10 /
1!
sWAIT/1 8
b0 7
#122000000
0!
#122500000
0.
b1 7
0;
b11 /
1!
sX_WRITE/2 8
b11 4
#123000000
0!
#123500000
1<
b100 /
1!
sX_LATCH/3 8
13
#124000000
0!
#124500000
0<
b101 /
1!
sX_RELEASE/4 8
#125000000
0!
#125500000
b110 /
1!
sY_WRITE/5 8
b10 7
#126000000
0!
#126500000
10
1=
b111 /
1!
sY_LATCH/6 8
#127000000
0!
#127500000
01
12
0=
b1000 /
1!
sY_RELEASE/7 8
#128000000
0!
#128500000
0-
b1001 /
1!
1>
sA_LATCH_&_ENABLE/8 8
b0 7
#129000000
0!
#129500000
b1010 /
1!
0>
sA_READ/9 8
b11 7
#130000000
0!
#130500000
1@
b1011 /
1!
sA_RELEASE/10 8
b111 7
#131000000
0!
#131500000
0@
1-
b0 /
1!
sFIFO_1/11 8
b100 7
#132000000
0!
#132500000
00
b1 /
1!
sFIFO_2/12 8
b101 7
#133000000
0!
#133500000
1.
11
02
1!
sWAIT/1 8
b1000 7
19
1:
b10 /
#134000000
0!
#134500000
0.
b1 7
09
0:
b11 /
1!
sX_WRITE/2 8
b0 4
#135000000
0!
#135500000
1<
b100 /
1!
sX_LATCH/3 8
03
#136000000
0!
#136500000
0<
b101 /
1!
sX_RELEASE/4 8
#137000000
0!
#137500000
b110 /
1!
sY_WRITE/5 8
b10 7
#138000000
0!
#138500000
10
1=
b111 /
1!
sY_LATCH/6 8
#139000000
0!
#139500000
01
12
0=
b1000 /
1!
sY_RELEASE/7 8
#140000000
0!
#140500000
0-
b1001 /
1!
1>
sA_LATCH_&_ENABLE/8 8
b0 7
#141000000
0!
#141500000
b1010 /
1!
0>
sA_READ/9 8
b11 7
#142000000
0!
#142500000
1@
b1011 /
1!
sA_RELEASE/10 8
b111 7
#143000000
0!
#143500000
0@
1-
b0 /
1!
sFIFO_1/11 8
b100 7
#144000000
0!
#144500000
00
b1 /
1!
sFIFO_2/12 8
b101 7
#145000000
0!
#145500000
1.
11
02
1;
b10 /
1!
sWAIT/1 8
b0 7
#146000000
0!
#146500000
0.
b1 7
0;
b11 /
1!
sX_WRITE/2 8
b1 4
#147000000
0!
#147500000
1<
b100 /
1!
sX_LATCH/3 8
#148000000
0!
#148500000
0<
b101 /
1!
sX_RELEASE/4 8
#149000000
0!
#149500000
b110 /
1!
sY_WRITE/5 8
b10 7
#150000000
0!
#150500000
10
1=
b111 /
1!
sY_LATCH/6 8
#151000000
0!
#151500000
01
12
0=
b1000 /
1!
sY_RELEASE/7 8
#152000000
0!
#152500000
0-
b1001 /
1!
1>
sA_LATCH_&_ENABLE/8 8
b0 7
#153000000
0!
#153500000
b1010 /
1!
0>
sA_READ/9 8
b11 7
#154000000
0!
#154500000
1@
b1011 /
1!
sA_RELEASE/10 8
b111 7
#155000000
0!
#155500000
0@
1-
b0 /
1!
sFIFO_1/11 8
b100 7
#156000000
0!
#156500000
00
b1 /
1!
sFIFO_2/12 8
b101 7
#157000000
0!
#157500000
1.
11
02
1;
b10 /
1!
sWAIT/1 8
b0 7
#158000000
0!
#158500000
0.
b1 7
0;
b11 /
1!
sX_WRITE/2 8
b10 4
#159000000
0!
#159500000
1<
b100 /
1!
sX_LATCH/3 8
#160000000
0!
#160500000
0<
b101 /
1!
sX_RELEASE/4 8
#161000000
0!
#161500000
b110 /
1!
sY_WRITE/5 8
b10 7
#162000000
0!
#162500000
10
1=
b111 /
1!
sY_LATCH/6 8
#163000000
0!
#163500000
01
12
0=
b1000 /
1!
sY_RELEASE/7 8
#164000000
0!
#164500000
0-
b1001 /
1!
1>
sA_LATCH_&_ENABLE/8 8
b0 7
#165000000
0!
#165500000
b1010 /
1!
0>
sA_READ/9 8
b11 7
#166000000
0!
#166500000
1@
b1011 /
1!
sA_RELEASE/10 8
b111 7
#167000000
0!
#167500000
0@
1-
b0 /
1!
sFIFO_1/11 8
b100 7
#168000000
0!
#168500000
00
b1 /
1!
sFIFO_2/12 8
b101 7
#169000000
0!
#169500000
1.
11
02
1;
b10 /
1!
sWAIT/1 8
b0 7
#170000000
0!
#170500000
0.
b1 7
0;
b11 /
1!
sX_WRITE/2 8
b11 4
#171000000
0!
#171500000
1<
b100 /
1!
sX_LATCH/3 8
13
#172000000
0!
#172500000
0<
b101 /
1!
sX_RELEASE/4 8
#173000000
0!
#173500000
b110 /
1!
sY_WRITE/5 8
b10 7
#174000000
0!
#174500000
10
1=
b111 /
1!
sY_LATCH/6 8
#175000000
0!
#175500000
01
12
0=
b1000 /
1!
sY_RELEASE/7 8
#176000000
0!
#176500000
0-
b1001 /
1!
1>
sA_LATCH_&_ENABLE/8 8
b0 7
#177000000
0!
#177500000
b1010 /
1!
0>
sA_READ/9 8
b11 7
#178000000
0!
#178500000
1@
b1011 /
1!
sA_RELEASE/10 8
b111 7
#179000000
0!
#179500000
0@
1-
b0 /
1!
sFIFO_1/11 8
b100 7
#180000000
0!
#180500000
00
b1 /
1!
sFIFO_2/12 8
b101 7
#181000000
0!
#181500000
1.
11
02
1!
sWAIT/1 8
b1000 7
19
1:
b10 /
#182000000
0!
#182500000
0.
b1 7
09
0:
b11 /
1!
sX_WRITE/2 8
b0 4
#183000000
0!
#183500000
1<
b100 /
1!
sX_LATCH/3 8
03
#184000000
0!
#184500000
0<
b101 /
1!
sX_RELEASE/4 8
#185000000
0!
#185500000
b110 /
1!
sY_WRITE/5 8
b10 7
#186000000
0!
#186500000
10
1=
b111 /
1!
sY_LATCH/6 8
#187000000
0!
#187500000
01
12
0=
b1000 /
1!
sY_RELEASE/7 8
#188000000
0!
#188500000
0-
b1001 /
1!
1>
sA_LATCH_&_ENABLE/8 8
b0 7
#189000000
0!
#189500000
b1010 /
1!
0>
sA_READ/9 8
b11 7
#190000000
0!
#190500000
1@
b1011 /
1!
sA_RELEASE/10 8
b111 7
#191000000
0!
#191500000
0@
1-
b0 /
1!
sFIFO_1/11 8
b100 7
#192000000
0!
#192500000
00
b1 /
1!
sFIFO_2/12 8
b101 7
#193000000
0!
#193500000
1.
11
02
1;
b10 /
1!
sWAIT/1 8
b0 7
#194000000
0!
#194500000
0.
b1 7
0;
b11 /
1!
sX_WRITE/2 8
b1 4
#195000000
0!
#195500000
1<
b100 /
1!
sX_LATCH/3 8
#196000000
0!
#196500000
0<
b101 /
1!
sX_RELEASE/4 8
#197000000
0!
#197500000
b110 /
1!
sY_WRITE/5 8
b10 7
#198000000
0!
#198500000
10
1=
b111 /
1!
sY_LATCH/6 8
#199000000
0!
#199500000
01
12
0=
b1000 /
1!
sY_RELEASE/7 8
#200000000
0!
#200500000
0-
b1001 /
1!
1>
sA_LATCH_&_ENABLE/8 8
b0 7
#201000000
0!
#201500000
b1010 /
1!
0>
sA_READ/9 8
b11 7
#202000000
0!
#202500000
1@
b1011 /
1!
sA_RELEASE/10 8
b111 7
#203000000
0!
#203500000
0@
1-
b0 /
1!
sFIFO_1/11 8
b100 7
#204000000
0!
#204500000
00
b1 /
1!
sFIFO_2/12 8
b101 7
#205000000
0!
#205500000
1.
11
02
1;
b10 /
1!
sWAIT/1 8
b0 7
#206000000
0!
#206500000
0.
b1 7
0;
b11 /
1!
sX_WRITE/2 8
b10 4
#207000000
0!
#207500000
1<
b100 /
1!
sX_LATCH/3 8
#208000000
0!
#208500000
0<
b101 /
1!
sX_RELEASE/4 8
#209000000
0!
#209500000
b110 /
1!
sY_WRITE/5 8
b10 7
#210000000
0!
#210500000
10
1=
b111 /
1!
sY_LATCH/6 8
#211000000
0!
#211500000
01
12
0=
b1000 /
1!
sY_RELEASE/7 8
#212000000
0!
#212500000
0-
b1001 /
1!
1>
sA_LATCH_&_ENABLE/8 8
b0 7
#213000000
0!
#213500000
b1010 /
1!
0>
sA_READ/9 8
b11 7
#214000000
0!
#214500000
1@
b1011 /
1!
sA_RELEASE/10 8
b111 7
#215000000
0!
#215500000
0@
1-
b0 /
1!
sFIFO_1/11 8
b100 7
#216000000
0!
#216500000
00
b1 /
1!
sFIFO_2/12 8
b101 7
#217000000
0!
#217500000
1.
11
02
1;
b10 /
1!
sWAIT/1 8
b0 7
#218000000
0!
#218500000
0.
b1 7
0;
b11 /
1!
sX_WRITE/2 8
b11 4
#219000000
0!
#219500000
1<
b100 /
1!
sX_LATCH/3 8
13
#220000000
0!
#220500000
0<
b101 /
1!
sX_RELEASE/4 8
#221000000
0!
#221500000
b110 /
1!
sY_WRITE/5 8
b10 7
#222000000
0!
#222500000
10
1=
b111 /
1!
sY_LATCH/6 8
#223000000
0!
#223500000
01
12
0=
b1000 /
1!
sY_RELEASE/7 8
#224000000
0!
#224500000
0-
b1001 /
1!
1>
sA_LATCH_&_ENABLE/8 8
b0 7
#225000000
0!
#225500000
b1010 /
1!
0>
sA_READ/9 8
b11 7
#226000000
0!
#226500000
1@
b1011 /
1!
sA_RELEASE/10 8
b111 7
#227000000
0!
#227500000
0@
1-
b0 /
1!
sFIFO_1/11 8
b100 7
#228000000
0!
#228500000
00
b1 /
1!
sFIFO_2/12 8
b101 7
#229000000
0!
#229500000
1.
11
02
1!
sWAIT/1 8
b1000 7
19
1:
b10 /
#230000000
0!
#230500000
0.
b1 7
09
0:
b11 /
1!
sX_WRITE/2 8
b0 4
#231000000
0!
#231500000
1<
b100 /
1!
sX_LATCH/3 8
03
#232000000
0!
#232500000
0<
b101 /
1!
sX_RELEASE/4 8
#233000000
0!
#233500000
b110 /
1!
sY_WRITE/5 8
b10 7
#234000000
0!
#234500000
10
1=
b111 /
1!
sY_LATCH/6 8
#235000000
0!
#235500000
01
12
0=
b1000 /
1!
sY_RELEASE/7 8
#236000000
0!
#236500000
0-
b1001 /
1!
1>
sA_LATCH_&_ENABLE/8 8
b0 7
#237000000
0!
#237500000
b1010 /
1!
0>
sA_READ/9 8
b11 7
#238000000
0!
#238500000
1@
b1011 /
1!
sA_RELEASE/10 8
b111 7
#239000000
0!
#239500000
0@
1-
b0 /
1!
sFIFO_1/11 8
b100 7
#240000000
0!
#240500000
00
b1 /
1!
sFIFO_2/12 8
b101 7
#241000000
0!
#241500000
1.
11
02
1;
b10 /
1!
sWAIT/1 8
b0 7
#242000000
0!
#242500000
0.
b1 7
0;
b11 /
1!
sX_WRITE/2 8
b1 4
#243000000
0!
#243500000
1<
b100 /
1!
sX_LATCH/3 8
#244000000
0!
#244500000
0<
b101 /
1!
sX_RELEASE/4 8
#245000000
0!
#245500000
b110 /
1!
sY_WRITE/5 8
b10 7
#246000000
0!
#246500000
10
1=
b111 /
1!
sY_LATCH/6 8
#247000000
0!
#247500000
01
12
0=
b1000 /
1!
sY_RELEASE/7 8
#248000000
0!
#248500000
0-
b1001 /
1!
1>
sA_LATCH_&_ENABLE/8 8
b0 7
#249000000
0!
#249500000
b1010 /
1!
0>
sA_READ/9 8
b11 7
#250000000
0!
#250500000
1@
b1011 /
1!
sA_RELEASE/10 8
b111 7
#251000000
0!
#251500000
0@
1-
b0 /
1!
sFIFO_1/11 8
b100 7
#252000000
0!
#252500000
00
b1 /
1!
sFIFO_2/12 8
b101 7
#253000000
0!
#253500000
1.
11
02
1;
b10 /
1!
sWAIT/1 8
b0 7
#254000000
0!
#254500000
0.
b1 7
0;
b11 /
1!
sX_WRITE/2 8
b10 4
#255000000
0!
#255500000
1<
b100 /
1!
sX_LATCH/3 8
#256000000
0!
#256500000
0<
b101 /
1!
sX_RELEASE/4 8
#257000000
0!
#257500000
b110 /
1!
sY_WRITE/5 8
b10 7
#258000000
0!
#258500000
10
1=
b111 /
1!
sY_LATCH/6 8
#259000000
0!
#259500000
01
12
0=
b1000 /
1!
sY_RELEASE/7 8
#260000000
0!
#260500000
0-
b1001 /
1!
1>
sA_LATCH_&_ENABLE/8 8
b0 7
#261000000
0!
#261500000
b1010 /
1!
0>
sA_READ/9 8
b11 7
#262000000
0!
#262500000
1@
b1011 /
1!
sA_RELEASE/10 8
b111 7
#263000000
0!
#263500000
0@
1-
b0 /
1!
sFIFO_1/11 8
b100 7
#264000000
0!
#264500000
00
b1 /
1!
sFIFO_2/12 8
b101 7
#265000000
0!
#265500000
1.
11
02
1;
b10 /
1!
sWAIT/1 8
b0 7
#266000000
0!
#266500000
0.
b1 7
0;
b11 /
1!
sX_WRITE/2 8
b11 4
#267000000
0!
#267500000
1<
b100 /
1!
sX_LATCH/3 8
13
#268000000
0!
#268500000
0<
b101 /
1!
sX_RELEASE/4 8
#269000000
0!
#269500000
b110 /
1!
sY_WRITE/5 8
b10 7
#270000000
0!
#270500000
10
1=
b111 /
1!
sY_LATCH/6 8
#271000000
0!
#271500000
01
12
0=
b1000 /
1!
sY_RELEASE/7 8
#272000000
0!
#272500000
0-
b1001 /
1!
1>
sA_LATCH_&_ENABLE/8 8
b0 7
#273000000
0!
#273500000
b1010 /
1!
0>
sA_READ/9 8
b11 7
#274000000
0!
#274500000
1@
b1011 /
1!
sA_RELEASE/10 8
b111 7
#275000000
0!
#275500000
0@
1-
b0 /
1!
sFIFO_1/11 8
b100 7
#276000000
0!
#276500000
00
b1 /
1!
sFIFO_2/12 8
b101 7
#277000000
0!
#277500000
1.
11
02
1!
sWAIT/1 8
b1000 7
19
1:
b10 /
#278000000
0!
#278500000
0.
b1 7
09
0:
b11 /
1!
sX_WRITE/2 8
b0 4
#279000000
0!
#279500000
1<
b100 /
1!
sX_LATCH/3 8
03
#280000000
0!
#280500000
0<
b101 /
1!
sX_RELEASE/4 8
#281000000
0!
#281500000
b110 /
1!
sY_WRITE/5 8
b10 7
#282000000
0!
#282500000
10
1=
b111 /
1!
sY_LATCH/6 8
#283000000
0!
#283500000
01
12
0=
b1000 /
1!
sY_RELEASE/7 8
#284000000
0!
#284500000
0-
b1001 /
1!
1>
sA_LATCH_&_ENABLE/8 8
b0 7
#285000000
0!
#285500000
b1010 /
1!
0>
sA_READ/9 8
b11 7
#286000000
0!
#286500000
1@
b1011 /
1!
sA_RELEASE/10 8
b111 7
#287000000
0!
#287500000
0@
1-
b0 /
1!
sFIFO_1/11 8
b100 7
#288000000
0!
#288500000
00
b1 /
1!
sFIFO_2/12 8
b101 7
#289000000
0!
#289500000
1.
11
02
1;
b10 /
1!
sWAIT/1 8
b0 7
#290000000
0!
#290500000
0.
b1 7
0;
b11 /
1!
sX_WRITE/2 8
b1 4
#291000000
0!
#291500000
1<
b100 /
1!
sX_LATCH/3 8
#292000000
0!
#292500000
0<
b101 /
1!
sX_RELEASE/4 8
#293000000
0!
#293500000
b110 /
1!
sY_WRITE/5 8
b10 7
#294000000
0!
#294500000
10
1=
b111 /
1!
sY_LATCH/6 8
#295000000
0!
#295500000
01
12
0=
b1000 /
1!
sY_RELEASE/7 8
#296000000
0!
#296500000
0-
b1001 /
1!
1>
sA_LATCH_&_ENABLE/8 8
b0 7
#297000000
0!
#297500000
b1010 /
1!
0>
sA_READ/9 8
b11 7
#298000000
0!
#298500000
1@
b1011 /
1!
sA_RELEASE/10 8
b111 7
#299000000
0!
#299500000
0@
1-
b0 /
1!
sFIFO_1/11 8
b100 7
#300000000
0!
#300500000
00
b1 /
1!
sFIFO_2/12 8
b101 7
#301000000
0!
#301500000
1.
11
02
1;
b10 /
1!
sWAIT/1 8
b0 7
#302000000
0!
#302500000
0.
b1 7
0;
b11 /
1!
sX_WRITE/2 8
b10 4
#303000000
0!
#303500000
1<
b100 /
1!
sX_LATCH/3 8
#304000000
0!
#304500000
0<
b101 /
1!
sX_RELEASE/4 8
#305000000
0!
#305500000
b110 /
1!
sY_WRITE/5 8
b10 7
#306000000
0!
#306500000
10
1=
b111 /
1!
sY_LATCH/6 8
#307000000
0!
#307500000
01
12
0=
b1000 /
1!
sY_RELEASE/7 8
#308000000
0!
#308500000
0-
b1001 /
1!
1>
sA_LATCH_&_ENABLE/8 8
b0 7
#309000000
0!
#309500000
b1010 /
1!
0>
sA_READ/9 8
b11 7
#310000000
0!
#310500000
1@
b1011 /
1!
sA_RELEASE/10 8
b111 7
#311000000
0!
#311500000
0@
1-
b0 /
1!
sFIFO_1/11 8
b100 7
#312000000
0!
#312500000
00
b1 /
1!
sFIFO_2/12 8
b101 7
#313000000
0!
#313500000
1.
11
02
1;
b10 /
1!
sWAIT/1 8
b0 7
#314000000
0!
#314500000
0.
b1 7
0;
b11 /
1!
sX_WRITE/2 8
b11 4
#315000000
0!
#315500000
1<
b100 /
1!
sX_LATCH/3 8
13
#316000000
0!
#316500000
0<
b101 /
1!
sX_RELEASE/4 8
#317000000
0!
#317500000
b110 /
1!
sY_WRITE/5 8
b10 7
#318000000
0!
#318500000
10
1=
b111 /
1!
sY_LATCH/6 8
#319000000
0!
#319500000
01
12
0=
b1000 /
1!
sY_RELEASE/7 8
#320000000
0!
#320500000
0-
b1001 /
1!
1>
sA_LATCH_&_ENABLE/8 8
b0 7
#321000000
0!
