scan_sim_fifo.vcd
$comment Generated by Amaranth $end
$date 2023-07-04 16:35:33.643739 $end
$timescale 1 ps $end
$scope module bench $end
$scope module top $end
$var wire 1 ! clk $end
$var wire 1 " rst $end
$var wire 14 # datain $end
$var string 1 $ fsm_state $end
$var wire 8 % din $end
$var wire 1 & w_en $end
$var wire 1 ' fifo_ready $end
$var wire 1 ( flush $end
$var wire 14 ) x_data $end
$var wire 1 * w_rdy $end
$var wire 1 + line_sync $end
$var wire 1 , frame_sync $end
$scope module scan_bus $end
$var wire 1 ! clk $end
$var wire 1 " rst $end
$var wire 1 ' fifo_ready $end
$var wire 14 ) x_data $end
$var wire 1 + line_sync $end
$var wire 1 , frame_sync $end
$var wire 14 - x_data$1 $end
$var wire 14 . y_data $end
$var wire 14 / y_data$1 $end
$var wire 1 0 line_sync$1 $end
$var wire 1 1 frame_sync$1 $end
$var wire 1 2 x_enable $end
$var wire 1 3 y_enable $end
$var wire 1 4 a_enable $end
$var wire 1 5 count_one $end
$var wire 4 6 count $end
$var wire 1 7 count_six $end
$var wire 1 8 a_clock $end
$var wire 1 9 d_clock $end
$var wire 1 : en $end
$var string 1 ; fsm_state $end
$var wire 8 < bus_state $end
$var wire 1 = x_latch $end
$var wire 1 > y_latch $end
$var wire 1 ? a_latch $end
$scope module min_dwell_ctr $end
$var wire 1 ! clk $end
$var wire 1 " rst $end
$var wire 4 6 count $end
$var wire 1 @ ovf $end
$upscope $end
$scope module scan_gen $end
$var wire 14 - x_data $end
$var wire 14 / y_data $end
$var wire 1 0 line_sync $end
$var wire 1 1 frame_sync $end
$var wire 1 : en $end
$var wire 1 A en$1 $end
$var wire 1 B en$2 $end
$var wire 10 C count $end
$var wire 10 D count$1 $end
$var wire 1 E ovf $end
$var wire 1 F ovf$1 $end
$scope module x_ramp $end
$var wire 1 ! clk $end
$var wire 1 " rst $end
$var wire 1 A en $end
$var wire 10 C count $end
$var wire 1 E ovf $end
$upscope $end
$scope module y_ramp $end
$var wire 1 ! clk $end
$var wire 1 " rst $end
$var wire 1 B en $end
$var wire 10 D count $end
$var wire 1 F ovf $end
$upscope $end
$upscope $end
$upscope $end
$upscope $end
$upscope $end
$enddefinitions $end
#0
$dumpvars
0!
0"
b0 #
sBUS_READ/0 $
b0 %
0&
0'
0(
b0 )
0*
0+
0,
b0 -
b0 .
b0 /
00
01
02
03
14
05
b0 6
07
08
09
0:
sWAIT/0 ;
b0 <
0=
0>
0?
0@
0A
0B
b0 C
b0 D
0E
0F
$end
#500000
1!
18
sBUS_FIFO_IMG/1 $
b1 6
#1000000
0!
#1500000
1!
b10 6
1:
15
1A
sBUS_FIFO_SYNC/2 $
#2000000
0!
#2500000
0:
0A
1!
b11 6
sX_WRITE/1 ;
b1 C
1(
sFIFO_WAIT/3 $
b100000 )
b1 <
05
b100000 -
#3000000
0!
#3500000
1!
sX_LATCH/2 ;
b100 6
1=
0(
sBUS_READ/0 $
#4000000
0!
#4500000
1!
b101 6
sX_RELEASE/3 ;
b100000 #
0=
sBUS_FIFO_IMG/1 $
#5000000
0!
#5500000
1!
sY_WRITE/4 ;
b110 6
b10 <
sBUS_FIFO_SYNC/2 $
#6000000
0!
#6500000
1!
b111 6
sY_LATCH/5 ;
17
1(
sFIFO_WAIT/3 $
1>
#7000000
0!
#7500000
1!
b1000 6
08
19
sY_RELEASE/6 ;
0(
sBUS_READ/0 $
0>
#8000000
0!
#8500000
1!
sA_LATCH_&_ENABLE/7 ;
b1001 6
1?
04
b0 <
sBUS_FIFO_IMG/1 $
#9000000
0!
#9500000
1!
sA_READ/8 ;
b1010 6
0?
b11 <
sBUS_FIFO_SYNC/2 $
#10000000
0!
#10500000
1!
sA_RELEASE/9 ;
b1011 6
1(
1@
b0 <
sFIFO_WAIT/3 $
#11000000
0!
#11500000
0@
14
1!
sFIFO_wait_1/10 ;
b0 6
0(
b110 <
sBUS_READ/0 $
#12000000
0!
#12500000
1!
07
sBUS_FIFO_IMG/1 $
b1 6
#13000000
0!
#13500000
1!
b10 6
18
09
15
sBUS_FIFO_SYNC/2 $
#14000000
0!
#14500000
1!
b11 6
1(
05
sFIFO_WAIT/3 $
#15000000
0!
#15500000
1!
0(
sBUS_READ/0 $
b100 6
#16000000
0!
#16500000
1!
sBUS_FIFO_IMG/1 $
b101 6
#17000000
0!
#17500000
1!
sBUS_FIFO_SYNC/2 $
b110 6
#18000000
0!
#18500000
1!
b111 6
17
1(
sFIFO_WAIT/3 $
#19000000
0!
#19500000
1!
b1000 6
08
19
0(
sBUS_READ/0 $
#20000000
0!
#20500000
1!
sBUS_FIFO_IMG/1 $
b1001 6
#21000000
0!
#21500000
1!
sBUS_FIFO_SYNC/2 $
b1010 6
#22000000
0!
#22500000
1!
b1011 6
1(
1@
sFIFO_WAIT/3 $
#23000000
0!
#23500000
1!
b0 6
0(
0@
sBUS_READ/0 $
#24000000
0!
#24500000
1!
07
sBUS_FIFO_IMG/1 $
b1 6
#25000000
0!
#25500000
1!
b10 6
18
09
15
sBUS_FIFO_SYNC/2 $
#26000000
0!
#26500000
1!
b11 6
1(
05
sFIFO_WAIT/3 $
#27000000
0!
#27500000
1!
0(
sBUS_READ/0 $
b100 6
#28000000
0!
#28500000
1!
sBUS_FIFO_IMG/1 $
b101 6
#29000000
0!
#29500000
1!
sBUS_FIFO_SYNC/2 $
b110 6
#30000000
0!
#30500000
1!
b111 6
17
1(
sFIFO_WAIT/3 $
#31000000
0!
#31500000
1!
b1000 6
08
19
0(
sBUS_READ/0 $
#32000000
0!
#32500000
1!
sBUS_FIFO_IMG/1 $
b1001 6
#33000000
0!
#33500000
1!
sBUS_FIFO_SYNC/2 $
b1010 6
#34000000
0!
#34500000
1!
b1011 6
1(
1@
sFIFO_WAIT/3 $
#35000000
0!
#35500000
1!
b0 6
0(
0@
sBUS_READ/0 $
#36000000
0!
#36500000
1!
07
sBUS_FIFO_IMG/1 $
b1 6
#37000000
0!
#37500000
1!
b10 6
18
09
15
sBUS_FIFO_SYNC/2 $
#38000000
0!
#38500000
1!
b11 6
1(
05
sFIFO_WAIT/3 $
#39000000
0!
#39500000
1!
0(
sBUS_READ/0 $
b100 6
#40000000
0!
#40500000
1!
sBUS_FIFO_IMG/1 $
b101 6
#41000000
0!
#41500000
1!
sBUS_FIFO_SYNC/2 $
b110 6
#42000000
0!
#42500000
1!
b111 6
17
1(
sFIFO_WAIT/3 $
#43000000
0!
#43500000
1!
b1000 6
08
19
0(
sBUS_READ/0 $
#44000000
0!
#44500000
1!
sBUS_FIFO_IMG/1 $
b1001 6
#45000000
0!
#45500000
1!
sBUS_FIFO_SYNC/2 $
b1010 6
#46000000
0!
#46500000
1!
b1011 6
1(
1@
sFIFO_WAIT/3 $
#47000000
0!
#47500000
1!
b0 6
0(
0@
sBUS_READ/0 $
#48000000
0!
#48500000
1!
07
sBUS_FIFO_IMG/1 $
b1 6
#49000000
0!
#49500000
1!
b10 6
18
09
15
sBUS_FIFO_SYNC/2 $
#50000000
0!
#50500000
1!
b11 6
1(
05
sFIFO_WAIT/3 $
#51000000
0!
#51500000
1!
0(
sBUS_READ/0 $
b100 6
#52000000
0!
#52500000
1!
sBUS_FIFO_IMG/1 $
b101 6
#53000000
0!
#53500000
1!
sBUS_FIFO_SYNC/2 $
b110 6
#54000000
0!
#54500000
1!
b111 6
17
1(
sFIFO_WAIT/3 $
#55000000
0!
#55500000
1!
b1000 6
08
19
0(
sBUS_READ/0 $
#56000000
0!
#56500000
1!
sBUS_FIFO_IMG/1 $
b1001 6
#57000000
0!
#57500000
1!
sBUS_FIFO_SYNC/2 $
b1010 6
#58000000
0!
#58500000
1!
b1011 6
1(
1@
sFIFO_WAIT/3 $
#59000000
0!
#59500000
1!
b0 6
0(
0@
sBUS_READ/0 $
#60000000
0!
#60500000
1!
07
sBUS_FIFO_IMG/1 $
b1 6
#61000000
0!
#61500000
1!
b10 6
18
09
15
sBUS_FIFO_SYNC/2 $
#62000000
0!
#62500000
1!
b11 6
1(
05
sFIFO_WAIT/3 $
#63000000
0!
#63500000
1!
0(
sBUS_READ/0 $
b100 6
#64000000
0!
#64500000
1!
sBUS_FIFO_IMG/1 $
b101 6
#65000000
0!
#65500000
1!
sBUS_FIFO_SYNC/2 $
b110 6
#66000000
0!
#66500000
1!
b111 6
17
1(
sFIFO_WAIT/3 $
#67000000
0!
#67500000
1!
b1000 6
08
19
0(
sBUS_READ/0 $
#68000000
0!
#68500000
1!
sBUS_FIFO_IMG/1 $
b1001 6
#69000000
0!
#69500000
1!
sBUS_FIFO_SYNC/2 $
b1010 6
#70000000
0!
#70500000
1!
b1011 6
1(
1@
sFIFO_WAIT/3 $
#71000000
0!
#71500000
1!
b0 6
0(
0@
sBUS_READ/0 $
#72000000
0!
#72500000
1!
07
sBUS_FIFO_IMG/1 $
b1 6
#73000000
0!
#73500000
1!
b10 6
18
09
15
sBUS_FIFO_SYNC/2 $
#74000000
0!
#74500000
1!
b11 6
1(
05
sFIFO_WAIT/3 $
#75000000
0!
#75500000
1!
0(
sBUS_READ/0 $
b100 6
#76000000
0!
#76500000
1!
sBUS_FIFO_IMG/1 $
b101 6
#77000000
0!
#77500000
1!
sBUS_FIFO_SYNC/2 $
b110 6
#78000000
0!
#78500000
1!
b111 6
17
1(
sFIFO_WAIT/3 $
#79000000
0!
#79500000
1!
b1000 6
08
19
0(
sBUS_READ/0 $
#80000000
0!
#80500000
1!
sBUS_FIFO_IMG/1 $
b1001 6
#81000000
0!
#81500000
1!
sBUS_FIFO_SYNC/2 $
b1010 6
#82000000
0!
#82500000
1!
b1011 6
1(
1@
sFIFO_WAIT/3 $
#83000000
0!
#83500000
1!
b0 6
0(
0@
sBUS_READ/0 $
#84000000
0!
#84500000
1!
07
sBUS_FIFO_IMG/1 $
b1 6
#85000000
0!
#85500000
1!
b10 6
18
09
15
sBUS_FIFO_SYNC/2 $
#86000000
0!
#86500000
1!
b11 6
1(
05
sFIFO_WAIT/3 $
#87000000
0!
#87500000
1!
0(
sBUS_READ/0 $
b100 6
#88000000
0!
#88500000
1!
sBUS_FIFO_IMG/1 $
b101 6
#89000000
0!
#89500000
1!
sBUS_FIFO_SYNC/2 $
b110 6
#90000000
0!
#90500000
1!
b111 6
17
1(
sFIFO_WAIT/3 $
#91000000
0!
#91500000
1!
b1000 6
08
19
0(
sBUS_READ/0 $
#92000000
0!
#92500000
1!
sBUS_FIFO_IMG/1 $
b1001 6
#93000000
0!
#93500000
1!
sBUS_FIFO_SYNC/2 $
b1010 6
#94000000
0!
#94500000
1!
b1011 6
1(
1@
sFIFO_WAIT/3 $
#95000000
0!
#95500000
1!
b0 6
0(
0@
sBUS_READ/0 $
#96000000
0!
#96500000
1!
07
sBUS_FIFO_IMG/1 $
b1 6
#97000000
0!
#97500000
1!
b10 6
18
09
15
sBUS_FIFO_SYNC/2 $
#98000000
0!
#98500000
1!
b11 6
1(
05
sFIFO_WAIT/3 $
#99000000
0!
#99500000
1!
0(
sBUS_READ/0 $
b100 6
#100000000
0!
#100500000
1!
sBUS_FIFO_IMG/1 $
b101 6
#101000000
0!
#101500000
1!
sBUS_FIFO_SYNC/2 $
b110 6
#102000000
0!
#102500000
1!
b111 6
17
1(
sFIFO_WAIT/3 $
#103000000
0!
#103500000
1!
b1000 6
08
19
0(
sBUS_READ/0 $
#104000000
0!
#104500000
1!
sBUS_FIFO_IMG/1 $
b1001 6
#105000000
0!
#105500000
1!
sBUS_FIFO_SYNC/2 $
b1010 6
#106000000
0!
#106500000
1!
b1011 6
1(
1@
sFIFO_WAIT/3 $
#107000000
0!
#107500000
1!
b0 6
0(
0@
sBUS_READ/0 $
#108000000
0!
#108500000
1!
07
sBUS_FIFO_IMG/1 $
b1 6
#109000000
0!
#109500000
1!
b10 6
18
09
15
sBUS_FIFO_SYNC/2 $
#110000000
0!
#110500000
1!
b11 6
1(
05
sFIFO_WAIT/3 $
#111000000
0!
#111500000
1!
0(
sBUS_READ/0 $
b100 6
#112000000
0!
#112500000
1!
sBUS_FIFO_IMG/1 $
b101 6
#113000000
0!
#113500000
1!
sBUS_FIFO_SYNC/2 $
b110 6
#114000000
0!
#114500000
1!
b111 6
17
1(
sFIFO_WAIT/3 $
#115000000
0!
#115500000
1!
b1000 6
08
19
0(
sBUS_READ/0 $
#116000000
0!
#116500000
1!
sBUS_FIFO_IMG/1 $
b1001 6
#117000000
0!
#117500000
1!
sBUS_FIFO_SYNC/2 $
b1010 6
#118000000
0!
#118500000
1!
b1011 6
1(
1@
sFIFO_WAIT/3 $
#119000000
0!
#119500000
1!
b0 6
0(
0@
sBUS_READ/0 $
#120000000
0!
#120500000
1!
07
sBUS_FIFO_IMG/1 $
b1 6
#121000000
0!
#121500000
1!
b10 6
18
09
15
sBUS_FIFO_SYNC/2 $
#122000000
0!
#122500000
1!
b11 6
1(
05
sFIFO_WAIT/3 $
#123000000
0!
#123500000
1!
0(
sBUS_READ/0 $
b100 6
#124000000
0!
#124500000
1!
sBUS_FIFO_IMG/1 $
b101 6
#125000000
0!
#125500000
1!
sBUS_FIFO_SYNC/2 $
b110 6
#126000000
0!
#126500000
1!
b111 6
17
1(
sFIFO_WAIT/3 $
#127000000
0!
#127500000
1!
b1000 6
08
19
0(
sBUS_READ/0 $
#128000000
0!
#128500000
1!
sBUS_FIFO_IMG/1 $
b1001 6
#129000000
0!
#129500000
1!
sBUS_FIFO_SYNC/2 $
b1010 6
#130000000
0!
#130500000
1!
b1011 6
1(
1@
sFIFO_WAIT/3 $
#131000000
0!
#131500000
1!
b0 6
0(
0@
sBUS_READ/0 $
#132000000
0!
#132500000
1!
07
sBUS_FIFO_IMG/1 $
b1 6
#133000000
0!
#133500000
1!
b10 6
18
09
15
sBUS_FIFO_SYNC/2 $
#134000000
0!
#134500000
1!
b11 6
1(
05
sFIFO_WAIT/3 $
#135000000
0!
#135500000
1!
0(
sBUS_READ/0 $
b100 6
#136000000
0!
#136500000
1!
sBUS_FIFO_IMG/1 $
b101 6
#137000000
0!
#137500000
1!
sBUS_FIFO_SYNC/2 $
b110 6
#138000000
0!
#138500000
1!
b111 6
17
1(
sFIFO_WAIT/3 $
#139000000
0!
#139500000
1!
b1000 6
08
19
0(
sBUS_READ/0 $
#140000000
0!
#140500000
1!
sBUS_FIFO_IMG/1 $
b1001 6
#141000000
0!
#141500000
1!
sBUS_FIFO_SYNC/2 $
b1010 6
#142000000
0!
#142500000
1!
b1011 6
1(
1@
sFIFO_WAIT/3 $
#143000000
0!
#143500000
1!
b0 6
0(
0@
sBUS_READ/0 $
#144000000
0!
#144500000
1!
07
sBUS_FIFO_IMG/1 $
b1 6
#145000000
0!
#145500000
1!
b10 6
18
09
15
sBUS_FIFO_SYNC/2 $
#146000000
0!
#146500000
1!
b11 6
1(
05
sFIFO_WAIT/3 $
#147000000
0!
#147500000
1!
0(
sBUS_READ/0 $
b100 6
#148000000
0!
#148500000
1!
sBUS_FIFO_IMG/1 $
b101 6
#149000000
0!
#149500000
1!
sBUS_FIFO_SYNC/2 $
b110 6
#150000000
0!
#150500000
1!
b111 6
17
1(
sFIFO_WAIT/3 $
#151000000
0!
#151500000
1!
b1000 6
08
19
0(
sBUS_READ/0 $
#152000000
0!
#152500000
1!
sBUS_FIFO_IMG/1 $
b1001 6
#153000000
0!
#153500000
1!
sBUS_FIFO_SYNC/2 $
b1010 6
#154000000
0!
#154500000
1!
b1011 6
1(
1@
sFIFO_WAIT/3 $
#155000000
0!
#155500000
1!
b0 6
0(
0@
sBUS_READ/0 $
#156000000
0!
#156500000
1!
07
sBUS_FIFO_IMG/1 $
b1 6
#157000000
0!
#157500000
1!
b10 6
18
09
15
sBUS_FIFO_SYNC/2 $
#158000000
0!
#158500000
1!
b11 6
1(
05
sFIFO_WAIT/3 $
#159000000
0!
#159500000
1!
0(
sBUS_READ/0 $
b100 6
#160000000
0!
#160500000
1!
sBUS_FIFO_IMG/1 $
b101 6
#161000000
0!
#161500000
1!
sBUS_FIFO_SYNC/2 $
b110 6
#162000000
0!
#162500000
1!
b111 6
17
1(
sFIFO_WAIT/3 $
#163000000
0!
#163500000
1!
b1000 6
08
19
0(
sBUS_READ/0 $
#164000000
0!
#164500000
1!
sBUS_FIFO_IMG/1 $
b1001 6
#165000000
0!
#165500000
1!
sBUS_FIFO_SYNC/2 $
b1010 6
#166000000
0!
#166500000
1!
b1011 6
1(
1@
sFIFO_WAIT/3 $
#167000000
0!
#167500000
1!
b0 6
0(
0@
sBUS_READ/0 $
#168000000
0!
#168500000
1!
07
sBUS_FIFO_IMG/1 $
b1 6
#169000000
0!
#169500000
1!
b10 6
18
09
15
sBUS_FIFO_SYNC/2 $
#170000000
0!
#170500000
1!
b11 6
1(
05
sFIFO_WAIT/3 $
#171000000
0!
#171500000
1!
0(
sBUS_READ/0 $
b100 6
#172000000
0!
#172500000
1!
sBUS_FIFO_IMG/1 $
b101 6
#173000000
0!
#173500000
1!
sBUS_FIFO_SYNC/2 $
b110 6
#174000000
0!
#174500000
1!
b111 6
17
1(
sFIFO_WAIT/3 $
#175000000
0!
#175500000
1!
b1000 6
08
19
0(
sBUS_READ/0 $
#176000000
0!
#176500000
1!
sBUS_FIFO_IMG/1 $
b1001 6
#177000000
0!
#177500000
1!
sBUS_FIFO_SYNC/2 $
b1010 6
#178000000
0!
#178500000
1!
b1011 6
1(
1@
sFIFO_WAIT/3 $
#179000000
0!
#179500000
1!
b0 6
0(
0@
sBUS_READ/0 $
#180000000
0!
#180500000
1!
07
sBUS_FIFO_IMG/1 $
b1 6
#181000000
0!
#181500000
1!
b10 6
18
09
15
sBUS_FIFO_SYNC/2 $
#182000000
0!
#182500000
1!
b11 6
1(
05
sFIFO_WAIT/3 $
#183000000
0!
#183500000
1!
0(
sBUS_READ/0 $
b100 6
#184000000
0!
#184500000
1!
sBUS_FIFO_IMG/1 $
b101 6
#185000000
0!
#185500000
1!
sBUS_FIFO_SYNC/2 $
b110 6
#186000000
0!
#186500000
1!
b111 6
17
1(
sFIFO_WAIT/3 $
#187000000
0!
#187500000
1!
b1000 6
08
19
0(
sBUS_READ/0 $
#188000000
0!
#188500000
1!
sBUS_FIFO_IMG/1 $
b1001 6
#189000000
0!
#189500000
1!
sBUS_FIFO_SYNC/2 $
b1010 6
#190000000
0!
#190500000
1!
b1011 6
1(
1@
sFIFO_WAIT/3 $
#191000000
0!
#191500000
1!
b0 6
0(
0@
sBUS_READ/0 $
#192000000
0!
#192500000
1!
07
sBUS_FIFO_IMG/1 $
b1 6
#193000000
0!
#193500000
1!
b10 6
18
09
15
sBUS_FIFO_SYNC/2 $
#194000000
0!
#194500000
1!
b11 6
1(
05
sFIFO_WAIT/3 $
#195000000
0!
#195500000
1!
0(
sBUS_READ/0 $
b100 6
#196000000
0!
#196500000
1!
sBUS_FIFO_IMG/1 $
b101 6
#197000000
0!
#197500000
1!
sBUS_FIFO_SYNC/2 $
b110 6
#198000000
0!
#198500000
1!
b111 6
17
1(
sFIFO_WAIT/3 $
#199000000
0!
#199500000
1!
b1000 6
08
19
0(
sBUS_READ/0 $
#200000000
0!
#200500000
1!
sBUS_FIFO_IMG/1 $
b1001 6
#201000000
0!
#201500000
1!
sBUS_FIFO_SYNC/2 $
b1010 6
#202000000
0!
#202500000
1!
b1011 6
1(
1@
sFIFO_WAIT/3 $
#203000000
0!
#203500000
1!
b0 6
0(
0@
sBUS_READ/0 $
#204000000
0!
#204500000
1!
07
sBUS_FIFO_IMG/1 $
b1 6
#205000000
0!
#205500000
1!
b10 6
18
09
15
sBUS_FIFO_SYNC/2 $
#206000000
0!
#206500000
1!
b11 6
1(
05
sFIFO_WAIT/3 $
#207000000
0!
#207500000
1!
0(
sBUS_READ/0 $
b100 6
#208000000
0!
#208500000
1!
sBUS_FIFO_IMG/1 $
b101 6
#209000000
0!
#209500000
1!
sBUS_FIFO_SYNC/2 $
b110 6
#210000000
0!
#210500000
1!
b111 6
17
1(
sFIFO_WAIT/3 $
#211000000
0!
#211500000
1!
b1000 6
08
19
0(
sBUS_READ/0 $
#212000000
0!
#212500000
1!
sBUS_FIFO_IMG/1 $
b1001 6
#213000000
0!
#213500000
1!
sBUS_FIFO_SYNC/2 $
b1010 6
#214000000
0!
#214500000
1!
b1011 6
1(
1@
sFIFO_WAIT/3 $
#215000000
0!
#215500000
1!
b0 6
0(
0@
sBUS_READ/0 $
#216000000
0!
#216500000
1!
07
sBUS_FIFO_IMG/1 $
b1 6
#217000000
0!
#217500000
1!
b10 6
18
09
15
sBUS_FIFO_SYNC/2 $
#218000000
0!
#218500000
1!
b11 6
1(
05
sFIFO_WAIT/3 $
#219000000
0!
#219500000
1!
0(
sBUS_READ/0 $
b100 6
#220000000
0!
#220500000
1!
sBUS_FIFO_IMG/1 $
b101 6
#221000000
0!
#221500000
1!
sBUS_FIFO_SYNC/2 $
b110 6
#222000000
0!
#222500000
1!
b111 6
17
1(
sFIFO_WAIT/3 $
#223000000
0!
#223500000
1!
b1000 6
08
19
0(
sBUS_READ/0 $
#224000000
0!
#224500000
1!
sBUS_FIFO_IMG/1 $
b1001 6
#225000000
0!
#225500000
1!
sBUS_FIFO_SYNC/2 $
b1010 6
#226000000
0!
#226500000
1!
b1011 6
1(
1@
sFIFO_WAIT/3 $
#227000000
0!
#227500000
1!
b0 6
0(
0@
sBUS_READ/0 $
#228000000
0!
#228500000
1!
07
sBUS_FIFO_IMG/1 $
b1 6
#229000000
0!
#229500000
1!
b10 6
18
09
15
sBUS_FIFO_SYNC/2 $
#230000000
0!
#230500000
1!
b11 6
1(
05
sFIFO_WAIT/3 $
#231000000
0!
#231500000
1!
0(
sBUS_READ/0 $
b100 6
#232000000
0!
#232500000
1!
sBUS_FIFO_IMG/1 $
b101 6
#233000000
0!
#233500000
1!
sBUS_FIFO_SYNC/2 $
b110 6
#234000000
0!
#234500000
1!
b111 6
17
1(
sFIFO_WAIT/3 $
#235000000
0!
#235500000
1!
b1000 6
08
19
0(
sBUS_READ/0 $
#236000000
0!
#236500000
1!
sBUS_FIFO_IMG/1 $
b1001 6
#237000000
0!
#237500000
1!
sBUS_FIFO_SYNC/2 $
b1010 6
#238000000
0!
#238500000
1!
b1011 6
1(
1@
sFIFO_WAIT/3 $
#239000000
0!
#239500000
1!
b0 6
0(
0@
sBUS_READ/0 $
#240000000
0!
#240500000
1!
07
sBUS_FIFO_IMG/1 $
b1 6
#241000000
0!
#241500000
1!
b10 6
18
09
15
sBUS_FIFO_SYNC/2 $
#242000000
0!
#242500000
1!
b11 6
1(
05
sFIFO_WAIT/3 $
#243000000
0!
#243500000
1!
0(
sBUS_READ/0 $
b100 6
#244000000
0!
#244500000
1!
sBUS_FIFO_IMG/1 $
b101 6
#245000000
0!
#245500000
1!
sBUS_FIFO_SYNC/2 $
b110 6
#246000000
0!
#246500000
1!
b111 6
17
1(
sFIFO_WAIT/3 $
#247000000
0!
#247500000
1!
b1000 6
08
19
0(
sBUS_READ/0 $
#248000000
0!
#248500000
1!
sBUS_FIFO_IMG/1 $
b1001 6
#249000000
0!
#249500000
1!
sBUS_FIFO_SYNC/2 $
b1010 6
#250000000
0!
#250500000
1!
b1011 6
1(
1@
sFIFO_WAIT/3 $
#251000000
0!
#251500000
1!
b0 6
0(
0@
sBUS_READ/0 $
#252000000
0!
#252500000
1!
07
sBUS_FIFO_IMG/1 $
b1 6
#253000000
0!
#253500000
1!
b10 6
18
09
15
sBUS_FIFO_SYNC/2 $
#254000000
0!
#254500000
1!
b11 6
1(
05
sFIFO_WAIT/3 $
#255000000
0!
#255500000
1!
0(
sBUS_READ/0 $
b100 6
#256000000
0!
#256500000
1!
sBUS_FIFO_IMG/1 $
b101 6
#257000000
0!
#257500000
1!
sBUS_FIFO_SYNC/2 $
b110 6
#258000000
0!
#258500000
1!
b111 6
17
1(
sFIFO_WAIT/3 $
#259000000
0!
#259500000
1!
b1000 6
08
19
0(
sBUS_READ/0 $
#260000000
0!
#260500000
1!
sBUS_FIFO_IMG/1 $
b1001 6
#261000000
0!
#261500000
1!
sBUS_FIFO_SYNC/2 $
b1010 6
#262000000
0!
#262500000
1!
b1011 6
1(
1@
sFIFO_WAIT/3 $
#263000000
0!
#263500000
1!
b0 6
0(
0@
sBUS_READ/0 $
#264000000
0!
#264500000
1!
07
sBUS_FIFO_IMG/1 $
b1 6
#265000000
0!
#265500000
1!
b10 6
18
09
15
sBUS_FIFO_SYNC/2 $
#266000000
0!
#266500000
1!
b11 6
1(
05
sFIFO_WAIT/3 $
#267000000
0!
#267500000
1!
0(
sBUS_READ/0 $
b100 6
#268000000
0!
#268500000
1!
sBUS_FIFO_IMG/1 $
b101 6
#269000000
0!
#269500000
1!
sBUS_FIFO_SYNC/2 $
b110 6
#270000000
0!
#270500000
1!
b111 6
17
1(
sFIFO_WAIT/3 $
#271000000
0!
#271500000
1!
b1000 6
08
19
0(
sBUS_READ/0 $
#272000000
0!
#272500000
1!
sBUS_FIFO_IMG/1 $
b1001 6
#273000000
0!
#273500000
1!
sBUS_FIFO_SYNC/2 $
b1010 6
#274000000
0!
#274500000
1!
b1011 6
1(
1@
sFIFO_WAIT/3 $
#275000000
0!
#275500000
1!
b0 6
0(
0@
sBUS_READ/0 $
#276000000
0!
#276500000
1!
07
sBUS_FIFO_IMG/1 $
b1 6
#277000000
0!
#277500000
1!
b10 6
18
09
15
sBUS_FIFO_SYNC/2 $
#278000000
0!
#278500000
1!
b11 6
1(
05
sFIFO_WAIT/3 $
#279000000
0!
#279500000
1!
0(
sBUS_READ/0 $
b100 6
#280000000
0!
#280500000
1!
sBUS_FIFO_IMG/1 $
b101 6
#281000000
0!
#281500000
1!
sBUS_FIFO_SYNC/2 $
b110 6
#282000000
0!
#282500000
1!
b111 6
17
1(
sFIFO_WAIT/3 $
#283000000
0!
#283500000
1!
b1000 6
08
19
0(
sBUS_READ/0 $
#284000000
0!
#284500000
1!
sBUS_FIFO_IMG/1 $
b1001 6
#285000000
0!
#285500000
1!
sBUS_FIFO_SYNC/2 $
b1010 6
#286000000
0!
#286500000
1!
b1011 6
1(
1@
sFIFO_WAIT/3 $
#287000000
0!
#287500000
1!
b0 6
0(
0@
sBUS_READ/0 $
#288000000
0!
#288500000
1!
07
sBUS_FIFO_IMG/1 $
b1 6
#289000000
0!
#289500000
1!
b10 6
18
09
15
sBUS_FIFO_SYNC/2 $
#290000000
0!
#290500000
1!
b11 6
1(
05
sFIFO_WAIT/3 $
#291000000
0!
#291500000
1!
0(
sBUS_READ/0 $
b100 6
#292000000
0!
#292500000
1!
sBUS_FIFO_IMG/1 $
b101 6
#293000000
0!
#293500000
1!
sBUS_FIFO_SYNC/2 $
b110 6
#294000000
0!
#294500000
1!
b111 6
17
1(
sFIFO_WAIT/3 $
#295000000
0!
#295500000
1!
b1000 6
08
19
0(
sBUS_READ/0 $
#296000000
0!
#296500000
1!
sBUS_FIFO_IMG/1 $
b1001 6
#297000000
0!
#297500000
1!
sBUS_FIFO_SYNC/2 $
b1010 6
#298000000
0!
#298500000
1!
b1011 6
1(
1@
sFIFO_WAIT/3 $
#299000000
0!
#299500000
1!
b0 6
0(
0@
sBUS_READ/0 $
#300000000
0!
#300500000
1!
07
sBUS_FIFO_IMG/1 $
b1 6
#301000000
0!
#301500000
1!
b10 6
18
09
15
sBUS_FIFO_SYNC/2 $
#302000000
0!
#302500000
1!
b11 6
1(
05
sFIFO_WAIT/3 $
#303000000
0!
#303500000
1!
0(
sBUS_READ/0 $
b100 6
#304000000
0!
#304500000
1!
sBUS_FIFO_IMG/1 $
b101 6
#305000000
0!
#305500000
1!
sBUS_FIFO_SYNC/2 $
b110 6
#306000000
0!
#306500000
1!
b111 6
17
1(
sFIFO_WAIT/3 $
#307000000
0!
#307500000
1!
b1000 6
08
19
0(
sBUS_READ/0 $
#308000000
0!
#308500000
1!
sBUS_FIFO_IMG/1 $
b1001 6
#309000000
0!
#309500000
1!
sBUS_FIFO_SYNC/2 $
b1010 6
#310000000
0!
#310500000
1!
b1011 6
1(
1@
sFIFO_WAIT/3 $
#311000000
0!
#311500000
1!
b0 6
0(
0@
sBUS_READ/0 $
#312000000
0!
#312500000
1!
07
sBUS_FIFO_IMG/1 $
b1 6
#313000000
0!
#313500000
1!
b10 6
18
09
15
sBUS_FIFO_SYNC/2 $
#314000000
0!
#314500000
1!
b11 6
1(
05
sFIFO_WAIT/3 $
#315000000
0!
#315500000
1!
0(
sBUS_READ/0 $
b100 6
#316000000
0!
#316500000
1!
sBUS_FIFO_IMG/1 $
b101 6
#317000000
0!
#317500000
1!
sBUS_FIFO_SYNC/2 $
b110 6
#318000000
0!
#318500000
1!
b111 6
17
1(
sFIFO_WAIT/3 $
#319000000
0!
#319500000
1!
b1000 6
08
19
0(
sBUS_READ/0 $
#320000000
0!
#320500000
1!
sBUS_FIFO_IMG/1 $
b1001 6
#321000000
0!
#321500000
1!
sBUS_FIFO_SYNC/2 $
b1010 6
#322000000
0!
#322500000
1!
b1011 6
1(
1@
sFIFO_WAIT/3 $
#323000000
0!
#323500000
1!
b0 6
0(
0@
sBUS_READ/0 $
#324000000
0!
#324500000
1!
07
sBUS_FIFO_IMG/1 $
b1 6
#325000000
0!
#325500000
1!
b10 6
18
09
15
sBUS_FIFO_SYNC/2 $
#326000000
0!
#326500000
1!
b11 6
1(
05
sFIFO_WAIT/3 $
#327000000
0!
#327500000
1!
0(
sBUS_READ/0 $
b100 6
#328000000
0!
#328500000
1!
sBUS_FIFO_IMG/1 $
b101 6
#329000000
0!
#329500000
1!
sBUS_FIFO_SYNC/2 $
b110 6
#330000000
0!
#330500000
1!
b111 6
17
1(
sFIFO_WAIT/3 $
#331000000
0!
#331500000
1!
b1000 6
08
19
0(
sBUS_READ/0 $
#332000000
0!
