scan_sim_bus.vcd
$comment Generated by Amaranth $end
$date 2023-06-15 20:12:33.497780 $end
$timescale 1 ps $end
$scope module bench $end
$scope module top $end
$var wire 1 ! clk $end
$var wire 1 " rst $end
$var wire 14 # x_data $end
$var wire 14 $ x_data$1 $end
$var wire 14 % y_data $end
$var wire 14 & y_data$1 $end
$var wire 1 ' x_enable $end
$var wire 1 ( y_enable $end
$var wire 1 ) a_enable $end
$var wire 1 * line_sync $end
$var wire 1 + line_sync$1 $end
$var wire 1 , frame_sync $end
$var wire 1 - frame_sync$1 $end
$var wire 1 . fifo_ready $end
$var wire 1 / count_one $end
$var wire 4 0 count $end
$var wire 1 1 count_six $end
$var wire 1 2 a_clock $end
$var wire 1 3 d_clock $end
$var wire 1 4 en $end
$var string 1 5 fsm_state $end
$var wire 8 6 bus_state $end
$var wire 1 7 x_latch $end
$var wire 1 8 y_latch $end
$var wire 1 9 a_latch $end
$scope module min_dwell_ctr $end
$var wire 1 ! clk $end
$var wire 1 " rst $end
$var wire 4 0 count $end
$var wire 1 : ovf $end
$upscope $end
$scope module scan_gen $end
$var wire 14 $ x_data $end
$var wire 14 & y_data $end
$var wire 1 + line_sync $end
$var wire 1 - frame_sync $end
$var wire 1 4 en $end
$var wire 1 ; en$1 $end
$var wire 1 < en$2 $end
$var wire 4 = count $end
$var wire 4 > count$1 $end
$var wire 1 ? ovf $end
$var wire 1 @ ovf$1 $end
$scope module x_ramp $end
$var wire 1 ! clk $end
$var wire 1 " rst $end
$var wire 1 ; en $end
$var wire 4 = count $end
$var wire 1 ? ovf $end
$upscope $end
$scope module y_ramp $end
$var wire 1 ! clk $end
$var wire 1 " rst $end
$var wire 1 < en $end
$var wire 4 > count $end
$var wire 1 @ ovf $end
$upscope $end
$upscope $end
$upscope $end
$upscope $end
$enddefinitions $end
#0
$dumpvars
0!
0"
b0 #
b0 $
b0 %
b0 &
0'
0(
1)
0*
0+
0,
0-
1.
0/
b0 0
01
02
03
04
sWAIT/0 5
b0 6
07
08
09
0:
0;
0<
b0 =
b0 >
0?
0@
$end
#500000
b1 0
12
1!
#1000000
0!
#1500000
b10 0
1;
1/
1!
14
#2000000
0!
#2500000
sX_WRITE/1 5
b11 0
b1 =
b100000000000 #
b1 6
04
0;
0/
b100000000000 $
1!
#3000000
0!
#3500000
sX_LATCH/2 5
1!
b100 0
17
#4000000
0!
#4500000
sX_RELEASE/3 5
1!
b101 0
07
#5000000
0!
#5500000
sY_WRITE/4 5
b10 6
1!
b110 0
#6000000
0!
#6500000
sY_LATCH/5 5
b111 0
18
1!
11
#7000000
0!
#7500000
sY_RELEASE/6 5
02
b1000 0
08
13
1!
#8000000
0!
#8500000
sA_LATCH_&_ENABLE/7 5
b1001 0
19
b0 6
0)
1!
#9000000
0!
#9500000
sA_READ/8 5
b1010 0
09
b11 6
1!
#10000000
0!
#10500000
sA_RELEASE/9 5
b1011 0
1:
b0 6
1!
#11000000
0!
#11500000
sFIFO_1/10 5
b0 0
0:
b100 6
1)
1!
#12000000
0!
#12500000
sFIFO_wait/11 5
b1 0
b110 6
1!
01
#13000000
0!
#13500000
b10 0
12
sFIFO_2/12 5
03
1/
b101 6
1!
#14000000
0!
#14500000
sWAIT/0 5
b11 0
0/
b0 6
1!
#15000000
0!
#15500000
b100 0
1!
#16000000
0!
#16500000
b101 0
1!
#17000000
0!
#17500000
b110 0
1;
1/
1!
14
#18000000
0!
#18500000
sX_WRITE/1 5
b111 0
b10 =
b1000000000000 #
b1 6
04
0;
0/
b1000000000000 $
1!
11
#19000000
0!
#19500000
sX_LATCH/2 5
02
b1000 0
13
1!
17
#20000000
0!
#20500000
sX_RELEASE/3 5
1!
b1001 0
07
#21000000
0!
#21500000
sY_WRITE/4 5
b10 6
1!
b1010 0
#22000000
0!
#22500000
sY_LATCH/5 5
b1011 0
18
1:
1!
#23000000
0!
#23500000
sY_RELEASE/6 5
b0 0
08
0:
1!
#24000000
0!
#24500000
sA_LATCH_&_ENABLE/7 5
b1 0
19
b0 6
0)
1!
01
#25000000
0!
#25500000
b10 0
12
sA_READ/8 5
09
03
1/
b11 6
1!
#26000000
0!
#26500000
sA_RELEASE/9 5
b11 0
0/
b0 6
1!
#27000000
0!
#27500000
sFIFO_1/10 5
b100 0
b100 6
1)
1!
#28000000
0!
#28500000
sFIFO_wait/11 5
b110 6
1!
b101 0
#29000000
0!
#29500000
sFIFO_2/12 5
b101 6
1!
b110 0
#30000000
0!
#30500000
sWAIT/0 5
b111 0
b0 6
1!
11
#31000000
0!
#31500000
b1000 0
02
1!
13
#32000000
0!
#32500000
b1001 0
1!
#33000000
0!
#33500000
b1010 0
1;
1/
1!
14
#34000000
0!
#34500000
sX_WRITE/1 5
b1011 0
b11 =
1:
b1100000000000 #
b1 6
04
0;
0/
b1100000000000 $
1!
#35000000
0!
#35500000
sX_LATCH/2 5
b0 0
0:
1!
17
#36000000
0!
#36500000
sX_RELEASE/3 5
b1 0
1!
01
07
#37000000
0!
#37500000
b10 0
12
sY_WRITE/4 5
03
1/
b10 6
1!
#38000000
0!
#38500000
sY_LATCH/5 5
b11 0
18
0/
1!
#39000000
0!
#39500000
sY_RELEASE/6 5
1!
08
b100 0
#40000000
0!
#40500000
sA_LATCH_&_ENABLE/7 5
b101 0
19
b0 6
0)
1!
#41000000
0!
#41500000
sA_READ/8 5
b110 0
09
b11 6
1!
#42000000
0!
#42500000
sA_RELEASE/9 5
b111 0
b0 6
1!
11
#43000000
0!
#43500000
sFIFO_1/10 5
02
b1000 0
13
b100 6
1)
1!
#44000000
0!
#44500000
sFIFO_wait/11 5
b110 6
1!
b1001 0
#45000000
0!
#45500000
sFIFO_2/12 5
b101 6
1!
b1010 0
#46000000
0!
#46500000
sWAIT/0 5
b1011 0
1:
b0 6
1!
#47000000
0!
#47500000
b0 0
1!
0:
#48000000
0!
#48500000
b1 0
1!
01
#49000000
0!
#49500000
b10 0
12
1;
03
1/
1!
14
#50000000
0!
#50500000
sX_WRITE/1 5
b11 0
b100 =
b10000000000000 #
b1 6
04
0;
0/
b10000000000000 $
1!
#51000000
0!
#51500000
sX_LATCH/2 5
1!
b100 0
17
#52000000
0!
#52500000
sX_RELEASE/3 5
1!
b101 0
07
#53000000
0!
#53500000
sY_WRITE/4 5
b10 6
1!
b110 0
#54000000
0!
#54500000
sY_LATCH/5 5
b111 0
18
1!
11
#55000000
0!
#55500000
sY_RELEASE/6 5
02
b1000 0
08
13
1!
#56000000
0!
#56500000
sA_LATCH_&_ENABLE/7 5
b1001 0
19
b0 6
0)
1!
#57000000
0!
#57500000
sA_READ/8 5
b1010 0
09
b11 6
1!
#58000000
0!
#58500000
sA_RELEASE/9 5
b1011 0
1:
b0 6
1!
#59000000
0!
#59500000
sFIFO_1/10 5
b0 0
0:
b100 6
1)
1!
#60000000
0!
#60500000
sFIFO_wait/11 5
b1 0
b110 6
1!
01
#61000000
0!
#61500000
b10 0
12
sFIFO_2/12 5
03
1/
b101 6
1!
#62000000
0!
#62500000
sWAIT/0 5
b11 0
0/
b0 6
1!
#63000000
0!
#63500000
b100 0
1!
#64000000
0!
#64500000
b101 0
1!
#65000000
0!
#65500000
b110 0
1;
1/
1!
14
#66000000
0!
#66500000
sX_WRITE/1 5
b111 0
b101 =
b10100000000000 #
b1 6
04
0;
0/
b10100000000000 $
1!
11
#67000000
0!
#67500000
sX_LATCH/2 5
02
b1000 0
13
1!
17
#68000000
0!
#68500000
sX_RELEASE/3 5
1!
b1001 0
07
#69000000
0!
#69500000
sY_WRITE/4 5
b10 6
1!
b1010 0
#70000000
0!
#70500000
sY_LATCH/5 5
b1011 0
18
1:
1!
#71000000
0!
#71500000
sY_RELEASE/6 5
b0 0
08
0:
1!
#72000000
0!
#72500000
sA_LATCH_&_ENABLE/7 5
b1 0
19
b0 6
0)
1!
01
#73000000
0!
#73500000
b10 0
12
sA_READ/8 5
09
03
1/
b11 6
1!
#74000000
0!
#74500000
sA_RELEASE/9 5
b11 0
0/
b0 6
1!
#75000000
0!
#75500000
sFIFO_1/10 5
b100 0
b100 6
1)
1!
#76000000
0!
#76500000
sFIFO_wait/11 5
b110 6
1!
b101 0
#77000000
0!
#77500000
sFIFO_2/12 5
b101 6
1!
b110 0
#78000000
0!
#78500000
sWAIT/0 5
b111 0
b0 6
1!
11
#79000000
0!
#79500000
b1000 0
02
1!
13
#80000000
0!
#80500000
b1001 0
1!
#81000000
0!
#81500000
b1010 0
1;
1/
1!
14
#82000000
0!
#82500000
sX_WRITE/1 5
b1011 0
b110 =
1:
b11000000000000 #
b1 6
04
0;
0/
b11000000000000 $
1!
#83000000
0!
#83500000
sX_LATCH/2 5
b0 0
0:
1!
17
#84000000
0!
#84500000
sX_RELEASE/3 5
b1 0
1!
01
07
#85000000
0!
#85500000
b10 0
12
sY_WRITE/4 5
03
1/
b10 6
1!
#86000000
0!
#86500000
sY_LATCH/5 5
b11 0
18
0/
1!
#87000000
0!
#87500000
sY_RELEASE/6 5
1!
08
b100 0
#88000000
0!
#88500000
sA_LATCH_&_ENABLE/7 5
b101 0
19
b0 6
0)
1!
#89000000
0!
#89500000
sA_READ/8 5
b110 0
09
b11 6
1!
#90000000
0!
#90500000
sA_RELEASE/9 5
b111 0
b0 6
1!
11
#91000000
0!
#91500000
sFIFO_1/10 5
02
b1000 0
13
b100 6
1)
1!
#92000000
0!
#92500000
sFIFO_wait/11 5
b110 6
1!
b1001 0
#93000000
0!
#93500000
sFIFO_2/12 5
b101 6
1!
b1010 0
#94000000
0!
#94500000
sWAIT/0 5
b1011 0
1:
b0 6
1!
#95000000
0!
#95500000
b0 0
1!
0:
#96000000
0!
#96500000
b1 0
1!
01
#97000000
0!
#97500000
b10 0
12
1;
03
1/
1!
14
#98000000
0!
#98500000
sX_WRITE/1 5
b11 0
b111 =
b11100000000000 #
b1 6
04
0;
0/
b11100000000000 $
1!
#99000000
0!
#99500000
sX_LATCH/2 5
1!
b100 0
17
#100000000
0!
#100500000
sX_RELEASE/3 5
1!
b101 0
07
#101000000
0!
#101500000
sY_WRITE/4 5
b10 6
1!
b110 0
#102000000
0!
#102500000
sY_LATCH/5 5
b111 0
18
1!
11
#103000000
0!
#103500000
sY_RELEASE/6 5
02
b1000 0
08
13
1!
#104000000
0!
#104500000
sA_LATCH_&_ENABLE/7 5
b1001 0
19
b0 6
0)
1!
#105000000
0!
#105500000
sA_READ/8 5
b1010 0
09
b11 6
1!
#106000000
0!
#106500000
sA_RELEASE/9 5
b1011 0
1:
b0 6
1!
#107000000
0!
#107500000
sFIFO_1/10 5
b0 0
0:
b100 6
1)
1!
#108000000
0!
#108500000
sFIFO_wait/11 5
b1 0
b110 6
1!
01
#109000000
0!
#109500000
b10 0
12
sFIFO_2/12 5
03
1/
b101 6
1!
#110000000
0!
#110500000
sWAIT/0 5
b11 0
0/
b0 6
1!
#111000000
0!
#111500000
b100 0
1!
#112000000
0!
#112500000
b101 0
1!
#113000000
0!
#113500000
b110 0
1;
1/
1!
14
#114000000
0!
#114500000
sX_WRITE/1 5
b111 0
b1000 =
b0 #
1?
b1 6
1*
04
0;
1+
0/
b0 $
1!
11
#115000000
0!
#115500000
sX_LATCH/2 5
02
b1000 0
13
1!
17
#116000000
0!
#116500000
sX_RELEASE/3 5
1!
b1001 0
07
#117000000
0!
#117500000
sY_WRITE/4 5
b10 6
1!
b1010 0
#118000000
0!
#118500000
sY_LATCH/5 5
b1011 0
18
1:
1!
#119000000
0!
#119500000
sY_RELEASE/6 5
b0 0
08
0:
1!
#120000000
0!
#120500000
sA_LATCH_&_ENABLE/7 5
b1 0
19
b0 6
0)
1!
01
#121000000
0!
#121500000
b10 0
12
sA_READ/8 5
09
03
1/
b11 6
1!
#122000000
0!
#122500000
sA_RELEASE/9 5
b11 0
0/
b0 6
1!
#123000000
0!
#123500000
sFIFO_1/10 5
b100 0
b100 6
1)
1!
#124000000
0!
#124500000
sFIFO_wait/11 5
b110 6
1!
b101 0
#125000000
0!
#125500000
sFIFO_2/12 5
b101 6
1!
b110 0
#126000000
0!
#126500000
sWAIT/0 5
b111 0
b0 6
1!
11
#127000000
0!
#127500000
b1000 0
02
1!
13
#128000000
0!
#128500000
b1001 0
1!
