vga_trace.vcd
$comment Generated by Glasgow for bitstream ID a47bab81ace27bcdfb2022a120380af5 $end
$date 2023-08-12 15:09:24.507258 $end
$timescale 10 ns $end
$scope module  $end
$var wire 1 ! throttle $end
$var wire 1 " hs-oe $end
$var wire 1 # vs-oe $end
$var wire 1 $ r-oe $end
$var wire 1 % g-oe $end
$var wire 1 & b-oe $end
$var wire 1 ' hs-io $end
$var wire 1 ( vs-io $end
$var wire 1 ) r-io $end
$var wire 1 * g-io $end
$var wire 1 + b-io $end
$upscope $end
$enddefinitions $end
#2
$dumpvars
0!
1"
1#
1$
1%
1&
0'
0(
1)
1*
0+
$end
#8160
0*
1+
#8162
0)
1*
#8164
1)
#8166
0*
0+
#8168
0)
1*
#8170
1'
0*
#8172
0'
1)
#8175
1*
#8177
0)
0*
1+
#8179
1)
#8181
0)
1*
#8183
1)
#8185
0)
0*
0+
#8187
1)
1*
#8189
0)
0*
1+
#8191
1)
#8193
0)
1*
#8195
1)
#8197
0)
0*
0+
#8200
1*
#8202
1)
#8204
0)
0*
1+
#8566
0+
#8693
1)
#8820
0)
1*
#8947
1)
#9075
0)
0*
1+
#9202
1)
#9647
0)
1*
#10604
0*
0+
#10731
1*
#10858
1)
#10985
0)
0*
1+
#11112
1)
#11622
0)
0+
#11750
1)
#11877
0)
1*
#12004
1)
#12131
0)
0*
1+
#12514
0+
#12641
1'
#12768
0'
#12772
1)
#13214
0)
1*
#13533
1)
#13660
0)
1+
#13787
1)
#13914
0)
0*
0+
#14041
1)
#14425
0)
1*
#14552
1)
0*
1+
#14679
0)
1*
#14806
1)
#14933
0)
0*
0+
#15443
1)
#15570
0)
1*
#15697
0*
1+
#15702
1)
0+
#15762
0)
1+
#16462
1)
#16589
0)
1*
#17100
1)
#17227
0)
0*
0+
#17354
1)
#17481
1*
#17608
0)
0*
1+
#18118
1*
#18245
1)
#18372
0)
0*
0+
#18500
1)
1*
#18627
0)
0*
1+
#19010
1)
#19072
0)
0+
#20029
1*
#20156
1)
#20283
0)
0*
1+
#20410
1)
#20537
0)
1*
#20920
1)
0*
0+
#21047
0)
1*
#21175
0*
1+
#21302
1)
#21429
0)
1*
#21939
0*
0+
#22066
1)
#22193
0)
1*
#22197
1)
#22639
0)
0*
1+
#22958
1)
#23085
0)
0+
#23339
1)
#23850
0)
1*
#23977
1+
#24104
1)
#24231
0)
0*
0+
#24358
1)
#24741
0)
1*
#24868
1)
0*
1+
#24995
0)
1*
#25122
1)
#25250
0)
0*
0+
#25381
1)
#25441
0)
1*
#26018
1)
0*
1+
#26141
0)
0+
#26268
1'
#26652
0'
#26779
1)
#26906
1*
#27033
0)
0*
1+
#27160
1)
#27543
0)
1*
#27670
1)
#27797
0)
0*
0+
#27925
1)
1*
#28052
0)
0*
1+
#28562
1)
#28566
0)
1*
#29008
1)
#29202
0)
0+
#29454
1)
#29581
0)
0*
1+
#29708
1)
#29835
0)
0+
#29962
1*
#30472
1)
#30600
0)
0*
1+
#30727
1)
#30854
0)
1*
#30981
0*
0+
#31364
1)
#31491
0)
1*
#31618
0*
1+
#31745
1)
#31750
0)
0+
#32191
1)
#32387
0)
1*
#32510
1)
#32637
0)
0*
1+
#33020
0+
#33147
1'
#33275
0'
1)
#33402
0)
1*
#33529
1)
#34039
0*
1+
#34166
0)
1*
#34293
1)
#34612
0)
0*
0+
#35189
1)
#35312
0)
1*
#35695
1)
0*
1+
#35822
1*
#35950
0)
0*
0+
#36077
1)
#36204
0)
1*
#36714
0*
1+
#36841
1)
#36968
0)
0+
#37222
1)
#37606
1*
#37733
0)
0*
1+
#37737
1)
#38179
0)
1*
#38625
1)
#38752
0)
0*
0+
#38879
1*
#39006
1)
#39133
0*
1+
#39516
0)
1*
#39643
1)
#39770
0)
0+
#39897
1)
#40025
0)
0*
1+
#40535
1)
#40662
1'
0)
0+
#40789
0'
#40916
1)
#40920
0)
1*
#40981
1)
#41362
0)
0*
1+
#41558
1)
#41681
0)
0+
#41808
1)
#41935
0)
1*
#42445
0*
1+
#42572
1)
1*
#42700
0)
0*
0+
#42827
1)
#42954
0)
1*
#43462
1)
#43589
0)
0*
1+
#43716
0+
#43843
1'
#43970
0'
1*
#44289
1)
0*
1+
#44866
0)
1*
#45372
1)
#45500
0)
0*
0+
#45627
1)
#45754
0)
1*
#45881
0*
1+
#46264
1)
#46391
0)
1*
#46518
1)
#46645
0)
0*
0+
#46772
1)
#47283
0)
1+
#47410
1)
#47414
0)
0+
#47856
1*
#48175
1)
#48302
0)
0*
1+
#48429
1)
#48556
0)
1*
#48683
1)
#49193
0)
0+
#49320
1)
#49447
0)
0*
1+
#49831
1)
#49958
1*
#50085
0*
0+
#50212
0)
1*
#50339
1)
#50343
0)
0*
1+
#50404
1)
#50785
0)
0+
#51104
1)
#51614
0)
1*
#51741
1)
#51868
0*
#51995
0)
1*
#52122
1)
#52506
0)
0*
1+
#52633
1)
#52760
0)
0+
#52887
1'
#53014
0'
#53141
1)
#53587
0)
1*
#54164
1)
#54543
0)
0*
1+
#54670
1)
1*
#54797
0)
0*
0+
#54925
1)
#55052
0)
1*
#55562
1)
#55689
0)
0*
1+
#55816
1*
#55943
1)
#56070
0)
0*
0+
#56454
1*
#56581
1)
#56708
0*
#56712
0)
1*
#57154
0*
1+
#57472
1)
#57600
0)
1*
#57727
1)
#57854
0)
0*
0+
#57981
1)
#58364
1+
#58491
0)
1*
#58618
1)
#58745
0)
0*
0+
#58872
1)
#59383
1*
#59510
0)
0*
1+
#59637
1)
#59764
0)
0+
#59904
1*
#59964
1)
#60541
0)
0*
1+
#60664
1)
#60791
0)
1*
#61175
1)
0*
0+
#61302
0)
1*
#61429
1)
#61556
0*
1+
#61683
0)
1*
#62193
0*
0+
#62320
1)
#62447
0)
1*
#62575
1)
#62702
0)
0*
1+
#63085
1)
#63147
0)
0+
#63725
1'
#64104
0'
#64231
1)
#64358
0)
1*
#64485
1)
#64612
0)
0*
1+
#64995
1*
#65122
1)
#65250
0)
0*
0+
#65377
1)
#65504
0)
1*
#66014
1)
#66141
0)
1+
#66268
1)
#66272
0)
0*
0+
#66714
1)
#67033
1*
#67160
0*
1+
#67287
1'
0)
0+
#67414
0'
1)
#67797
0)
1+
#67925
1)
#68052
0)
1*
#68179
1)
#68306
0)
0*
0+
#68433
1)
#68825
0)
1+
#68952
1)
#69079
0)
1*
#69206
0*
0+
#69333
1*
#69464
1)
#69525
0)
0*
1+
#70102
1)
#70225
0)
0+
#70735
1*
#70862
1)
#70989
0)
0*
1+
#71116
1)
#71243
0)
1*
#71627
0*
0+
#71754
1)
#71881
0)
1*
#72008
1)
#72135
0)
0*
1+
#72645
1)
#72650
0)
0+
#73091
1)
#73537
0)
1*
#73664
1)
#73791
0)
0*
1+
#73918
0+
#74045
1'
#74556
0'
1)
#74683
0)
1*
#74810
1)
#74937
0)
1+
#75064
1)
#75447
0)
0*
0+
#75575
1)
#75702
0)
1*
#75829
1)
0*
1+
#75833
0)
1*
#75893
1)
#76275
0)
0*
0+
#76470
1)
#76593
0)
1*
#76720
1)
0*
1+
#76847
0)
0+
#77358
1)
#77485
1*
#77612
0)
0*
1+
#77739
1)
#77866
0)
1*
#78250
1)
#78377
0)
0*
0+
#78504
1*
#78631
1)
#78758
0)
0*
1+
#79077
1)
#79654
0)
1*
#79777
1)
#80160
0)
0+
#80287
1)
#80414
0)
0*
1+
#80541
1)
#80668
0)
0+
#81179
1'
#81306
0'
#81433
1*
#81560
1)
#81687
0)
0*
1+
#82070
1)
#82197
0)
1*
#82202
1)
0*
0+
#82643
0)
1*
#83089
1)
#83216
0)
0*
1+
#83343
1)
#83470
0)
1*
#83597
0*
0+
#83981
1)
#84108
0)
1*
#84235
1)
#84362
0*
1+
#84489
0)
0+
#84872
1'
#85000
0'
1*
#85127
1)
#85254
0)
0*
1+
#85381
1*
#85385
0*
0+
#85445
1)
#85827
0)
1*
#86022
1)
#86145
0)
1+
#86272
1)
#86400
0)
0*
0+
#86783
1)
#86910
0)
1*
#87037
1)
#87164
0)
1+
#87291
0*
0+
#87929
1+
#88056
1)
#88183
0)
1*
#88310
1)
#88629
0)
0*
0+
#89206
1)
1*
#89712
0)
0*
1+
#89839
1)
#89966
0)
1*
#90093
1)
#90220
0)
0*
0+
#90604
1*
#90731
1)
#90858
0)
0*
1+
#90985
1)
#91112
0)
1*
#91622
0*
0+
#91750
1'
#91754
0'
#92195
1*
#92514
1)
#92641
0)
0*
1+
#92768
1)
#92895
0)
1*
#93022
1)
0*
0+
#93533
0)
1*
#93660
1)
#93787
0)
0*
1+
#94297
1)
#94425
0)
0+
#94552
1)
#94679
0)
1*
#94806
1)
#94810
0)
0*
1+
#95006
1'
0+
#95129
0'
1*
#95256
1)
#95766
0)
1+
#95893
1)
#96020
0)
0*
0+
#96147
1)
#96275
1*
#96658
0*
1+
#96785
0)
1*
#96912
1)
#97039
0)
0*
0+
#97166
1)
#97612
0)
1*
#98189
0*
1+
#98568
1)
#98695
0)
1*
#98822
0*
0+
#99077
1)
1*
#99587
0)
0*
1+
#99714
1)
#99841
0)
1*
#99968
1)
#100095
0)
0*
0+
#100479
1*
#100606
1)
#100733
0)
0*
1+
#100737
1)
#101179
0)
1*
#101497
1)
#101625
0)
0+
#101752
1)
#101879
0*
1+
#102006
0)
1*
#102516
0*
0+
#102643
1'
#102770
0'
#102897
1*
#103025
1)
#103408
0)
0*
1+
#103535
1)
#103662
0)
0+
#103789
1*
#103916
1)
#104047
0)
0*
1+
#104108
1)
#104685
1*
#104808
0)
0*
0+
#104935
1*
#105318
0*
1+
#105445
1'
0+
#105572
0'
1*
#105700
1)
#105827
0*
1+
#106337
0)
1*
#106464
1)
#106591
0)
0*
0+
#106718
1)
#106845
0)
1*
#107485
0*
1+
#107864
1)
#107991
0)
1*
#108118
1)
#108502
0)
0*
0+
#108629
1)
#108756
0)
1+
#108883
1)
#109010
0)
1*
#109393
0*
0+
#109647
1)
1*
#109775
0)
0*
1+
#109779
1)
#110220
0)
1*
#110539
1)
#110666
0+
#110793
0)
0*
1+
#110920
1)
#111304
0)
1*
#111431
1)
#111558
0)
0+
#111685
1)
#112195
0)
0*
1+
#112322
1*
#112450
0*
0+
#112577
1'
#112768
0'
#113345
1*
#113468
1)
#113979
0)
0*
1+
#114106
1)
#114233
1*
#114360
0)
0*
0+
#114487
1*
#114870
1)
#114997
0)
0*
1+
#115125
1)
1*
#115252
0)
0*
0+
#115379
1)
#115889
0)
1*
#115893
1)
#116335
0)
0*
1+
#116781
1*
#116908
1'
0*
0+
#117035
0'
#117162
1*
#117289
1)
0*
1+
#117672
0)
1*
#117800
1)
#117927
0)
0*
0+
#118054
1)
#118181
0)
1+
#118308
1)
#118691
0)
1*
#118818
1)
#118945
0)
0*
0+
#119072
1)
#119077
0)
1+
#119137
1)
#119518
0)
1*
#119714
0*
0+
#119964
1)
1*
#120091
0)
0*
1+
#120602
1)
#120729
0)
1*
#120856
1)
#120983
0)
0+
#121110
1)
#121493
0)
0*
1+
#121620
1)
#121747
0)
1*
#121875
1)
0*
0+
#122002
0)
1*
#122320
1)
#122897
0*
1+
#123020
0)
1*
#123404
0*
0+
#123531
1'
#123658
0'
1*
#123785
1)
#123912
0)
0*
1+
#124422
1)
1*
#124550
0)
0*
0+
#124677
1)
#124804
0)
1*
#124931
1)
#125314
0)
0*
1+
#125441
1*
#125445
0*
0+
#125887
1)
#126333
0)
1*
#126460
1)
#126587
0)
1+
#127097
0*
0+
#127225
1'
#127352
0'
#127479
1*
#127606
0*
1+
#127989
1)
#128116
0)
1*
#128243
1)
#128370
0)
0*
0+
#128497
1)
#128502
1*
#128562
0)
0*
1+
#128943
1)
#129139
0)
1*
#129262
1)
#129389
0)
0*
0+
#129516
1)
1*
#129900
0*
1+
#130027
0)
1*
#130154
0*
0+
#130281
1'
#130408
0'
#130918
1*
#131045
1)
#131172
0*
1+
#131300
0)
1*
#131427
1)
0*
0+
#131745
0)
1*
#132322
1)
#132829
0)
0*
1+
#132956
1)
#133083
0)
1*
#133466
0*
0+
#133593
1)
#133720
0)
1*
#133847
1)
#133975
0)
0*
1+
#134358
1)
#134485
0)
0+
#134612
1*
1+
#134616
1'
0*
0+
#135058
0'
1*
#135377
1)
#135504
0)
0*
1+
#135631
1*
#135758
1)
#135885
0)
0*
0+
#136268
1)
#136395
0)
1*
#136522
1+
#136650
1)
#136777
0)
0*
0+
#136904
1)
#137414
0)
1*
#137541
1)
0*
1+
#137668
0)
1*
#137795
0*
0+
#137927
1)
1*
#137987
0)
0*
1+
#138368
1*
#138945
1)
#139068
0)
0*
0+
#139195
1)
1*
#139706
0)
0*
1+
#139833
1)
#139960
0)
1*
#140087
1)
#140214
0)
0*
0+
#140597
1*
#140725
0*
1+
#140852
1)
#140979
0)
1*
#141106
0*
0+
#141552
1'
#142129
0'
#142508
1*
#142635
1)
#142762
0)
0*
1+
#142889
1)
#143016
0)
1*
#143400
0*
0+
#143527
1)
#143654
0)
1*
#143781
1)
#143908
0)
0*
1+
#144035
1)
#144418
0)
0+
#144545
1)
#144672
0)
1*
#144677
1)
#145118
0)
0*
1+
#145437
1)
#145564
0)
1*
0+
#145691
1)
#145818
0)
1+
#146329
1)
#146456
0)
0*
0+
#146583
1)
#146710
0)
1*
#146837
1)
0*
1+
#147220
0)
1*
#147347
1)
#147475
0*
0+
#147602
0)
1*
#147729
0*
1+
#147860
1)
#147920
0)
1*
#148497
0*
0+
#148747
1)
1*
#149131
0)
0*
1+
#149258
1)
#149385
1*
#149512
0)
0*
0+
#149639
1*
#150150
1)
#150277
0)
0*
1+
#150404
1)
#150531
0)
1*
#150658
0+
#151041
0*
1+
#151487
1)
#151933
0)
1*
#152060
0*
0+
#152187
1'
#152314
0'
#152441
1*
#152568
1)
#152977
0)
0*
1+
#153104
1)
#153231
0)
0+
#153358
1)
#153485
0)
1*
#153868
1)
#153995
0)
0*
1+
#154122
1)
#154250
1*
#154254
0)
0*
0+
#154695
1)
#155014
0)
1*
#155141
1)
#155268
0)
0*
1+
#155395
1*
#155779
1'
0*
0+
#155906
0'
1*
#156033
1)
0*
1+
#156160
0)
1*
#156287
0*
0+
#156797
1)
#156925
0)
1*
#157052
0*
1+
#157179
1)
#157306
1*
#157497
0)
0*
0+
#158075
1)
#158197
1+
#158708
0)
1*
#158835
0*
0+
#159345
1)
1*
#159472
0)
0*
1+
#159600
1)
#159727
0)
1*
#159854
1)
#160364
0)
0+
#160368
1)
#160810
0)
0*
1+
#161256
1)
#161383
0)
1*
#161510
1)
#161637
0*
0+
#161764
0)
1*
#162147
1)
#162275
0)
0*
1+
#162402
1)
#162529
0)
1*
#162656
0*
0+
#163166
1'
#163293
0'
#163420
1*
#163547
0*
1+
#163552
1)
#163612
1*
#163993
0)
0*
0+
#164189
1)
#164312
0)
1*
#164439
1)
#164566
0)
0*
1+
#165077
1*
#165204
1)
#165331
0)
0*
0+
#165458
1*
#165585
1)
#165968
0)
1+
#166095
1'
0*
0+
#166222
0'
#166350
1*
#166477
0*
1+
#166795
1)
#167372
0)
1*
#167495
1)
#167879
0*
0+
#168006
0)
1+
#168133
1)
#168260
0)
1*
#168387
1)
#168897
0)
0*
0+
#169025
1)
#169152
1*
#169279
0)
0*
1+
#169406
1)
#169916
0)
1*
#170043
0*
0+
#170489
1*
#170808
1)
#170935
0)
0*
1+
#171062
1)
#171189
0)
1*
#171316
1)
#171827
0*
0+
#171954
0)
1*
#172081
1)
#172208
0)
0*
1+
#172335
1*
#172718
1)
0*
0+
#172845
0)
1*
#172972
1)
#173100
0)
0*
1+
#173227
1)
#173231
0)
1*
#173291
0*
0+
#173672
1'
#173868
0'
1*
#173991
1)
#174118
0)
0*
1+
#174245
1*
#174629
1)
#174756
0)
0*
0+
#174883
1)
#175010
0)
1*
#175137
1)
#175647
0)
1+
#175775
1)
#175902
0)
0*
0+
#176029
1)
#176156
1*
#176475
0*
1+
#177052
0)
1*
#177558
0*
0+
#177685
1'
#177812
0'
#178322
1+
#178450
1)
#178577
0)
1*
#178704
1)
#178831
0)
0*
0+
#179214
1)
#179341
1*
#179468
0)
0*
1+
#179472
1)
#179914
0)
1*
#180233
1)
#180360
0)
0*
0+
#180487
1)
1*
#180614
0)
0*
1+
#180741
1)
#181125
0)
1*
#181252
0*
0+
#181379
1'
#181506
0'
#181633
1*
#182143
1)
#182270
0)
0*
1+
#182397
1)
#182525
0)
1*
#182652
1)
0*
0+
#182656
0)
1*
#182716
1)
#183293
0)
0*
1+
#183416
1*
#183543
0*
0+
#184054
1)
#184181
0)
1*
#184308
1)
#184435
0)
0*
1+
#184562
1)
#184945
0)
1*
0+
#185072
1)
#185200
0)
1+
#185327
0*
0+
#185454
1)
#185837
0)
1*
#185900
1)
#186477
0*
1+
#186856
0)
1*
#186983
1)
#187110
0)
0*
0+
#187237
1)
#187364
0)
1*
#187747
1)
0*
1+
#187875
0)
1*
#188002
0*
0+
#188639
1)
1*
#188766
0)
0*
1+
#188893
1)
#188897
0)
1*
#189339
1)
#189658
0)
0*
0+
#189785
1)
1*
#189912
0)
0*
1+
#190039
1)
#190550
0)
1*
#190677
0*
0+
#190804
1*
#190931
1)
#191058
0)
0*
1+
#191441
1)
#191568
0)
1*
#191695
0*
0+
#191822
1'
#191883
0'
#192460
1)
1*
#192843
0)
0*
1+
#192970
1)
#193097
0)
1*
#193225
0*
0+
#193352
1)
#193735
0)
1*
#193862
1)
#193989
0)
0*
1+
#194116
1)
#194243
0)
0+
#194370
1)
#194779
0)
1*
#195225
1)
#195670
0)
0*
1+
#195797
1'
0+
#195925
0'
1)
1*
#196052
0)
0*
1+
#196179
1*
#196689
1)
#196816
0)
0*
0+
#196943
1)
#197070
0)
1*
#197197
1)
#197581
0)
1+
#197708
0*
0+
#197835
1)
#197962
1*
#197966
0*
1+
#198408
0)
1*
#198604
1)
#198727
0)
0*
0+
#198981
1+
#199108
1*
#199491
1)
#199618
0)
0*
0+
#199745
1)
#199872
1*
#200000
0)
0*
1+
#200510
1)
#200637
0)
1*
#200764
1)
#200891
0)
0*
0+
#201018
1)
1*
#201210
0)
0*
1+
#201787
1)
#201910
0)
1*
#202293
1)
#202420
0)
0*
0+
#202547
1'
#202675
0'
#202802
1)
1*
#202929
0)
0*
1+
#203337
1)
#203464
0)
0+
#203591
1)
#203718
0)
1*
#203845
1)
#204229
0)
0*
1+
#204356
1)
#204360
0+
#204802
0)
1*
#205247
1)
#205375
0)
0*
1+
#205502
1)
#205629
1*
#205756
1'
0)
0*
0+
#206139
0'
1)
1*
#206266
1+
#206393
0)
0*
0+
#206520
1)
#206647
0)
1*
#207158
1)
#207285
0*
1+
#207412
0)
1*
#207539
1)
#207543
0)
0*
0+
#207604
1*
#207985
1)
0*
1+
#208181
0)
1*
#208304
1)
#208431
0)
0*
0+
#209068
1+
#209195
1)
#209322
0)
1*
#209450
1)
#209577
0+
#209960
0)
0*
1+
#210087
1)
#210214
0)
1*
#210341
1)
#210468
0)
0*
0+
#210787
1*
#211170
1)
#211297
0)
0*
1+
#211425
1)
#211552
0)
1*
#211679
0*
0+
#212062
1'
#212189
0'
#212316
1)
1*
#212443
0)
0*
1+
#212570
1)
#213081
0)
0+
#213208
1)
#213212
0)
1*
#213654
1)
#213972
0)
0*
1+
#214100
1)
#214227
1*
#214354
0*
0+
#214481
0)
1*
#214991
1)
#215118
0)
0*
1+
#215245
1)
1*
#215372
0)
0*
0+
#215500
1'
#215883
0'
#216010
1)
1*
#216137
0*
1+
#216264
1*
#216391
0)
0*
0+
#216395
1)
#216456
0)
1*
#216837
1)
0*
1+
#217033
0)
1*
#217156
1)
#217283
0)
0*
0+
#217410
1)
#217793
0)
1+
#217920
1)
#218047
0)
1*
#218175
1)
#218302
0)
0*
0+
#218812
1)
1*
#218939
0)
0*
1+
#219066
1)
#219512
0)
1*
#220089
1)
#220468
0)
0*
0+
#220595
1*
#220722
1)
#220850
0)
0*
1+
#221360
1)
#221487
0)
1*
#221614
1)
#221741
0*
0+
#221868
0)
1*
#222252
1)
#222379
0)
0*
1+
#222506
1)
#222510
0)
1*
#222952
1)
#223270
0*
#223397
0)
0+
#223525
1'
#223652
0'
1)
1*
#223779
0)
0*
1+
#224162
1)
#224289
1*
#224416
0)
0*
0+
#224543
1)
#224670
0)
1*
#225181
0*
1+
#225308
1)
1*
#225435
0)
0*
0+
#225562
1)
#225689
0)
1*
#225693
1)
#225754
0)
0*
1+
#226331
1*
#226454
1)
#226581
0)
0*
0+
#227091
1)
1*
#227218
0*
1+
#227345
0)
1*
#227729
1)
#227856
0)
0*
0+
#227983
1)
#228110
0)
1*
#228237
0*
1+
#228620
1)
#228683
1*
#229260
0)
0*
0+
#229639
1)
#229766
0)
1+
#229893
1)
#230020
0)
1*
#230147
1)
#230531
0)
0*
0+
#230785
1)
1*
#230912
0)
0*
1+
#231039
1)
#231550
0)
1*
#231677
1)
#231804
0*
0+
#231808
0)
1*
#232250
1)
#232568
0)
0*
1+
#232695
1)
#232822
0)
1*
#232950
1)
0*
0+
#233460
0)
1*
#233587
1)
#233714
0)
0*
1+
#234097
1)
#234225
0)
1*
#234352
0*
0+
#234479
1'
#234606
0'
1)
1*
#234737
0)
0*
1+
#234797
1)
1*
#235375
0)
0*
0+
#235758
1)
#235885
0)
1*
#236012
1)
#236139
0)
1+
#236266
1)
#236650
0)
0*
0+
#236777
1)
#236904
0)
1*
#237031
1)
#237158
0)
1+
#237668
1)
#237672
0)
0*
0+
#237925
1+
#238052
1)
#238179
0)
1*
#238306
1)
#238433
0)
0*
0+
#238943
1)
#239070
0)
1+
#239197
1)
#239325
0)
1*
#239452
1)
#239835
0)
0*
0+
#239962
1)
1*
#240089
0)
0*
1+
#240216
1)
#240220
0)
1*
#240662
1)
#240858
0)
0*
0+
#240981
1'
#241108
0'
#241235
1)
1*
#241362
0)
0*
1+
#241745
1)
#241872
0)
1*
#242000
1)
0*
0+
#242127
0)
1*
#242254
1)
#242637
0*
1+
#242764
0)
1*
#242891
0*
0+
#243018
1*
#243337
1)
#243914
0)
0*
1+
#244037
1)
#244420
1'
0)
0+
#244547
0'
1+
#244675
1*
#244802
1)
#244929
0)
0*
0+
#245439
1)
#245566
0)
1*
#245693
1)
#245820
0)
1+
#245947
1)
#246331
0)
0*
0+
#246458
1)
#246462
0)
1*
#246904
1)
#247350
0*
1+
#247477
0)
1*
#247604
1)
#247731
0)
0*
0+
#248241
1+
#248368
1)
#248495
0)
1*
#248622
1)
#248750
0*
0+
#249260
1*
#249387
0)
0*
1+
#249514
1)
#249641
0)
1*
#249645
0+
#249706
1)
#250087
0)
0*
1+
#250283
1)
#250406
0)
1*
#250533
1)
#250660
0)
0*
0+
#251043
1'
#251170
0'
1)
1*
#251297
0)
0*
1+
#251425
1)
#251935
0)
1*
#252062
0*
0+
#252189
1)
#252316
0)
1*
#252443
1)
#252762
0)
0*
1+
#253339
1)
#253845
0)
0+
#253972
1)
#254100
0)
1*
#254227
1)
#254354
0)
0*
1+
#254737
1)
#254864
1*
#254991
1'
0)
0*
0+
#255118
0'
1)
1*
#255245
1+
#255756
0)
0*
0+
#255883
1)
#255887
0)
1*
#256329
1)
#256647
0*
1+
#256775
0)
1*
#256902
1)
#257029
0)
0*
0+
#257156
1)
#257666
0)
1*
#257793
1+
#257920
1)
#258047
0)
0*
0+
#258558
1+
#258685
1*
#258812
1)
#258939
0)
0*
0+
#259066
1*
#259070
1)
#259131
0)
0*
1+
#259512
1)
#259708
1*
#259831
0)
0+
#259958
1)
#260085
0)
0*
1+
#260595
1)
#260722
0)
1*
#260850
1)
#260977
0)
0*
0+
#261104
1'
#261487
0'
#261614
1+
#261741
1)
#261868
0)
0+
#262314
1)
#262891
0)
1*
#263270
1)
#263397
0)
0*
1+
#263525
1)
#263652
1*
#263779
0)
0*
0+
#264289
1*
#264416
1)
#264543
0)
0*
1+
#264670
1)
1*
#264797
0)
0*
0+
#265181
1'
#265308
0'
#265435
1)
1*
#265439
0*
1+
#265881
0)
1*
#266200
1)
#266327
0)
0*
0+
#266454
1)
#266581
0)
1*
#266708
1)
0*
1+
#267091
0)
1*
#267218
1)
#267345
0)
0*
0+
#267472
1)
#267600
0)
1*
#267983
0*
1+
#268110
1)
#268237
0)
1*
#268364
1)
#268460
0)
0*
0+
#268520
1'
#269097
0'
#269220
1+
#269347
1)
#269731
0)
1*
#269858
1)
#269985
0)
0+
#270112
1)
#270239
0)
0*
1+
#270366
1*
#270877
1)
#271004
0*
0+
#271131
0)
1*
#271258
1)
#271385
0)
0*
1+
#271962
1)
#272341
0)
1*
#272468
0*
0+
#272595
1'
#272722
0'
1)
1*
#272850
0)
0*
1+
#273233
1)
#273360
1*
#273487
0)
0*
0+
#273614
1)
#273741
0)
1*
#274252
1)
#274379
0)
0*
1+
#274506
1)
1*
#274510
0)
0*
0+
#274952
1)
#275270
0)
1*
#275397
1)
#275525
0)
0*
1+
#275652
1*
#276035
1)
#276162
0)
0*
0+
#276289
1)
1*
#276416
0*
1+
#276808
0)
1*
#276935
1)
#277062
0)
0*
0+
#277189
1)
#277250
0)
1*
#277827
0*
1+
#278337
1*
#278464
1)
#278591
0)
0*
0+
#278718
1)
#278845
0)
1+
#279229
1)
#279356
0)
1*
#279483
1)
#279610
0)
0*
0+
#279737
1'
#280247
0'
#280252
1)
1*
#280693
0)
0*
1+
#281139
1)
#281266
0)
1*
#281393
1)
#281520
0*
0+
#281647
0)
1*
#282158
0*
1+
#282285
1)
#282412
0)
1*
#282539
1)
0*
0+
#282666
0)
1*
#283050
1)
#283177
0)
0*
1+
#283304
1)
#283431
0)
1*
#283435
1'
0*
0+
#283495
0'
1)
1*
#283877
0)
0*
1+
#284072
1)
1*
#284195
0)
0*
0+
#284322
1)
#284450
1*
#284577
0)
0*
1+
#284985
1*
#285112
1)
#285239
0)
0*
0+
#285366
1)
#285493
0)
1*
#285877
1)
#286004
1+
#286131
0)
0*
0+
#286385
1+
#286704
1)
#287281
0)
1*
#287404
1)
#287787
0)
0*
0+
#287914
1)
#288041
0)
1+
#288168
1*
#288295
1)
#288806
0)
0*
0+
#288933
1)
1*
#289060
0)
0*
1+
#289187
1)
#289314
0)
1*
#289697
0*
0+
#289825
1'
#289829
0'
#290270
1)
1*
#290716
0)
0*
1+
#290843
1)
#290970
0)
1*
#291097
1)
0*
0+
#291225
0)
1*
#291608
1)
#291735
0)
0*
1+
#291862
1)
#291989
0)
1*
#292116
0*
0+
#292627
1)
#292754
0)
1*
#292881
1)
#293008
0)
0*
1+
#293012
1)
#293072
1'
0)
0+
#293454
0'
1)
1*
#293650
0)
0*
1+
#293772
1*
#293900
1)
#294027
0)
0*
0+
#294410
1)
#294537
1*
#294664
0)
1+
#294791
1)
#294918
0)
0*
0+
#295429
1)
#295556
0)
1*
#295683
1)
#295810
0*
1+
#295937
1*
#296256
0)
0*
0+
#297339
1+
#297466
1)
#297593
0)
1*
#297720
1)
#297847
0)
0*
0+
#298231
1)
1*
#298358
0)
0*
1+
#298485
1)
#298612
0)
1*
#298739
1)
#299250
0)
0*
0+
#299377
1*
#299381
1)
#299385
0)
0*
1+
#299822
1)
#300141
0)
1*
#300268
1)
#300395
0)
0*
0+
#300522
1'
#300650
0'
#301160
1)
1*
#301287
0)
0*
1+
#301414
1)
#301925
0)
1*
#302052
0*
0+
#302179
1!
#302306
1)
#302433
0)
1*
#302437
1)
#302633
0)
0*
1+
#302756
1)
#302883
0)
0+
#303393
1*
#303520
1)
#303647
0)
0*
1+
#303775
1)
#303902
1*
#304285
1'
0)
0*
0+
#304412
0'
1)
1*
#304539
1+
#304666
0)
0*
0+
#304793
1)
#305239
0)
1*
#305816
1)
#306195
0*
1+
#306322
0)
1*
#306450
1)
#306577
0)
0*
0+
#306704
1)
#307214
0)
1+
#307341
1)
#307468
0)
1*
#307595
1)
#307722
0)
0*
0+
#308233
1)
1+
#308360
0)
1*
#308364
1)
#308806
0)
0*
0+
#309125
1)
#309252
1*
#309379
0)
0*
1+
#309506
1)
#309633
0)
1*
#310143
1)
#310270
0)
0*
0+
#310397
1)
1*
#310525
0)
0*
1+
#310652
1)
#311035
0)
1*
#311162
1)
#311289
0)
0*
0+
#311416
1'
#311543
0'
1+
#311675
1*
#311735
1)
0*
0+
#312312
0)
1*
#312435
1)
#312562
0)
0*
1+
#312945
1)
#313072
0)
1*
#313200
0*
0+
#313327
1)
#313454
0)
1*
#313964
0*
1+
#314091
1)
#314218
0)
0+
#314345
1'
#314472
0'
#315112
1+
#315491
1*
#315618
0*
0+
#315745
1)
#316129
0)
1*
#316256
1)
#316383
0)
1+
#316510
1)
#316637
0)
0*
0+
#317020
1)
#317147
0)
1*
#317275
1)
0*
1+
#317402
0)
1*
#317406
1)
#317847
0)
0*
0+
#318166
1'
#318293
0'
#318420
1+
#318547
1)
#318931
0)
1*
#319058
1)
#319185
0)
0*
0+
#319312
1)
1*
#319439
0)
0*
1+
#319950
1)
#320077
0)
1*
#320204
1)
#320331
0)
0+
#320458
1)
#320650
0)
0*
1+
#321227
1)
#321350
0)
1*
#321860
1)
#321987
1'
0)
0*
0+
#322114
0'
1+
#322241
1)
#322368
0)
0+
#322752
1)
#322879
0)
1*
#323006
1)
#323133
0)
0*
1+
#323260
1)
#323770
0+
#324216
1*
#324662
0)
0*
1+
#324789
1)
#324916
1*
#325043
0)
0*
0+
#325681
1)
1+
#325808
0)
1*
#325935
1)
#326062
0)
0*
0+
#326189
1)
#326700
1*
#326827
0*
1+
#326954
0)
1*
#327081
1)
#327145
0)
0*
0+
#327527
1)
#327722
0)
1*
#327845
0*
1+
#327972
1)
#328100
0)
1*
#328610
1)
#328737
0)
0*
0+
#328864
1'
#328991
0'
#329118
1)
1+
#329502
0)
1*
#329629
1)
#329756
0)
0*
0+
